
Comms Startup 
540
549 c:3.1414,0,0 w:0.0000,0.0000,0.0000 q:0.000000,0.000000,0.000000 0.000000 wh:93,99,88,90 p:255,336 
658 c:3.1414,0,0 w:0.0000,0.0000,0.0000 q:0.000000,0.000000,0.000000 0.000000 wh:93,99,88,90 p:255,336 
768 c:3.1414,0,0 w:0.0000,0.0000,0.0000 q:0.000000,0.000000,0.000000 0.000000 wh:152,148,151,152 p:425,365 
880 c:3.1414,0,0 w:0.0000,0.0000,0.0000 q:0.000000,0.000000,0.000000 0.000000 wh:187,182,187,186 p:414,366 
994 c:3.1414,0,0 w:0.0000,0.0000,0.0000 q:0.000000,0.000000,0.000000 0.000000 wh:187,182,187,186 p:414,366 
1111 c:3.1414,0,0 w:0.0000,0.0000,0.0000 q:0.000000,0.000000,0.000000 0.000000 wh:199,193,197,197 p:421,367 
1223 c:3.1414,0,0 w:0.0000,0.0000,0.0000 q:0.000000,0.000000,0.000000 0.000000 wh:218,219,217,218 p:456,373 
1338 c:3.1414,0,0 w:0.0000,0.0000,0.0000 q:0.000000,0.000000,0.000000 0.000000 wh:218,219,217,218 p:456,373 
1453 c:3.1414,0,0 w:0.0000,0.0000,0.0000 q:0.000000,0.000000,0.000000 0.000000 wh:225,226,228,226 p:471,376 
1566 c:3.1414,0,0 w:0.0000,0.0000,0.0000 q:0.000000,0.000000,0.000000 0.000000 wh:239,236,239,240 p:467,378 
1685 c:3.1414,0,0 w:0.0000,0.0000,0.0000 q:0.000000,0.000000,0.000000 0.000000 wh:239,236,239,240 p:467,378 
1798 c:3.1414,0,0 w:0.0000,0.0000,0.0000 q:0.000000,0.000000,0.000000 0.000000 wh:249,244,247,246 p:479,380 
1912 c:3.1414,0,0 w:0.0000,0.0000,0.0000 q:0.000000,0.000000,0.000000 0.000000 wh:250,248,249,249 p:490,381 
2027 c:3.1414,0,0 w:0.0000,0.0000,0.0000 q:0.000000,0.000000,0.000000 0.000000 wh:250,248,249,249 p:490,381 
2145 c:3.1414,0,0 w:0.0000,0.0000,0.0000 q:0.000000,0.000000,0.000000 0.000000 wh:255,254,256,254 p:489,382 
2257 c:3.1414,0,0 w:-0.0085,-0.0012,-0.0060 q:0.999830,-0.016268,-0.002737 -0.007684 wh:257,254,256,256 p:490,383 
2378 c:3.1414,0,0 w:-0.0085,-0.0012,-0.0060 q:0.999830,-0.016268,-0.002737 -0.007684 wh:257,254,256,256 p:490,383 
2499 c:3.1414,0,0 w:0.0104,0.0022,0.0049 q:0.999838,-0.015857,-0.002527 -0.007538 wh:259,259,259,260 p:487,383 
2617 c:3.1414,0,0 w:0.0197,-0.0006,0.0092 q:0.999867,-0.014242,-0.002778 -0.006834 wh:263,260,265,264 p:503,384 
2739 c:3.1414,0,0 w:0.0301,-0.0018,0.0105 q:0.999904,-0.011832,-0.003013 -0.005787 wh:264,259,264,266 p:495,384 
2856 c:3.1414,0,0 w:0.0301,-0.0018,0.0105 q:0.999904,-0.011832,-0.003013 -0.005787 wh:264,259,264,266 p:495,384 
2974 c:3.1414,0,0 w:0.0254,-0.0038,0.0131 q:0.999926,-0.010186,-0.003179 -0.004999 wh:261,261,263,262 p:492,385 
3093 c:3.1414,0,0 w:0.0209,-0.0039,0.0060 q:0.999947,-0.008121,-0.003627 -0.004349 wh:264,259,265,266 p:501,385 
3216 c:3.1414,0,0 w:0.0209,-0.0039,0.0060 q:0.999947,-0.008121,-0.003627 -0.004349 wh:264,259,265,266 p:501,385 
3333 c:3.1414,0,0 w:0.0058,0.0028,0.0018 q:0.999955,-0.007251,-0.003527 -0.004021 wh:267,263,269,266 p:492,385 
3450 c:3.1414,0,0 w:-0.0101,0.0000,-0.0002 q:0.999952,-0.007689,-0.003317 -0.004070 wh:262,261,265,263 p:504,385 
3570 c:3.1414,0,0 w:-0.0101,0.0000,-0.0002 q:0.999939,-0.009016,-0.003248 -0.004070 wh:262,261,265,263 p:494,386 
3690 c:3.1414,0,0 w:-0.0146,0.0003,-0.0084 q:0.999939,-0.009016,-0.003248 -0.004709 wh:261,262,261,264 p:494,386 
3813 c:3.1414,0,0 w:-0.0127,0.0060,0.0060 q:0.999928,-0.010287,-0.002747 -0.004658 wh:264,259,261,265 p:502,386 
3931 c:3.1414,0,0 w:-0.0110,0.0066,0.0093 q:0.999924,-0.010996,-0.002272 -0.004215 wh:268,267,266,270 p:502,386 
4049 c:3.1414,0,0 w:-0.0110,0.0066,0.0093 q:0.999924,-0.010996,-0.002272 -0.004215 wh:268,267,266,270 p:502,386 
4167 c:3.1414,0,0 w:-0.0090,-0.0027,0.0110 q:0.999919,-0.011802,-0.002178 -0.003137 wh:265,262,266,266 p:503,386 
4291 c:3.1414,0,0 w:-0.0087,-0.0041,0.0032 q:0.999910,-0.012561,-0.002453 -0.002717 wh:263,262,264,262 p:498,386 
4409 c:3.1414,0,0 w:-0.0087,-0.0041,0.0032 q:0.999910,-0.012561,-0.002453 -0.002717 wh:263,262,264,262 p:498,386 
4529 c:3.1414,0,0 w:-0.0081,0.0020,-0.0043 q:0.999899,-0.013335,-0.002560 -0.002985 wh:264,260,264,262 p:497,386 
4648 c:3.1414,0,0 w:-0.0079,0.0048,0.0044 q:0.999889,-0.014142,-0.002208 -0.003001 wh:267,261,265,264 p:499,386 
4767 c:3.1414,0,0 w:-0.0046,0.0025,0.0127 q:0.999886,-0.014444,-0.002060 -0.002432 wh:264,262,266,266 p:500,386 
4889 c:3.1414,0,0 w:-0.0046,0.0025,0.0127 q:0.999886,-0.014444,-0.002060 -0.002432 wh:264,262,266,266 p:500,386 
5007 c:3.1414,0,0 w:-0.0043,0.0000,0.0073 q:0.999882,-0.014891,-0.001942 -0.001479 wh:268,262,268,268 p:511,386 
5126 c:3.1414,0,0 w:-0.0009,0.0005,-0.0053 q:0.999879,-0.015077,-0.002044 -0.001621 wh:265,260,263,262 p:507,386 
5244 c:3.1414,0,0 w:-0.0009,0.0005,-0.0053 q:0.999879,-0.015077,-0.002044 -0.001621 wh:265,260,263,262 p:507,386 
5368 c:3.1414,0,0 w:0.0011,-0.0018,0.0006 q:0.999878,-0.015066,-0.002081 -0.001772 wh:267,266,268,272 p:504,386 
5485 c:3.1414,0,0 w:0.0014,0.0008,0.0111 q:0.999880,-0.015006,-0.002095 -0.001047 wh:268,266,264,266 p:509,386 
5603 c:3.1414,0,1 w:0.0014,0.0008,0.0111 q:0.999880,-0.015006,-0.002095 -0.001047 wh:268,266,264,266 p:509,386 
5721 c:3.1414,0,1 w:0.0005,-0.0021,0.0072 q:0.999881,-0.014988,-0.002268 -0.000560 wh:266,262,265,269 p:485,386 
5839 c:3.1414,0,1 w:0.0060,0.0020,-0.0023 q:0.999887,-0.014561,-0.002120 -0.000607 wh:262,261,264,264 p:499,386 
5961 c:3.1414,0,1 w:0.0102,-0.0015,-0.0020 q:0.999898,-0.013846,-0.001789 -0.000906 wh:267,261,268,269 p:493,387 
6080 c:3.1414,0,1 w:0.0102,-0.0015,-0.0020 q:0.999898,-0.013846,-0.001789 -0.000906 wh:267,261,268,269 p:493,387 
6200 c:3.1414,0,1 w:0.0130,-0.0049,0.0096 q:0.999910,-0.012901,-0.002284 -0.000285 wh:264,262,267,264 p:505,386 
6319 c:3.1414,0,1 w:0.0151,0.0000,0.0070 q:0.999924,-0.011680,-0.002341 0.000753 wh:267,266,266,265 p:490,383 
6438 c:3.1414,0,1 w:0.0151,0.0000,0.0070 q:0.999924,-0.011680,-0.002341 0.000753 wh:267,266,266,265 p:490,383 
6554 c:3.1414,0,1 w:0.0289,0.0029,-0.0011 q:0.999947,-0.009537,-0.002131 0.000941 wh:262,277,262,251 p:480,384 
6671 c:3.1414,0,1 w:0.0388,0.0012,-0.0090 q:0.999967,-0.007280,-0.001947 0.000532 wh:266,286,262,247 p:489,384 
6789 c:3.1414,0,1 w:0.0388,0.0012,-0.0090 q:0.999967,-0.007280,-0.001947 0.000532 wh:266,286,262,247 p:489,384 
6906 c:3.1414,0,1 w:0.0498,-0.0055,-0.0046 q:0.999988,-0.003086,-0.002254 0.000050 wh:263,300,268,240 p:493,385 
7028 c:3.1414,0,1 w:0.0631,-0.0058,0.0089 q:0.999989,0.002312,-0.002795 0.000597 wh:265,311,262,227 p:484,384 
7144 c:3.1414,0,1 w:0.0631,-0.0058,0.0089 q:0.999989,0.002312,-0.002795 0.000597 wh:265,311,262,227 p:484,384 
7261 c:3.1414,0,1 w:0.0748,0.0041,0.0073 q:0.999953,0.008666,-0.002766 0.001404 wh:262,316,260,221 p:492,384 
7376 c:3.1414,0,1 w:0.0823,0.0035,-0.0060 q:0.999868,0.015747,-0.002388 0.001150 wh:260,329,263,210 p:486,383 
7496 c:3.1414,0,1 w:0.0941,-0.0058,-0.0104 q:0.999705,0.023981,-0.002455 0.000274 wh:264,346,260,204 p:485,383 
7612 c:3.1414,0,1 w:0.0941,-0.0058,-0.0104 q:0.999705,0.023981,-0.002455 0.000274 wh:264,346,260,204 p:485,383 
7730 c:3.1414,0,1 w:0.1083,-0.0070,0.0003 q:0.999434,0.033365,-0.003015 0.000151 wh:259,351,260,194 p:480,384 
7846 c:3.1414,0,1 w:0.1155,-0.0003,-0.0043 q:0.999186,0.040115,-0.003164 -0.000160 wh:256,359,260,187 p:474,383 
7965 c:3.1414,0,1 w:0.1155,-0.0003,-0.0043 q:0.999186,0.040115,-0.003164 -0.000160 wh:256,359,260,187 p:474,383 
8087 c:3.1414,0,1 w:0.1289,0.0069,0.0053 q:0.998681,0.051184,-0.002936 0.000032 wh:259,377,259,180 p:464,382 
8202 c:3.1414,0,1 w:0.1378,0.0035,-0.0024 q:0.998011,0.062910,-0.002667 0.000446 wh:266,391,266,179 p:464,382 
8318 c:3.1414,0,1 w:0.1378,0.0035,-0.0024 q:0.998011,0.062910,-0.002667 0.000446 wh:266,391,266,179 p:464,382 
8434 c:3.1414,0,1 w:0.1469,-0.0039,-0.0163 q:0.997126,0.075648,-0.002658 -0.000763 wh:260,396,262,167 p:484,383 
8557 c:3.1414,0,1 w:0.1569,-0.0067,-0.0032 q:0.995973,0.089537,-0.003293 -0.001480 wh:257,407,256,157 p:492,384 
8674 c:3.1414,0,1 w:0.1569,-0.0067,-0.0032 q:0.995973,0.089537,-0.003293 -0.001480 wh:257,407,256,157 p:492,384 
8793 c:3.1414,0,1 w:0.1634,-0.0020,-0.0008 q:0.994540,0.104239,-0.003602 -0.001401 wh:260,415,261,152 p:500,385 
8911 c:3.1414,0,1 w:0.1701,0.0032,-0.0003 q:0.992851,0.119272,-0.003261 -0.001202 wh:263,418,262,147 p:504,385 
9029 c:3.1414,0,1 w:0.1714,-0.0003,-0.0107 q:0.991575,0.129457,-0.003077 -0.001635 wh:259,422,261,138 p:516,385 
9151 c:3.1414,0,1 w:0.1714,-0.0003,-0.0107 q:0.991575,0.129457,-0.003077 -0.001635 wh:259,422,261,138 p:516,385 
9269 c:3.1414,0,1 w:0.1766,-0.0065,-0.0104 q:0.989354,0.145433,-0.003376 -0.002803 wh:261,426,264,135 p:508,386 
9387 c:3.1414,0,1 w:0.1807,-0.0062,-0.0021 q:0.986807,0.161791,-0.004009 -0.003237 wh:263,425,264,131 p:501,386 
9505 c:3.1414,0,1 w:0.1807,-0.0062,-0.0021 q:0.986807,0.161791,-0.004009 -0.003237 wh:263,425,264,131 p:501,386 
9628 c:3.1414,0,1 w:0.1850,0.0041,0.0002 q:0.983937,0.178418,-0.004119 -0.003119 wh:265,427,262,121 p:491,386 
9743 c:3.1414,0,1 w:0.1889,0.0025,-0.0101 q:0.980812,0.194862,-0.003852 -0.003548 wh:267,431,269,122 p:499,386 
9861 c:3.1414,0,1 w:0.1889,0.0025,-0.0101 q:0.980812,0.194862,-0.003852 -0.003548 wh:267,431,269,122 p:499,386 
9978 c:3.1414,0,1 w:0.1903,-0.0047,-0.0160 q:0.978485,0.206214,-0.003874 -0.004436 wh:265,430,265,114 p:501,386 
10097 c:3.1414,0,1 w:0.1953,-0.0076,-0.0053 q:0.974668,0.223531,-0.004389 -0.005365 wh:267,427,267,108 p:510,386 
10220 c:3.1414,0,1 w:0.1978,-0.0076,-0.0053 q:0.970414,0.241322,-0.004794 -0.005402 wh:263,428,264,104 p:495,387 
10339 c:3.1414,0,1 w:0.1978,-0.0003,0.0014 q:0.970414,0.241322,-0.004794 -0.005402 wh:263,428,264,104 p:495,387 
10458 c:3.1414,0,1 w:0.2028,0.0071,-0.0046 q:0.965818,0.259110,-0.004601 -0.005343 wh:265,429,265,102 p:497,387 
10576 c:3.1414,0,1 w:0.2050,-0.0018,-0.0162 q:0.960831,0.277013,-0.004184 -0.006377 wh:263,433,267,96 p:496,387 
10698 c:3.1414,0,1 w:0.2050,-0.0018,-0.0162 q:0.960831,0.277013,-0.004184 -0.006377 wh:263,433,267,96 p:496,387 
10816 c:3.1414,0,1 w:0.2072,-0.0065,-0.0134 q:0.957158,0.289427,-0.004381 -0.007260 wh:262,429,263,90 p:501,387 
10935 c:3.1414,0,1 w:0.2106,-0.0055,-0.0002 q:0.951303,0.308100,-0.005191 -0.007795 wh:262,429,261,86 p:501,387 
11053 c:3.1414,0,1 w:0.2106,-0.0055,-0.0002 q:0.951303,0.308100,-0.005191 -0.007795 wh:262,429,261,86 p:501,387 
11171 c:3.1414,0,1 w:0.2115,0.0025,-0.0035 q:0.945035,0.326817,-0.005439 -0.007825 wh:263,435,266,85 p:494,387 
11293 c:3.1414,0,1 w:0.2118,0.0048,-0.0099 q:0.938472,0.345208,-0.004982 -0.008264 wh:264,431,264,81 p:493,387 
11410 c:3.1414,0,1 w:0.2118,0.0048,-0.0099 q:0.933898,0.357379,-0.004856 -0.009047 wh:264,431,264,81 p:488,386 
11527 c:3.1414,0,1 w:0.2123,-0.0044,-0.0151 q:0.933898,0.357379,-0.004856 -0.009047 wh:264,430,262,82 p:488,386 
11645 c:3.1414,0,1 w:0.2050,-0.0091,-0.0053 q:0.926791,0.375397,-0.005333 -0.009946 wh:263,427,265,89 p:489,387 
11767 c:3.1414,0,1 w:0.1985,-0.0035,-0.0014 q:0.919539,0.392811,-0.006012 -0.010150 wh:264,430,265,93 p:509,387 
11885 c:3.1414,0,1 w:0.1985,-0.0035,-0.0014 q:0.919539,0.392811,-0.006012 -0.010150 wh:264,430,265,93 p:509,387 
12004 c:3.1414,0,1 w:0.1972,0.0043,-0.0105 q:0.912199,0.409561,-0.005719 -0.010584 wh:261,424,265,99 p:505,387 
12122 c:3.1414,0,1 w:0.1901,0.0032,-0.0145 q:0.907277,0.420340,-0.005268 -0.011209 wh:264,418,261,105 p:488,387 
12240 c:3.1414,0,1 w:0.1901,0.0032,-0.0145 q:0.907277,0.420340,-0.005268 -0.011209 wh:264,418,261,105 p:488,387 
12362 c:3.1414,0,1 w:0.1828,-0.0038,-0.0061 q:0.900026,0.435630,-0.005124 -0.012077 wh:260,411,264,105 p:507,387 
12481 c:3.1414,0,1 w:0.1775,-0.0072,0.0058 q:0.892757,0.450324,-0.005956 -0.012229 wh:266,405,266,114 p:512,387 
12599 c:3.1414,0,1 w:0.1775,-0.0072,0.0058 q:0.892757,0.450324,-0.005956 -0.012229 wh:266,405,266,114 p:512,387 
12718 c:3.1414,0,1 w:0.1715,0.0016,0.0009 q:0.885509,0.464414,-0.006437 -0.011981 wh:265,397,263,117 p:504,387 
12839 c:3.1414,0,1 w:0.1657,0.0055,-0.0145 q:0.878360,0.477791,-0.005672 -0.012574 wh:263,398,263,121 p:511,387 
12956 c:3.1414,0,1 w:0.1625,0.0011,-0.0122 q:0.873634,0.486368,-0.005243 -0.013190 wh:262,386,266,128 p:500,387 
13075 c:3.1414,0,1 w:0.1625,0.0011,-0.0122 q:0.873634,0.486368,-0.005243 -0.013190 wh:262,386,266,128 p:500,387 
13194 c:3.1414,0,1 w:0.1567,-0.0079,0.0011 q:0.866485,0.498975,-0.005626 -0.013661 wh:269,389,269,134 p:494,387 
13313 c:3.1414,0,1 w:0.1495,-0.0036,0.0053 q:0.859538,0.510847,-0.006528 -0.013372 wh:261,375,264,138 p:485,387 
13450 c:3.1414,0,1 w:0.1495,-0.0036,0.0053 q:0.859538,0.510847,-0.006528 -0.013372 wh:261,375,264,138 p:485,387 
13576 c:3.1414,0,1 w:0.1427,0.0037,-0.0057 q:0.852671,0.522231,-0.006395 -0.013345 wh:264,373,265,145 p:496,387 
13693 c:3.1414,0,1 w:0.1378,0.0017,-0.0183 q:0.846067,0.532848,-0.005593 -0.014286 wh:266,367,264,152 p:499,387 
13812 c:3.1414,0,1 w:0.1352,-0.0018,-0.0089 q:0.841627,0.539819,-0.005453 -0.014856 wh:264,360,266,157 p:489,387 
13935 c:3.1414,0,1 w:0.1352,-0.0018,-0.0089 q:0.841627,0.539819,-0.005453 -0.014856 wh:264,360,266,157 p:489,387 
14054 c:3.1414,0,1 w:0.1309,-0.0055,0.0076 q:0.835090,0.549870,-0.006216 -0.014819 wh:266,358,265,160 p:498,387 
14173 c:3.1414,0,1 w:0.1226,-0.0015,0.0040 q:0.828827,0.559268,-0.007026 -0.014393 wh:262,350,263,166 p:499,387 
14290 c:3.1414,0,1 w:0.1226,-0.0015,0.0040 q:0.828827,0.559268,-0.007026 -0.014393 wh:262,350,263,166 p:499,387 
14409 c:3.1414,0,1 w:0.1155,0.0037,-0.0131 q:0.822810,0.568082,-0.006516 -0.014670 wh:266,355,268,175 p:489,387 
14532 c:3.1414,0,1 w:0.1103,-0.0003,-0.0107 q:0.816965,0.576443,-0.005882 -0.015451 wh:264,345,265,174 p:494,387 
14651 c:3.1414,0,1 w:0.1055,-0.0059,0.0079 q:0.811272,0.584416,-0.006457 -0.015686 wh:265,339,265,182 p:500,387 
14769 c:3.1414,0,1 w:0.1055,-0.0059,0.0079 q:0.811272,0.584416,-0.006457 -0.015686 wh:265,339,265,182 p:500,387 
14887 c:3.1414,0,1 w:0.1034,-0.0064,0.0104 q:0.807589,0.589492,-0.007194 -0.015429 wh:263,334,265,187 p:488,387 
15010 c:3.1414,0,1 w:0.0950,0.0009,-0.0049 q:0.802331,0.596631,-0.007509 -0.015222 wh:265,329,263,187 p:500,387 
15127 c:3.1414,0,1 w:0.0950,0.0009,-0.0049 q:0.802331,0.596631,-0.007509 -0.015222 wh:265,329,263,187 p:500,387 
15246 c:3.1414,0,1 w:0.0924,0.0031,-0.0108 q:0.797188,0.603483,-0.006827 -0.015667 wh:263,327,264,195 p:501,387 
15365 c:3.1414,0,1 w:0.0875,-0.0038,-0.0041 q:0.792175,0.610031,-0.006471 -0.016437 wh:266,320,265,201 p:492,387 
15484 c:3.1414,0,1 w:0.0875,-0.0038,-0.0041 q:0.792175,0.610031,-0.006471 -0.016437 wh:266,320,265,201 p:492,387 
15607 c:3.1414,0,1 w:0.0835,-0.0070,0.0130 q:0.787406,0.616175,-0.007425 -0.016039 wh:261,318,261,201 p:509,387 
15725 c:3.1414,0,1 w:0.0774,-0.0017,0.0018 q:0.782907,0.621882,-0.008113 -0.015665 wh:265,314,262,207 p:494,387 
15844 c:3.1414,0,1 w:0.0750,0.0037,-0.0073 q:0.780028,0.625492,-0.007860 -0.015692 wh:262,308,263,213 p:500,387 
15962 c:3.1414,0,1 w:0.0750,0.0037,-0.0073 q:0.780028,0.625492,-0.007860 -0.015692 wh:262,308,263,213 p:500,387 
16084 c:3.1414,0,1 w:0.0716,0.0005,-0.0096 q:0.775857,0.630651,-0.007146 -0.016295 wh:261,306,263,209 p:501,387 
16201 c:3.1414,0,1 w:0.0698,-0.0024,0.0038 q:0.771750,0.635665,-0.007309 -0.016437 wh:264,302,265,217 p:491,387 
16320 c:3.1414,0,1 w:0.0698,-0.0024,0.0038 q:0.771750,0.635665,-0.007309 -0.016437 wh:264,302,265,217 p:491,387 
16439 c:3.1414,0,1 w:0.0661,-0.0033,0.0108 q:0.767947,0.640249,-0.008386 -0.016105 wh:265,302,268,225 p:486,387 
16558 c:3.1414,0,1 w:0.0603,0.0023,-0.0046 q:0.764327,0.644569,-0.008653 -0.015834 wh:263,295,263,222 p:487,387 
16679 c:3.1414,0,1 w:0.0603,0.0023,-0.0046 q:0.764327,0.644569,-0.008653 -0.015834 wh:263,295,263,222 p:487,387 
16797 c:3.1414,0,1 w:0.0573,0.0041,-0.0122 q:0.760894,0.648621,-0.007856 -0.016148 wh:259,291,262,224 p:495,387 
16916 c:3.1414,0,1 w:0.0558,0.0009,-0.0055 q:0.758713,0.651167,-0.007603 -0.016431 wh:263,288,263,231 p:490,387 
17034 c:3.1414,0,1 w:0.0515,-0.0043,0.0137 q:0.755700,0.654655,-0.008377 -0.016313 wh:264,287,261,231 p:505,387 
17157 c:3.1414,0,1 w:0.0515,-0.0043,0.0137 q:0.755700,0.654655,-0.008377 -0.016313 wh:264,287,261,231 p:505,387 
17273 c:3.1414,0,1 w:0.0469,-0.0027,0.0072 q:0.752778,0.658013,-0.009339 -0.015747 wh:262,282,261,235 p:497,387 
17392 c:3.1414,0,1 w:0.0445,0.0058,-0.0032 q:0.750096,0.661077,-0.009111 -0.015522 wh:261,280,259,237 p:493,387 
17511 c:3.1414,0,1 w:0.0445,0.0058,-0.0032 q:0.750096,0.661077,-0.009111 -0.015522 wh:261,280,259,237 p:493,387 
17630 c:3.1414,0,1 w:0.0408,0.0026,-0.0092 q:0.747534,0.663974,-0.008262 -0.015932 wh:264,279,265,245 p:496,387 
17752 c:3.1414,0,1 w:0.0402,-0.0029,0.0070 q:0.745053,0.666755,-0.008487 -0.015893 wh:261,279,264,244 p:497,387 
17869 c:3.1414,0,1 w:0.0402,-0.0029,0.0070 q:0.745053,0.666755,-0.008487 -0.015893 wh:261,279,264,244 p:497,387 
17988 c:3.1414,0,1 w:0.0399,-0.0027,0.0147 q:0.743472,0.668518,-0.009292 -0.015437 wh:262,272,263,245 p:500,387 
18107 c:3.1414,0,1 w:0.0354,0.0043,0.0034 q:0.741232,0.671007,-0.009955 -0.014731 wh:264,274,263,247 p:498,388 
18228 c:3.1414,0,1 w:0.0336,0.0074,-0.0087 q:0.739136,0.673325,-0.009301 -0.014711 wh:266,272,266,253 p:485,388 
18345 c:3.1414,0,1 w:0.0336,0.0074,-0.0087 q:0.739136,0.673325,-0.009301 -0.014711 wh:266,272,266,253 p:485,388 
18463 c:3.1414,0,1 w:0.0324,-0.0012,-0.0006 q:0.737160,0.675486,-0.008877 -0.015059 wh:261,270,264,251 p:496,388 
18583 c:3.1414,0,1 w:0.0315,-0.0050,0.0136 q:0.735236,0.677576,-0.009620 -0.014725 wh:265,271,264,257 p:487,387 
18702 c:3.1414,0,1 w:0.0315,-0.0050,0.0136 q:0.735236,0.677576,-0.009620 -0.014725 wh:265,271,264,257 p:487,387 
18824 c:3.1414,0,1 w:0.0289,-0.0052,0.0142 q:0.734058,0.678850,-0.010458 -0.014275 wh:264,267,266,255 p:494,388 
18941 c:3.1414,0,1 w:0.0267,0.0051,-0.0021 q:0.732408,0.680634,-0.010566 -0.013954 wh:265,266,265,260 p:493,387 
19060 c:3.1414,0,1 w:0.0267,0.0051,-0.0021 q:0.732408,0.680634,-0.010566 -0.013954 wh:265,266,265,260 p:493,387 
19179 c:3.1414,0,1 w:0.0263,0.0041,-0.0115 q:0.730847,0.682317,-0.009604 -0.014339 wh:265,265,262,260 p:504,388 
19301 c:3.1414,0,1 w:0.0243,-0.0021,0.0058 q:0.729338,0.683929,-0.009656 -0.014314 wh:268,269,271,266 p:497,388 
19419 c:3.1414,0,1 w:0.0212,-0.0068,0.0131 q:0.727964,0.685385,-0.010635 -0.013940 wh:263,262,265,264 p:507,388 
19537 c:3.1414,0,1 w:0.0212,-0.0068,0.0131 q:0.727964,0.685385,-0.010635 -0.013940 wh:263,262,265,264 p:507,388 
19656 c:3.1414,0,1 w:0.0217,0.0000,0.0047 q:0.726622,0.686807,-0.011358 -0.013394 wh:261,259,259,260 p:499,387 
19774 c:3.1414,0,1 w:0.0190,0.0078,-0.0069 q:0.725816,0.687667,-0.010918 -0.013312 wh:262,256,264,264 p:499,388 
19896 c:3.1414,0,1 w:0.0190,0.0078,-0.0069 q:0.725816,0.687667,-0.010918 -0.013312 wh:262,256,264,264 p:499,388 
20014 c:3.1414,0,1 w:0.0176,0.0035,-0.0089 q:0.724697,0.688852,-0.010014 -0.013725 wh:266,259,265,266 p:507,388 
20132 c:3.1414,0,1 w:0.0179,-0.0064,0.0115 q:0.723570,0.690027,-0.010637 -0.013679 wh:267,255,264,267 p:495,388 
20250 c:3.1414,0,1 w:0.0179,-0.0064,0.0115 q:0.723570,0.690027,-0.010637 -0.013679 wh:267,255,264,267 p:495,388 
20373 c:3.1414,0,1 w:0.0171,-0.0053,0.0108 q:0.722498,0.691139,-0.011906 -0.013182 wh:261,252,263,265 p:497,388 
20491 c:3.1414,0,1 w:0.0147,0.0045,-0.0008 q:0.721531,0.692155,-0.012087 -0.012640 wh:261,250,262,265 p:496,388 
20609 c:3.1414,0,1 w:0.0135,0.0081,-0.0089 q:0.720628,0.693108,-0.011264 -0.012726 wh:263,253,263,270 p:500,388 
20727 c:3.1414,0,1 w:0.0135,0.0081,-0.0089 q:0.720628,0.693108,-0.011264 -0.012726 wh:263,253,263,270 p:500,388 
20846 c:3.1414,0,1 w:0.0147,0.0029,0.0008 q:0.720029,0.693736,-0.010996 -0.012604 wh:262,251,264,271 p:493,388 
20967 c:3.1414,0,1 w:0.0127,-0.0059,0.0148 q:0.719154,0.694638,-0.011846 -0.012099 wh:262,249,262,268 p:507,387 
21085 c:3.1414,0,1 w:0.0127,-0.0059,0.0148 q:0.719154,0.694638,-0.011846 -0.012099 wh:262,249,262,268 p:507,387 
21203 c:3.1414,0,1 w:0.0136,-0.0001,0.0082 q:0.718347,0.695468,-0.012736 -0.011445 wh:263,250,261,270 p:485,388 
21322 c:3.1414,0,1 w:0.0131,0.0069,-0.0081 q:0.717509,0.696346,-0.012190 -0.011239 wh:265,251,264,270 p:492,388 
21444 c:3.1414,0,1 w:0.0131,0.0069,-0.0081 q:0.717509,0.696346,-0.012190 -0.011239 wh:265,251,264,270 p:492,388 
21562 c:3.1414,0,1 w:0.0115,0.0026,-0.0029 q:0.716712,0.697177,-0.011487 -0.011277 wh:260,251,262,272 p:488,388 
21681 c:3.1414,0,1 w:0.0116,-0.0062,0.0086 q:0.716194,0.697703,-0.011874 -0.011253 wh:261,251,261,273 p:496,388 
21798 c:3.1414,0,1 w:0.0119,-0.0056,0.0136 q:0.715390,0.698515,-0.013061 -0.010702 wh:262,246,263,273 p:504,388 
21917 c:3.1414,0,1 w:0.0119,-0.0056,0.0136 q:0.715390,0.698515,-0.013061 -0.010702 wh:262,246,263,273 p:504,388 
22039 c:3.1414,0,1 w:0.0106,-0.0012,0.0021 q:0.714645,0.699270,-0.013627 -0.010461 wh:269,253,269,281 p:496,388 
22157 c:3.1414,0,1 w:0.0090,0.0037,-0.0095 q:0.714053,0.699881,-0.013044 -0.010795 wh:265,249,262,274 p:498,388 
22276 c:3.1414,0,1 w:0.0090,0.0037,-0.0095 q:0.714053,0.699881,-0.013044 -0.010795 wh:265,249,262,274 p:498,388 
22394 c:3.1414,0,1 w:0.0087,0.0006,0.0027 q:0.713587,0.700364,-0.012662 -0.010721 wh:262,249,266,279 p:502,388 
22515 c:3.1414,0,1 w:0.0101,-0.0017,0.0134 q:0.713204,0.700751,-0.013181 -0.010317 wh:261,245,262,277 p:487,388 
22633 c:3.1414,0,1 w:0.0101,-0.0017,0.0134 q:0.713204,0.700751,-0.013181 -0.010317 wh:261,245,262,277 p:487,388 
22752 c:3.1414,0,1 w:0.0090,-0.0029,0.0116 q:0.712620,0.701330,-0.014413 -0.009597 wh:264,246,265,279 p:485,388 
22871 c:3.1414,0,1 w:0.0047,0.0017,-0.0073 q:0.712206,0.701752,-0.014323 -0.009685 wh:264,248,266,281 p:484,388 
22988 c:3.1414,0,1 w:0.0047,0.0017,-0.0073 q:0.711912,0.702069,-0.013252 -0.009840 wh:263,245,263,280 p:495,388 
23111 c:3.1414,0,1 w:0.0052,0.0048,-0.0061 q:0.711912,0.702069,-0.013252 -0.009840 wh:263,245,263,280 p:495,388 
23228 c:3.1414,0,1 w:0.0066,0.0002,0.0052 q:0.711654,0.702333,-0.013252 -0.009611 wh:262,241,265,280 p:493,388 
23346 c:3.1414,0,1 w:0.0044,-0.0079,0.0142 q:0.711327,0.702643,-0.014570 -0.009226 wh:262,243,262,282 p:496,388 
23464 c:3.1414,0,1 w:0.0044,-0.0079,0.0142 q:0.711327,0.702643,-0.014570 -0.009226 wh:262,243,262,282 p:496,388 
23586 c:3.1414,0,1 w:0.0025,0.0035,0.0027 q:0.711111,0.702858,-0.015091 -0.008672 wh:263,243,266,281 p:498,388 
23703 c:3.1414,0,1 w:0.0020,0.0037,-0.0075 q:0.710948,0.703033,-0.014506 -0.008886 wh:263,240,264,283 p:496,388 
23822 c:3.1414,0,1 w:0.0020,0.0037,-0.0075 q:0.710948,0.703033,-0.014506 -0.008886 wh:263,240,264,283 p:496,388 
23941 c:3.1414,0,1 w:0.0037,0.0029,0.0017 q:0.710768,0.703227,-0.014006 -0.008703 wh:262,238,264,282 p:500,388 
24057 c:3.1414,0,1 w:0.0038,-0.0027,0.0108 q:0.710577,0.703417,-0.014363 -0.008340 wh:263,241,263,283 p:491,388 
24180 c:3.1414,0,1 w:0.0034,-0.0052,0.0118 q:0.710323,0.703652,-0.015614 -0.007949 wh:265,239,262,280 p:503,388 
24298 c:3.1414,0,1 w:0.0034,-0.0052,0.0118 q:0.710323,0.703652,-0.015614 -0.007949 wh:265,239,262,280 p:503,388 
24416 c:3.1414,0,1 w:0.0023,0.0048,-0.0023 q:0.710086,0.703890,-0.015764 -0.007711 wh:263,239,261,278 p:494,388 
24535 c:3.1414,0,1 w:0.0040,0.0071,-0.0096 q:0.709825,0.704170,-0.014888 -0.007865 wh:264,242,261,278 p:499,388 
24656 c:3.1414,0,1 w:0.0040,0.0071,-0.0096 q:0.709825,0.704170,-0.014888 -0.007865 wh:264,242,261,278 p:499,388 
24774 c:3.1414,0,1 w:0.0063,0.0000,0.0073 q:0.709473,0.704532,-0.014758 -0.007491 wh:259,241,264,280 p:492,388 
24892 c:3.1414,0,1 w:0.0051,-0.0105,0.0162 q:0.709221,0.704768,-0.015759 -0.007060 wh:262,241,263,280 p:498,388 
25011 c:3.1414,0,1 w:0.0051,-0.0105,0.0162 q:0.709221,0.704768,-0.015759 -0.007060 wh:262,241,263,280 p:498,388 
25129 c:3.1414,0,1 w:0.0049,-0.0050,0.0032 q:0.708911,0.705053,-0.016900 -0.007107 wh:260,242,264,281 p:496,388 
25251 c:3.1414,0,1 w:0.0041,0.0103,-0.0053 q:0.708591,0.705393,-0.016238 -0.006863 wh:261,241,263,279 p:494,388 
25369 c:3.1414,0,1 w:0.0031,0.0055,-0.0018 q:0.708339,0.705662,-0.015540 -0.006839 wh:260,242,264,279 p:501,388 
25488 c:3.1414,0,1 w:0.0031,0.0055,-0.0018 q:0.708339,0.705662,-0.015540 -0.006839 wh:260,242,264,279 p:501,388 
25607 c:3.1414,0,1 w:0.0040,0.0020,0.0102 q:0.708164,0.705835,-0.015774 -0.006501 wh:264,241,267,286 p:492,388 
25728 c:3.1414,0,1 w:0.0046,-0.0079,0.0125 q:0.707846,0.706128,-0.017089 -0.005992 wh:261,240,261,282 p:507,388 
25845 c:3.1414,0,1 w:0.0046,-0.0079,0.0125 q:0.707846,0.706128,-0.017089 -0.005992 wh:261,240,261,282 p:507,388 
25964 c:3.1414,0,1 w:0.0002,0.0014,-0.0020 q:0.707754,0.706213,-0.017399 -0.005905 wh:265,242,266,285 p:500,388 
26082 c:3.1414,0,1 w:0.0000,0.0063,-0.0082 q:0.707751,0.706235,-0.016584 -0.006029 wh:262,235,261,284 p:499,388 
26201 c:3.1414,0,1 w:0.0000,0.0063,-0.0082 q:0.707751,0.706235,-0.016584 -0.006029 wh:262,235,261,284 p:499,388 
26322 c:3.1414,0,1 w:0.0035,0.0035,0.0075 q:0.707675,0.706322,-0.016228 -0.005672 wh:263,240,261,286 p:491,388 
26455 c:3.1414,0,1 w:-0.0001,-0.0075,0.0150 q:0.707611,0.706370,-0.017027 -0.005398 wh:265,239,264,287 p:501,388 
26573 c:3.1414,0,1 w:0.0002,-0.0079,0.0087 q:0.707512,0.706442,-0.018221 -0.005068 wh:262,237,259,283 p:498,388 
26692 c:3.1414,0,1 w:0.0002,-0.0079,0.0087 q:0.707512,0.706442,-0.018221 -0.005068 wh:262,237,259,283 p:498,388 
26814 c:3.1414,0,1 w:-0.0023,0.0077,-0.0090 q:0.707621,0.706339,-0.017937 -0.005266 wh:264,238,263,284 p:497,388 
26941 c:3.1414,0,1 w:-0.0026,0.0022,-0.0009 q:0.707831,0.706141,-0.017404 -0.005299 wh:266,240,267,285 p:496,388 
27060 c:3.1414,0,1 w:-0.0026,0.0022,-0.0009 q:0.707831,0.706141,-0.017404 -0.005299 wh:266,240,267,285 p:496,388 
27180 c:3.1414,0,1 w:0.0193,0.0081,0.0139 q:0.707490,0.706486,-0.017498 -0.004553 wh:265,239,264,283 p:496,388 
27297 c:3.1414,0,1 w:0.1284,0.0147,0.0086 q:0.701742,0.712197,-0.017808 -0.002754 wh:260,234,257,279 p:489,388 
