G04 Layer_Physical_Order=2*
G04 Layer_Color=16711680*
%FSLAX25Y25*%
%MOIN*%
G70*
G01*
G75*
%ADD13C,0.01000*%
%ADD14C,0.03000*%
%ADD15C,0.08000*%
%ADD16C,0.07874*%
%ADD17C,0.05906*%
%ADD18R,0.05906X0.05906*%
%ADD19C,0.07000*%
%ADD20R,0.07000X0.07000*%
%ADD21C,0.06000*%
%ADD22C,0.04724*%
%ADD23R,0.08000X0.08000*%
%ADD24C,0.25000*%
%ADD25C,0.04000*%
%ADD26C,0.08000*%
G36*
X-17556Y347286D02*
X-15973Y346862D01*
X-14459Y346235D01*
X-13040Y345416D01*
X-11740Y344418D01*
X-10582Y343260D01*
X-9584Y341960D01*
X-8765Y340541D01*
X-8138Y339027D01*
X-7714Y337444D01*
X-7500Y335819D01*
Y335000D01*
Y20000D01*
Y19181D01*
X-7714Y17556D01*
X-8138Y15973D01*
X-8765Y14459D01*
X-9584Y13040D01*
X-10582Y11740D01*
X-11740Y10582D01*
X-13040Y9584D01*
X-14459Y8765D01*
X-15973Y8138D01*
X-17556Y7714D01*
X-19181Y7500D01*
X-330000D01*
X-345000Y22500D01*
X-358319D01*
X-359944Y22714D01*
X-361527Y23138D01*
X-363040Y23765D01*
X-364459Y24584D01*
X-365759Y25582D01*
X-366918Y26741D01*
X-367916Y28041D01*
X-368735Y29460D01*
X-369362Y30973D01*
X-369786Y32556D01*
X-370000Y34181D01*
Y35000D01*
Y325000D01*
Y325819D01*
X-369786Y327444D01*
X-369362Y329027D01*
X-368735Y330540D01*
X-367916Y331960D01*
X-366918Y333260D01*
X-365759Y334418D01*
X-364459Y335416D01*
X-363040Y336235D01*
X-361527Y336862D01*
X-359944Y337286D01*
X-358319Y337500D01*
X-345000D01*
X-335000Y347500D01*
X-19181D01*
X-17556Y347286D01*
D02*
G37*
%LPC*%
G36*
X-314000Y335500D02*
X-318000D01*
Y331500D01*
X-314000D01*
Y335500D01*
D02*
G37*
G36*
X-319000D02*
X-323000D01*
Y331500D01*
X-319000D01*
Y335500D01*
D02*
G37*
G36*
X-333000Y335000D02*
X-337000D01*
Y331000D01*
X-333000D01*
Y335000D01*
D02*
G37*
G36*
X-338000D02*
X-342000D01*
Y331000D01*
X-338000D01*
Y335000D01*
D02*
G37*
G36*
X-314000Y330500D02*
X-318000D01*
Y326500D01*
X-314000D01*
Y330500D01*
D02*
G37*
G36*
X-319000D02*
X-323000D01*
Y326500D01*
X-319000D01*
Y330500D01*
D02*
G37*
G36*
X-333000Y330000D02*
X-337000D01*
Y326000D01*
X-333000D01*
Y330000D01*
D02*
G37*
G36*
X-338000D02*
X-342000D01*
Y326000D01*
X-338000D01*
Y330000D01*
D02*
G37*
G36*
X-318500Y325539D02*
X-319675Y325384D01*
X-320769Y324931D01*
X-321709Y324209D01*
X-322431Y323269D01*
X-322884Y322175D01*
X-323039Y321000D01*
X-322884Y319825D01*
X-322431Y318731D01*
X-321709Y317791D01*
X-320769Y317069D01*
X-319675Y316616D01*
X-319549Y316599D01*
Y310499D01*
X-320011Y310308D01*
X-332005Y322302D01*
X-332832Y322855D01*
X-333780Y323043D01*
X-334291Y323709D01*
X-335231Y324431D01*
X-336325Y324884D01*
X-337500Y325039D01*
X-338675Y324884D01*
X-339769Y324431D01*
X-340709Y323709D01*
X-341431Y322769D01*
X-341884Y321675D01*
X-342039Y320500D01*
X-341884Y319325D01*
X-341431Y318231D01*
X-340709Y317290D01*
X-339769Y316569D01*
X-338675Y316116D01*
X-337500Y315961D01*
X-336325Y316116D01*
X-335231Y316569D01*
X-334291Y317290D01*
X-334208Y317296D01*
X-327410Y310497D01*
X-327644Y310024D01*
X-328805Y309871D01*
X-330022Y309367D01*
X-331066Y308566D01*
X-331868Y307522D01*
X-332229Y306648D01*
X-332771D01*
X-333133Y307522D01*
X-333934Y308566D01*
X-334978Y309367D01*
X-336195Y309871D01*
X-337500Y310043D01*
X-338805Y309871D01*
X-340022Y309367D01*
X-341066Y308566D01*
X-341867Y307522D01*
X-342229Y306648D01*
X-342771D01*
X-343132Y307522D01*
X-343934Y308566D01*
X-344978Y309367D01*
X-346195Y309871D01*
X-347500Y310043D01*
X-348805Y309871D01*
X-350022Y309367D01*
X-351066Y308566D01*
X-351868Y307522D01*
X-352229Y306648D01*
X-352771D01*
X-353133Y307522D01*
X-353934Y308566D01*
X-354978Y309367D01*
X-356195Y309871D01*
X-357500Y310043D01*
X-358805Y309871D01*
X-360022Y309367D01*
X-361066Y308566D01*
X-361867Y307522D01*
X-362371Y306305D01*
X-362543Y305000D01*
X-362371Y303695D01*
X-361867Y302478D01*
X-361066Y301434D01*
X-360022Y300633D01*
X-359148Y300271D01*
Y299729D01*
X-360022Y299367D01*
X-361066Y298566D01*
X-361867Y297522D01*
X-362371Y296305D01*
X-362543Y295000D01*
X-362371Y293695D01*
X-361867Y292478D01*
X-361066Y291434D01*
X-360022Y290633D01*
X-359148Y290271D01*
Y289729D01*
X-360022Y289368D01*
X-361066Y288566D01*
X-361867Y287522D01*
X-362371Y286305D01*
X-362543Y285000D01*
X-362371Y283695D01*
X-361867Y282478D01*
X-361066Y281434D01*
X-360022Y280632D01*
X-359148Y280271D01*
Y279729D01*
X-360022Y279367D01*
X-361066Y278566D01*
X-361867Y277522D01*
X-362371Y276305D01*
X-362543Y275000D01*
X-362371Y273695D01*
X-361867Y272478D01*
X-361066Y271434D01*
X-360022Y270633D01*
X-359148Y270271D01*
Y269729D01*
X-360022Y269368D01*
X-361066Y268566D01*
X-361867Y267522D01*
X-362371Y266305D01*
X-362543Y265000D01*
X-362371Y263695D01*
X-361867Y262478D01*
X-361066Y261434D01*
X-360022Y260632D01*
X-359148Y260271D01*
Y259729D01*
X-360022Y259367D01*
X-361066Y258566D01*
X-361867Y257522D01*
X-362371Y256305D01*
X-362543Y255000D01*
X-362371Y253695D01*
X-361867Y252478D01*
X-361066Y251434D01*
X-360022Y250633D01*
X-359148Y250271D01*
Y249729D01*
X-360022Y249367D01*
X-361066Y248566D01*
X-361867Y247522D01*
X-362371Y246305D01*
X-362543Y245000D01*
X-362371Y243695D01*
X-361867Y242478D01*
X-361066Y241434D01*
X-360022Y240633D01*
X-359148Y240271D01*
Y239729D01*
X-360022Y239368D01*
X-361066Y238566D01*
X-361867Y237522D01*
X-362371Y236305D01*
X-362543Y235000D01*
X-362371Y233695D01*
X-361867Y232478D01*
X-361066Y231434D01*
X-360022Y230632D01*
X-359148Y230271D01*
Y229729D01*
X-360022Y229367D01*
X-361066Y228566D01*
X-361867Y227522D01*
X-362371Y226305D01*
X-362543Y225000D01*
X-362371Y223695D01*
X-361867Y222478D01*
X-361066Y221434D01*
X-360022Y220633D01*
X-359148Y220271D01*
Y219729D01*
X-360022Y219368D01*
X-361066Y218566D01*
X-361867Y217522D01*
X-362371Y216305D01*
X-362543Y215000D01*
X-362371Y213695D01*
X-361867Y212478D01*
X-361066Y211434D01*
X-360022Y210632D01*
X-359148Y210271D01*
Y209729D01*
X-360022Y209367D01*
X-361066Y208566D01*
X-361867Y207522D01*
X-362371Y206305D01*
X-362543Y205000D01*
X-362371Y203695D01*
X-361867Y202478D01*
X-361066Y201434D01*
X-360022Y200633D01*
X-359148Y200271D01*
Y199729D01*
X-360022Y199367D01*
X-361066Y198566D01*
X-361867Y197522D01*
X-362371Y196305D01*
X-362477Y195500D01*
X-357500D01*
Y194500D01*
X-362477D01*
X-362371Y193695D01*
X-361867Y192478D01*
X-361066Y191434D01*
X-360022Y190632D01*
X-359148Y190271D01*
Y189729D01*
X-360022Y189367D01*
X-361066Y188566D01*
X-361867Y187522D01*
X-362371Y186305D01*
X-362543Y185000D01*
X-362371Y183695D01*
X-361867Y182478D01*
X-361066Y181434D01*
X-360022Y180632D01*
X-359148Y180271D01*
Y179729D01*
X-360022Y179367D01*
X-361066Y178566D01*
X-361867Y177522D01*
X-362371Y176305D01*
X-362543Y175000D01*
X-362371Y173695D01*
X-361867Y172478D01*
X-361066Y171434D01*
X-360022Y170633D01*
X-359148Y170271D01*
Y169729D01*
X-360022Y169368D01*
X-361066Y168566D01*
X-361867Y167522D01*
X-362371Y166305D01*
X-362543Y165000D01*
X-362371Y163695D01*
X-361867Y162478D01*
X-361066Y161434D01*
X-360022Y160633D01*
X-359148Y160271D01*
Y159729D01*
X-360022Y159368D01*
X-361066Y158566D01*
X-361867Y157522D01*
X-362371Y156305D01*
X-362543Y155000D01*
X-362371Y153695D01*
X-361867Y152478D01*
X-361066Y151434D01*
X-360022Y150633D01*
X-359148Y150271D01*
Y149729D01*
X-360022Y149367D01*
X-361066Y148566D01*
X-361867Y147522D01*
X-362371Y146305D01*
X-362543Y145000D01*
X-362371Y143695D01*
X-361867Y142478D01*
X-361066Y141434D01*
X-360022Y140632D01*
X-359148Y140271D01*
Y139729D01*
X-360022Y139367D01*
X-361066Y138566D01*
X-361867Y137522D01*
X-362371Y136305D01*
X-362543Y135000D01*
X-362371Y133695D01*
X-361867Y132478D01*
X-361066Y131434D01*
X-360022Y130632D01*
X-359148Y130271D01*
Y129729D01*
X-360022Y129367D01*
X-361066Y128566D01*
X-361867Y127522D01*
X-362371Y126305D01*
X-362543Y125000D01*
X-362371Y123695D01*
X-361867Y122478D01*
X-361066Y121434D01*
X-360022Y120633D01*
X-359148Y120271D01*
Y119729D01*
X-360022Y119368D01*
X-361066Y118566D01*
X-361867Y117522D01*
X-362371Y116305D01*
X-362543Y115000D01*
X-362371Y113695D01*
X-361867Y112478D01*
X-361066Y111434D01*
X-360022Y110633D01*
X-359148Y110271D01*
Y109729D01*
X-360022Y109368D01*
X-361066Y108566D01*
X-361867Y107522D01*
X-362371Y106305D01*
X-362543Y105000D01*
X-362371Y103695D01*
X-361867Y102478D01*
X-361066Y101434D01*
X-360022Y100633D01*
X-359148Y100271D01*
Y99729D01*
X-360022Y99367D01*
X-361066Y98566D01*
X-361867Y97522D01*
X-362371Y96305D01*
X-362543Y95000D01*
X-362371Y93695D01*
X-361867Y92478D01*
X-361066Y91434D01*
X-360022Y90632D01*
X-359148Y90271D01*
Y89729D01*
X-360022Y89368D01*
X-361066Y88566D01*
X-361867Y87522D01*
X-362371Y86305D01*
X-362543Y85000D01*
X-362371Y83695D01*
X-361867Y82478D01*
X-361066Y81434D01*
X-360022Y80633D01*
X-359148Y80271D01*
Y79729D01*
X-360022Y79368D01*
X-361066Y78566D01*
X-361867Y77522D01*
X-362371Y76305D01*
X-362543Y75000D01*
X-362371Y73695D01*
X-361867Y72478D01*
X-361066Y71434D01*
X-360022Y70632D01*
X-359148Y70271D01*
Y69729D01*
X-360022Y69367D01*
X-361066Y68566D01*
X-361867Y67522D01*
X-362371Y66305D01*
X-362543Y65000D01*
X-362371Y63695D01*
X-361867Y62478D01*
X-361066Y61434D01*
X-360022Y60632D01*
X-359148Y60271D01*
Y59729D01*
X-360022Y59368D01*
X-361066Y58566D01*
X-361867Y57522D01*
X-362371Y56305D01*
X-362543Y55000D01*
X-362371Y53695D01*
X-361867Y52478D01*
X-361066Y51434D01*
X-360022Y50633D01*
X-358805Y50129D01*
X-357500Y49957D01*
X-356195Y50129D01*
X-354978Y50633D01*
X-353934Y51434D01*
X-353133Y52478D01*
X-353000Y52798D01*
X-352500Y52699D01*
Y50000D01*
X-342500D01*
Y52699D01*
X-342000Y52798D01*
X-341867Y52478D01*
X-341066Y51434D01*
X-340022Y50633D01*
X-338805Y50129D01*
X-337500Y49957D01*
X-336195Y50129D01*
X-334978Y50633D01*
X-333934Y51434D01*
X-333133Y52478D01*
X-333000Y52798D01*
X-332500Y52699D01*
Y50000D01*
X-322870D01*
X-322663Y49500D01*
X-326004Y46159D01*
X-326468Y46351D01*
X-327500Y46487D01*
X-328532Y46351D01*
X-329493Y45953D01*
X-330319Y45319D01*
X-330953Y44493D01*
X-331351Y43532D01*
X-331487Y42500D01*
X-331351Y41468D01*
X-330953Y40507D01*
X-330319Y39681D01*
X-329493Y39047D01*
X-328532Y38649D01*
X-327500Y38513D01*
X-326468Y38649D01*
X-325507Y39047D01*
X-324681Y39681D01*
X-324047Y40507D01*
X-323649Y41468D01*
X-323513Y42500D01*
X-323649Y43532D01*
X-323841Y43996D01*
X-285419Y82419D01*
X-285087Y82915D01*
X-284971Y83500D01*
Y84222D01*
X-283978Y84632D01*
X-282934Y85434D01*
X-282133Y86478D01*
X-281771Y87352D01*
X-281229D01*
X-280868Y86478D01*
X-280066Y85434D01*
X-279022Y84632D01*
X-278467Y84403D01*
X-278350Y83813D01*
X-316004Y46159D01*
X-316468Y46351D01*
X-317500Y46487D01*
X-318532Y46351D01*
X-319493Y45953D01*
X-320319Y45319D01*
X-320953Y44493D01*
X-321351Y43532D01*
X-321487Y42500D01*
X-321351Y41468D01*
X-320953Y40507D01*
X-320319Y39681D01*
X-319493Y39047D01*
X-318532Y38649D01*
X-317500Y38513D01*
X-316468Y38649D01*
X-315507Y39047D01*
X-314681Y39681D01*
X-314047Y40507D01*
X-313649Y41468D01*
X-313513Y42500D01*
X-313649Y43532D01*
X-313841Y43996D01*
X-275419Y82419D01*
X-275087Y82915D01*
X-274971Y83500D01*
Y84222D01*
X-273978Y84632D01*
X-272934Y85434D01*
X-272132Y86478D01*
X-271771Y87352D01*
X-271229D01*
X-270867Y86478D01*
X-270066Y85434D01*
X-269022Y84632D01*
X-268467Y84403D01*
X-268350Y83813D01*
X-306004Y46159D01*
X-306468Y46351D01*
X-307500Y46487D01*
X-308532Y46351D01*
X-309493Y45953D01*
X-310319Y45319D01*
X-310953Y44493D01*
X-311351Y43532D01*
X-311487Y42500D01*
X-311351Y41468D01*
X-310953Y40507D01*
X-310319Y39681D01*
X-309493Y39047D01*
X-308532Y38649D01*
X-307500Y38513D01*
X-306468Y38649D01*
X-305507Y39047D01*
X-304681Y39681D01*
X-304047Y40507D01*
X-303649Y41468D01*
X-303513Y42500D01*
X-303649Y43532D01*
X-303841Y43996D01*
X-265419Y82419D01*
X-265087Y82915D01*
X-264971Y83500D01*
Y84222D01*
X-263978Y84632D01*
X-262934Y85434D01*
X-262133Y86478D01*
X-261771Y87352D01*
X-261229D01*
X-260868Y86478D01*
X-260066Y85434D01*
X-259022Y84632D01*
X-258467Y84403D01*
X-258350Y83813D01*
X-296004Y46159D01*
X-296468Y46351D01*
X-297500Y46487D01*
X-298532Y46351D01*
X-299493Y45953D01*
X-300319Y45319D01*
X-300953Y44493D01*
X-301351Y43532D01*
X-301487Y42500D01*
X-301351Y41468D01*
X-300953Y40507D01*
X-300319Y39681D01*
X-299493Y39047D01*
X-298532Y38649D01*
X-297500Y38513D01*
X-296468Y38649D01*
X-295507Y39047D01*
X-294681Y39681D01*
X-294047Y40507D01*
X-293649Y41468D01*
X-293513Y42500D01*
X-293649Y43532D01*
X-293841Y43996D01*
X-291915Y45922D01*
X-291453Y45731D01*
Y38547D01*
X-283547D01*
Y44290D01*
X-245419Y82419D01*
X-245087Y82915D01*
X-244971Y83500D01*
Y84222D01*
X-243978Y84632D01*
X-242934Y85434D01*
X-242132Y86478D01*
X-241629Y87695D01*
X-241457Y89000D01*
X-241629Y90305D01*
X-242132Y91522D01*
X-242934Y92566D01*
X-243978Y93367D01*
X-245195Y93871D01*
X-246500Y94043D01*
X-247805Y93871D01*
X-249022Y93367D01*
X-250066Y92566D01*
X-250868Y91522D01*
X-251229Y90648D01*
X-251771D01*
X-252133Y91522D01*
X-252934Y92566D01*
X-253978Y93367D01*
X-255195Y93871D01*
X-256500Y94043D01*
X-257805Y93871D01*
X-259022Y93367D01*
X-260066Y92566D01*
X-260868Y91522D01*
X-261229Y90648D01*
X-261771D01*
X-262133Y91522D01*
X-262934Y92566D01*
X-263978Y93367D01*
X-265195Y93871D01*
X-266500Y94043D01*
X-267805Y93871D01*
X-269022Y93367D01*
X-270066Y92566D01*
X-270867Y91522D01*
X-271229Y90648D01*
X-271771D01*
X-272132Y91522D01*
X-272934Y92566D01*
X-273978Y93367D01*
X-275195Y93871D01*
X-276500Y94043D01*
X-277805Y93871D01*
X-279022Y93367D01*
X-280066Y92566D01*
X-280868Y91522D01*
X-281229Y90648D01*
X-281771D01*
X-282133Y91522D01*
X-282934Y92566D01*
X-283978Y93367D01*
X-285195Y93871D01*
X-286500Y94043D01*
X-287805Y93871D01*
X-289022Y93367D01*
X-290066Y92566D01*
X-290867Y91522D01*
X-291229Y90648D01*
X-291771D01*
X-292132Y91522D01*
X-292934Y92566D01*
X-293978Y93367D01*
X-295195Y93871D01*
X-296000Y93977D01*
Y89000D01*
Y84023D01*
X-295195Y84129D01*
X-293978Y84632D01*
X-292934Y85434D01*
X-292132Y86478D01*
X-291771Y87352D01*
X-291229D01*
X-290867Y86478D01*
X-290066Y85434D01*
X-289022Y84632D01*
X-288467Y84403D01*
X-288350Y83813D01*
X-322000Y50163D01*
X-322500Y50370D01*
Y60000D01*
X-325199D01*
X-325298Y60500D01*
X-324978Y60632D01*
X-323934Y61434D01*
X-323132Y62478D01*
X-322629Y63695D01*
X-322498Y64686D01*
X-321970Y64865D01*
X-320438Y63333D01*
X-320423Y63217D01*
X-320121Y62487D01*
X-319640Y61860D01*
X-319013Y61379D01*
X-318283Y61077D01*
X-317500Y60974D01*
X-316717Y61077D01*
X-315987Y61379D01*
X-315360Y61860D01*
X-314879Y62487D01*
X-314577Y63217D01*
X-314474Y64000D01*
X-314577Y64783D01*
X-314879Y65513D01*
X-315360Y66140D01*
X-315987Y66620D01*
X-316717Y66923D01*
X-316833Y66938D01*
X-318451Y68556D01*
Y72193D01*
X-317989Y72384D01*
X-314938Y69333D01*
X-314923Y69217D01*
X-314620Y68487D01*
X-314140Y67860D01*
X-313513Y67379D01*
X-312783Y67077D01*
X-312000Y66974D01*
X-311217Y67077D01*
X-310487Y67379D01*
X-309860Y67860D01*
X-309380Y68487D01*
X-309077Y69217D01*
X-308974Y70000D01*
X-309077Y70783D01*
X-309380Y71513D01*
X-309860Y72140D01*
X-310487Y72620D01*
X-311217Y72923D01*
X-311333Y72938D01*
X-314451Y76056D01*
Y319016D01*
X-314116Y319825D01*
X-313961Y321000D01*
X-314116Y322175D01*
X-314569Y323269D01*
X-315290Y324209D01*
X-316231Y324931D01*
X-317325Y325384D01*
X-318500Y325539D01*
D02*
G37*
G36*
X-236000Y335980D02*
X-237289Y335810D01*
X-238490Y335313D01*
X-239521Y334521D01*
X-240313Y333490D01*
X-240810Y332289D01*
X-240980Y331000D01*
X-240810Y329711D01*
X-240313Y328510D01*
X-239521Y327479D01*
X-238490Y326688D01*
X-237483Y326271D01*
Y325729D01*
X-238490Y325312D01*
X-239521Y324521D01*
X-240313Y323490D01*
X-240810Y322289D01*
X-240980Y321000D01*
X-240810Y319711D01*
X-240313Y318510D01*
X-239521Y317479D01*
X-238490Y316687D01*
X-237483Y316271D01*
Y315729D01*
X-238490Y315313D01*
X-239521Y314521D01*
X-240313Y313490D01*
X-240810Y312289D01*
X-240980Y311000D01*
X-240810Y309711D01*
X-240313Y308510D01*
X-239521Y307479D01*
X-238490Y306687D01*
X-237483Y306271D01*
Y305729D01*
X-238490Y305312D01*
X-239521Y304521D01*
X-240313Y303490D01*
X-240810Y302289D01*
X-240914Y301500D01*
X-236000D01*
X-231086D01*
X-231190Y302289D01*
X-231687Y303490D01*
X-232479Y304521D01*
X-233510Y305312D01*
X-234517Y305729D01*
Y306271D01*
X-233510Y306687D01*
X-232479Y307479D01*
X-231687Y308510D01*
X-231190Y309711D01*
X-231020Y311000D01*
X-231190Y312289D01*
X-231687Y313490D01*
X-232479Y314521D01*
X-233510Y315313D01*
X-234517Y315729D01*
Y316271D01*
X-233510Y316687D01*
X-232479Y317479D01*
X-231687Y318510D01*
X-231190Y319711D01*
X-231020Y321000D01*
X-231190Y322289D01*
X-231687Y323490D01*
X-232479Y324521D01*
X-233510Y325312D01*
X-234517Y325729D01*
Y326271D01*
X-233510Y326688D01*
X-232479Y327479D01*
X-231687Y328510D01*
X-231190Y329711D01*
X-231020Y331000D01*
X-231190Y332289D01*
X-231687Y333490D01*
X-232479Y334521D01*
X-233510Y335313D01*
X-234711Y335810D01*
X-236000Y335980D01*
D02*
G37*
G36*
X-231086Y300500D02*
X-236000D01*
X-240914D01*
X-240810Y299711D01*
X-240313Y298510D01*
X-239521Y297479D01*
X-238490Y296688D01*
X-237483Y296271D01*
Y295729D01*
X-238490Y295312D01*
X-239521Y294521D01*
X-240313Y293490D01*
X-240810Y292289D01*
X-240980Y291000D01*
X-240810Y289711D01*
X-240313Y288510D01*
X-239521Y287479D01*
X-238490Y286687D01*
X-237289Y286190D01*
X-236000Y286020D01*
X-234711Y286190D01*
X-233510Y286687D01*
X-232479Y287479D01*
X-231687Y288510D01*
X-231190Y289711D01*
X-231020Y291000D01*
X-231190Y292289D01*
X-231687Y293490D01*
X-232479Y294521D01*
X-233510Y295312D01*
X-234517Y295729D01*
Y296271D01*
X-233510Y296688D01*
X-232479Y297479D01*
X-231687Y298510D01*
X-231190Y299711D01*
X-231086Y300500D01*
D02*
G37*
G36*
X-132500Y284543D02*
X-133805Y284371D01*
X-135022Y283868D01*
X-136066Y283066D01*
X-136867Y282022D01*
X-137229Y281148D01*
X-137771D01*
X-138133Y282022D01*
X-138934Y283066D01*
X-139978Y283868D01*
X-141195Y284371D01*
X-142500Y284543D01*
X-143805Y284371D01*
X-145022Y283868D01*
X-146066Y283066D01*
X-146868Y282022D01*
X-147229Y281148D01*
X-147771D01*
X-148133Y282022D01*
X-148934Y283066D01*
X-149978Y283868D01*
X-151195Y284371D01*
X-152500Y284543D01*
X-153805Y284371D01*
X-155022Y283868D01*
X-156066Y283066D01*
X-156868Y282022D01*
X-157229Y281148D01*
X-157771D01*
X-158133Y282022D01*
X-158934Y283066D01*
X-159978Y283868D01*
X-161195Y284371D01*
X-162500Y284543D01*
X-163805Y284371D01*
X-165022Y283868D01*
X-166066Y283066D01*
X-166867Y282022D01*
X-167229Y281148D01*
X-167771D01*
X-168132Y282022D01*
X-168934Y283066D01*
X-169978Y283868D01*
X-171195Y284371D01*
X-172500Y284543D01*
X-173805Y284371D01*
X-175022Y283868D01*
X-176066Y283066D01*
X-176867Y282022D01*
X-177229Y281148D01*
X-177771D01*
X-178132Y282022D01*
X-178934Y283066D01*
X-179978Y283868D01*
X-181195Y284371D01*
X-182500Y284543D01*
X-183805Y284371D01*
X-185022Y283868D01*
X-186066Y283066D01*
X-186867Y282022D01*
X-187229Y281148D01*
X-187771D01*
X-188133Y282022D01*
X-188934Y283066D01*
X-189978Y283868D01*
X-191195Y284371D01*
X-192500Y284543D01*
X-193805Y284371D01*
X-195022Y283868D01*
X-196066Y283066D01*
X-196868Y282022D01*
X-197229Y281148D01*
X-197771D01*
X-198133Y282022D01*
X-198934Y283066D01*
X-199978Y283868D01*
X-201195Y284371D01*
X-202000Y284477D01*
Y279500D01*
Y274523D01*
X-201195Y274629D01*
X-199978Y275132D01*
X-198934Y275934D01*
X-198133Y276978D01*
X-197771Y277852D01*
X-197229D01*
X-196868Y276978D01*
X-196066Y275934D01*
X-195022Y275132D01*
X-193805Y274629D01*
X-192500Y274457D01*
X-191195Y274629D01*
X-189978Y275132D01*
X-188934Y275934D01*
X-188133Y276978D01*
X-187771Y277852D01*
X-187229D01*
X-186867Y276978D01*
X-186066Y275934D01*
X-185022Y275132D01*
X-183805Y274629D01*
X-182500Y274457D01*
X-181195Y274629D01*
X-179978Y275132D01*
X-178934Y275934D01*
X-178132Y276978D01*
X-177771Y277852D01*
X-177229D01*
X-176867Y276978D01*
X-176066Y275934D01*
X-175022Y275132D01*
X-173805Y274629D01*
X-172500Y274457D01*
X-171195Y274629D01*
X-169978Y275132D01*
X-168934Y275934D01*
X-168132Y276978D01*
X-167771Y277852D01*
X-167229D01*
X-166867Y276978D01*
X-166066Y275934D01*
X-165022Y275132D01*
X-163805Y274629D01*
X-162500Y274457D01*
X-161195Y274629D01*
X-159978Y275132D01*
X-158934Y275934D01*
X-158133Y276978D01*
X-157771Y277852D01*
X-157229D01*
X-156868Y276978D01*
X-156066Y275934D01*
X-155022Y275132D01*
X-153805Y274629D01*
X-152500Y274457D01*
X-151195Y274629D01*
X-149978Y275132D01*
X-148934Y275934D01*
X-148133Y276978D01*
X-147771Y277852D01*
X-147229D01*
X-146868Y276978D01*
X-146066Y275934D01*
X-145022Y275132D01*
X-143805Y274629D01*
X-142500Y274457D01*
X-141195Y274629D01*
X-139978Y275132D01*
X-138934Y275934D01*
X-138133Y276978D01*
X-137771Y277852D01*
X-137229D01*
X-136867Y276978D01*
X-136066Y275934D01*
X-135022Y275132D01*
X-133805Y274629D01*
X-132500Y274457D01*
X-131195Y274629D01*
X-129978Y275132D01*
X-128934Y275934D01*
X-128132Y276978D01*
X-127629Y278195D01*
X-127457Y279500D01*
X-127629Y280805D01*
X-128132Y282022D01*
X-128934Y283066D01*
X-129978Y283868D01*
X-131195Y284371D01*
X-132500Y284543D01*
D02*
G37*
G36*
X-212500D02*
X-213805Y284371D01*
X-215022Y283868D01*
X-216066Y283066D01*
X-216867Y282022D01*
X-217371Y280805D01*
X-217543Y279500D01*
X-217371Y278195D01*
X-216867Y276978D01*
X-216066Y275934D01*
X-215022Y275132D01*
X-213805Y274629D01*
X-212500Y274457D01*
X-211195Y274629D01*
X-209978Y275132D01*
X-208934Y275934D01*
X-208133Y276978D01*
X-207771Y277852D01*
X-207229D01*
X-206868Y276978D01*
X-206066Y275934D01*
X-205022Y275132D01*
X-203805Y274629D01*
X-203000Y274523D01*
Y279500D01*
Y284477D01*
X-203805Y284371D01*
X-205022Y283868D01*
X-206066Y283066D01*
X-206868Y282022D01*
X-207229Y281148D01*
X-207771D01*
X-208133Y282022D01*
X-208934Y283066D01*
X-209978Y283868D01*
X-211195Y284371D01*
X-212500Y284543D01*
D02*
G37*
G36*
X-146500Y244526D02*
X-147283Y244423D01*
X-148013Y244121D01*
X-148640Y243640D01*
X-149120Y243013D01*
X-149423Y242283D01*
X-149526Y241500D01*
X-149423Y240717D01*
X-149120Y239987D01*
X-148640Y239360D01*
X-148013Y238879D01*
X-147283Y238577D01*
X-146591Y238486D01*
X-137922Y229817D01*
X-138252Y229440D01*
X-138487Y229621D01*
X-139217Y229923D01*
X-140000Y230026D01*
X-140783Y229923D01*
X-141513Y229621D01*
X-142140Y229140D01*
X-142621Y228513D01*
X-142923Y227783D01*
X-143026Y227000D01*
X-142923Y226217D01*
X-142621Y225487D01*
X-142140Y224860D01*
X-141513Y224379D01*
X-140783Y224077D01*
X-140000Y223974D01*
X-139237Y224075D01*
X-99426Y184263D01*
X-99526Y183500D01*
X-99423Y182717D01*
X-99120Y181987D01*
X-98640Y181360D01*
X-98029Y180892D01*
Y166779D01*
X-99022Y166367D01*
X-100066Y165566D01*
X-100867Y164522D01*
X-101229Y163648D01*
X-101771D01*
X-102132Y164522D01*
X-102934Y165566D01*
X-103978Y166367D01*
X-104971Y166779D01*
Y181000D01*
X-105087Y181585D01*
X-105419Y182081D01*
X-142075Y218737D01*
X-141974Y219500D01*
X-142077Y220283D01*
X-142379Y221013D01*
X-142860Y221640D01*
X-143487Y222120D01*
X-144217Y222423D01*
X-145000Y222526D01*
X-145783Y222423D01*
X-146513Y222120D01*
X-147140Y221640D01*
X-147620Y221013D01*
X-147923Y220283D01*
X-148026Y219500D01*
X-147923Y218717D01*
X-147620Y217987D01*
X-147140Y217360D01*
X-146513Y216880D01*
X-145783Y216577D01*
X-145000Y216474D01*
X-144237Y216575D01*
X-108029Y180367D01*
Y166779D01*
X-109022Y166367D01*
X-110066Y165566D01*
X-110868Y164522D01*
X-111371Y163305D01*
X-111543Y162000D01*
X-111371Y160695D01*
X-110868Y159478D01*
X-110066Y158434D01*
X-109022Y157633D01*
X-107805Y157129D01*
X-106500Y156957D01*
X-105195Y157129D01*
X-103978Y157633D01*
X-102934Y158434D01*
X-102132Y159478D01*
X-101771Y160352D01*
X-101229D01*
X-100867Y159478D01*
X-100066Y158434D01*
X-99022Y157633D01*
X-97805Y157129D01*
X-96500Y156957D01*
X-95195Y157129D01*
X-93978Y157633D01*
X-92934Y158434D01*
X-92133Y159478D01*
X-91771Y160352D01*
X-91229D01*
X-90868Y159478D01*
X-90066Y158434D01*
X-89022Y157633D01*
X-87805Y157129D01*
X-86500Y156957D01*
X-85195Y157129D01*
X-83978Y157633D01*
X-82934Y158434D01*
X-82133Y159478D01*
X-81771Y160352D01*
X-81229D01*
X-80867Y159478D01*
X-80066Y158434D01*
X-79022Y157633D01*
X-77805Y157129D01*
X-76500Y156957D01*
X-75195Y157129D01*
X-73978Y157633D01*
X-72934Y158434D01*
X-72132Y159478D01*
X-71771Y160352D01*
X-71229D01*
X-70868Y159478D01*
X-70066Y158434D01*
X-69049Y157653D01*
Y134556D01*
X-141229Y62376D01*
X-142500Y62543D01*
X-143805Y62371D01*
X-145022Y61867D01*
X-145971Y61139D01*
X-146471Y61289D01*
Y73711D01*
X-145971Y73861D01*
X-145022Y73132D01*
X-143805Y72629D01*
X-142500Y72457D01*
X-141195Y72629D01*
X-139978Y73132D01*
X-138934Y73934D01*
X-138133Y74978D01*
X-137629Y76195D01*
X-137457Y77500D01*
X-137629Y78805D01*
X-138133Y80022D01*
X-138934Y81066D01*
X-139978Y81867D01*
X-141195Y82371D01*
X-142381Y82527D01*
X-142628Y82987D01*
X-133919Y91697D01*
X-133587Y92193D01*
X-133471Y92778D01*
Y158392D01*
X-132860Y158860D01*
X-132379Y159487D01*
X-132077Y160217D01*
X-131974Y161000D01*
X-132077Y161783D01*
X-132379Y162513D01*
X-132860Y163140D01*
X-133487Y163620D01*
X-134217Y163923D01*
X-135000Y164026D01*
X-135783Y163923D01*
X-136513Y163620D01*
X-137140Y163140D01*
X-137620Y162513D01*
X-137923Y161783D01*
X-138026Y161000D01*
X-137923Y160217D01*
X-137620Y159487D01*
X-137140Y158860D01*
X-136529Y158392D01*
Y93412D01*
X-142009Y87932D01*
X-142471Y88124D01*
Y158392D01*
X-141860Y158860D01*
X-141379Y159487D01*
X-141077Y160217D01*
X-140974Y161000D01*
X-141077Y161783D01*
X-141379Y162513D01*
X-141860Y163140D01*
X-142487Y163620D01*
X-143217Y163923D01*
X-144000Y164026D01*
X-144783Y163923D01*
X-145513Y163620D01*
X-146140Y163140D01*
X-146621Y162513D01*
X-146923Y161783D01*
X-147026Y161000D01*
X-146923Y160217D01*
X-146621Y159487D01*
X-146140Y158860D01*
X-145529Y158392D01*
Y87634D01*
X-158581Y74581D01*
X-158913Y74085D01*
X-159029Y73500D01*
Y52506D01*
X-159196Y52437D01*
X-159898Y51898D01*
X-160437Y51196D01*
X-160776Y50378D01*
X-160891Y49500D01*
X-160776Y48622D01*
X-160437Y47804D01*
X-159898Y47102D01*
X-159196Y46563D01*
X-158378Y46224D01*
X-157500Y46109D01*
X-156622Y46224D01*
X-155804Y46563D01*
X-155102Y47102D01*
X-154563Y47804D01*
X-154224Y48622D01*
X-154109Y49500D01*
X-154224Y50378D01*
X-154563Y51196D01*
X-155102Y51898D01*
X-155804Y52437D01*
X-155971Y52506D01*
Y72866D01*
X-149991Y78846D01*
X-149529Y78654D01*
Y55222D01*
X-149413Y54637D01*
X-149081Y54140D01*
X-143360Y48419D01*
X-142863Y48087D01*
X-142278Y47971D01*
X-142006D01*
X-141937Y47804D01*
X-141398Y47102D01*
X-140696Y46563D01*
X-139878Y46224D01*
X-139000Y46109D01*
X-138122Y46224D01*
X-137304Y46563D01*
X-136602Y47102D01*
X-136063Y47804D01*
X-135724Y48622D01*
X-135609Y49500D01*
X-135724Y50378D01*
X-136063Y51196D01*
X-136602Y51898D01*
X-137304Y52437D01*
X-138122Y52776D01*
X-139000Y52891D01*
X-139569Y52816D01*
X-139767Y53294D01*
X-138934Y53934D01*
X-138133Y54978D01*
X-137629Y56195D01*
X-137457Y57500D01*
X-137624Y58771D01*
X-64698Y131698D01*
X-64145Y132525D01*
X-63951Y133500D01*
Y157653D01*
X-62934Y158434D01*
X-62133Y159478D01*
X-61771Y160352D01*
X-61229D01*
X-60868Y159478D01*
X-60066Y158434D01*
X-59022Y157633D01*
X-57805Y157129D01*
X-57000Y157023D01*
Y162000D01*
Y166977D01*
X-57805Y166871D01*
X-59022Y166367D01*
X-60066Y165566D01*
X-60868Y164522D01*
X-61229Y163648D01*
X-61771D01*
X-62133Y164522D01*
X-62934Y165566D01*
X-63978Y166367D01*
X-65195Y166871D01*
X-66500Y167043D01*
X-67771Y166876D01*
X-143859Y242964D01*
X-143879Y243013D01*
X-144360Y243640D01*
X-144987Y244121D01*
X-145717Y244423D01*
X-146500Y244526D01*
D02*
G37*
G36*
X-115500Y253026D02*
X-116283Y252923D01*
X-117013Y252621D01*
X-117640Y252140D01*
X-118121Y251513D01*
X-118423Y250783D01*
X-118526Y250000D01*
X-118423Y249217D01*
X-118121Y248487D01*
X-117640Y247860D01*
X-117013Y247379D01*
X-116283Y247077D01*
X-116167Y247062D01*
X-87438Y218333D01*
X-87423Y218217D01*
X-87120Y217487D01*
X-86640Y216860D01*
X-86013Y216379D01*
X-85283Y216077D01*
X-84500Y215974D01*
X-83717Y216077D01*
X-82987Y216379D01*
X-82360Y216860D01*
X-81880Y217487D01*
X-81577Y218217D01*
X-81474Y219000D01*
X-81577Y219783D01*
X-81880Y220513D01*
X-82360Y221140D01*
X-82987Y221620D01*
X-83717Y221923D01*
X-83833Y221938D01*
X-108884Y246989D01*
X-108693Y247451D01*
X-53556D01*
X-47802Y241698D01*
X-33952Y227847D01*
X-33966Y227814D01*
X-34247Y227435D01*
X-34722Y227529D01*
X-41500D01*
X-42085Y227413D01*
X-42581Y227081D01*
X-44703Y224960D01*
X-45471Y225278D01*
Y231392D01*
X-44860Y231860D01*
X-44379Y232487D01*
X-44077Y233217D01*
X-43974Y234000D01*
X-44077Y234783D01*
X-44379Y235513D01*
X-44860Y236140D01*
X-45487Y236620D01*
X-46217Y236923D01*
X-47000Y237026D01*
X-47783Y236923D01*
X-48513Y236620D01*
X-49140Y236140D01*
X-49621Y235513D01*
X-49923Y234783D01*
X-50026Y234000D01*
X-49923Y233217D01*
X-49621Y232487D01*
X-49140Y231860D01*
X-48529Y231392D01*
Y225278D01*
X-49522Y224868D01*
X-50566Y224066D01*
X-51367Y223022D01*
X-51729Y222148D01*
X-52271D01*
X-52632Y223022D01*
X-53434Y224066D01*
X-54478Y224868D01*
X-55471Y225278D01*
Y234892D01*
X-54860Y235360D01*
X-54379Y235987D01*
X-54077Y236717D01*
X-53974Y237500D01*
X-54077Y238283D01*
X-54379Y239013D01*
X-54860Y239640D01*
X-55487Y240121D01*
X-56217Y240423D01*
X-57000Y240526D01*
X-57783Y240423D01*
X-58513Y240121D01*
X-59140Y239640D01*
X-59620Y239013D01*
X-59923Y238283D01*
X-60026Y237500D01*
X-59923Y236717D01*
X-59620Y235987D01*
X-59140Y235360D01*
X-58529Y234892D01*
Y225278D01*
X-59522Y224868D01*
X-60566Y224066D01*
X-61367Y223022D01*
X-61729Y222148D01*
X-62271D01*
X-62633Y223022D01*
X-63434Y224066D01*
X-64478Y224868D01*
X-65695Y225371D01*
X-67000Y225543D01*
X-68305Y225371D01*
X-69522Y224868D01*
X-70566Y224066D01*
X-71368Y223022D01*
X-71871Y221805D01*
X-72043Y220500D01*
X-71871Y219195D01*
X-71368Y217978D01*
X-70566Y216934D01*
X-69522Y216132D01*
X-68648Y215771D01*
Y215229D01*
X-69522Y214867D01*
X-70566Y214066D01*
X-71368Y213022D01*
X-71871Y211805D01*
X-71977Y211000D01*
X-67000D01*
Y210500D01*
X-66500D01*
Y205523D01*
X-65695Y205629D01*
X-64478Y206133D01*
X-63434Y206934D01*
X-62633Y207978D01*
X-62271Y208852D01*
X-61729D01*
X-61367Y207978D01*
X-60566Y206934D01*
X-59522Y206133D01*
X-58305Y205629D01*
X-57000Y205457D01*
X-55695Y205629D01*
X-54478Y206133D01*
X-53434Y206934D01*
X-52632Y207978D01*
X-52271Y208852D01*
X-51729D01*
X-51367Y207978D01*
X-50566Y206934D01*
X-49522Y206133D01*
X-48305Y205629D01*
X-47000Y205457D01*
X-45695Y205629D01*
X-44478Y206133D01*
X-43434Y206934D01*
X-42632Y207978D01*
X-42271Y208852D01*
X-41729D01*
X-41368Y207978D01*
X-40566Y206934D01*
X-39522Y206133D01*
X-38305Y205629D01*
X-37000Y205457D01*
X-35695Y205629D01*
X-34478Y206133D01*
X-33529Y206861D01*
X-33029Y206711D01*
Y181608D01*
X-33640Y181140D01*
X-34121Y180513D01*
X-34423Y179783D01*
X-34526Y179000D01*
X-34423Y178217D01*
X-34121Y177487D01*
X-33640Y176860D01*
X-33013Y176380D01*
X-32283Y176077D01*
X-31500Y175974D01*
X-30717Y176077D01*
X-30049Y176354D01*
X-29556Y176167D01*
X-29549Y176163D01*
Y147412D01*
X-135223Y41738D01*
X-135696Y41899D01*
X-135724Y42110D01*
X-136063Y42928D01*
X-136602Y43630D01*
X-137304Y44169D01*
X-138122Y44508D01*
X-138500Y44558D01*
Y41232D01*
X-139000D01*
Y40732D01*
X-142325D01*
X-142276Y40355D01*
X-141937Y39537D01*
X-141807Y39367D01*
X-142028Y38919D01*
X-154472D01*
X-154693Y39367D01*
X-154563Y39537D01*
X-154224Y40355D01*
X-154175Y40732D01*
X-160825D01*
X-160776Y40355D01*
X-160437Y39537D01*
X-160307Y39367D01*
X-160528Y38919D01*
X-172972D01*
X-173193Y39367D01*
X-173063Y39537D01*
X-172724Y40355D01*
X-172675Y40732D01*
X-179325D01*
X-179276Y40355D01*
X-178937Y39537D01*
X-178807Y39367D01*
X-179028Y38919D01*
X-185092D01*
X-186677Y40504D01*
X-186498Y41032D01*
X-185956Y41103D01*
X-184983Y41506D01*
X-184147Y42147D01*
X-183506Y42983D01*
X-183103Y43956D01*
X-182966Y45000D01*
X-183103Y46044D01*
X-183506Y47017D01*
X-184147Y47853D01*
X-184983Y48494D01*
X-185956Y48897D01*
X-187000Y49035D01*
X-188044Y48897D01*
X-189017Y48494D01*
X-189470Y48146D01*
X-190021Y48354D01*
X-190145Y48976D01*
X-190698Y49802D01*
X-195516Y54620D01*
X-195466Y55000D01*
X-195603Y56044D01*
X-196006Y57017D01*
X-196647Y57853D01*
X-197483Y58494D01*
X-198456Y58897D01*
X-199500Y59035D01*
X-200544Y58897D01*
X-201517Y58494D01*
X-202353Y57853D01*
X-202994Y57017D01*
X-203397Y56044D01*
X-203535Y55000D01*
X-203397Y53956D01*
X-202994Y52983D01*
X-202353Y52147D01*
X-201517Y51506D01*
X-200544Y51103D01*
X-199500Y50965D01*
X-199120Y51016D01*
X-196567Y48462D01*
X-196563Y48419D01*
X-196751Y48258D01*
X-197045Y48158D01*
X-197483Y48494D01*
X-198456Y48897D01*
X-199500Y49035D01*
X-200544Y48897D01*
X-201517Y48494D01*
X-202353Y47853D01*
X-202994Y47017D01*
X-203228Y46453D01*
X-205471D01*
Y63231D01*
X-203999Y64701D01*
X-203472Y64522D01*
X-203397Y63956D01*
X-202994Y62983D01*
X-202353Y62147D01*
X-201517Y61506D01*
X-200544Y61103D01*
X-199500Y60966D01*
X-198456Y61103D01*
X-197483Y61506D01*
X-196647Y62147D01*
X-196006Y62983D01*
X-195603Y63956D01*
X-195466Y65000D01*
X-195603Y66044D01*
X-196006Y67017D01*
X-196647Y67853D01*
X-197483Y68494D01*
X-198456Y68897D01*
X-199022Y68972D01*
X-199202Y69499D01*
X-183730Y84971D01*
X-169000D01*
X-168415Y85087D01*
X-167919Y85419D01*
X-163797Y89540D01*
X-162805Y89129D01*
X-161500Y88957D01*
X-160195Y89129D01*
X-158978Y89632D01*
X-157934Y90434D01*
X-157132Y91478D01*
X-156629Y92695D01*
X-156457Y94000D01*
X-156629Y95305D01*
X-157132Y96522D01*
X-157934Y97566D01*
X-158978Y98368D01*
X-160195Y98871D01*
X-161500Y99043D01*
X-162805Y98871D01*
X-164022Y98368D01*
X-165066Y97566D01*
X-165867Y96522D01*
X-166229Y95648D01*
X-166771D01*
X-167132Y96522D01*
X-167934Y97566D01*
X-168978Y98368D01*
X-170195Y98871D01*
X-171500Y99043D01*
X-172805Y98871D01*
X-174022Y98368D01*
X-175066Y97566D01*
X-175867Y96522D01*
X-176229Y95648D01*
X-176771D01*
X-177132Y96522D01*
X-177934Y97566D01*
X-178978Y98368D01*
X-180195Y98871D01*
X-181500Y99043D01*
X-182805Y98871D01*
X-184022Y98368D01*
X-185066Y97566D01*
X-185868Y96522D01*
X-186229Y95648D01*
X-186771D01*
X-187133Y96522D01*
X-187934Y97566D01*
X-188978Y98368D01*
X-190195Y98871D01*
X-191500Y99043D01*
X-192805Y98871D01*
X-194022Y98368D01*
X-195066Y97566D01*
X-195868Y96522D01*
X-196229Y95648D01*
X-196771D01*
X-197133Y96522D01*
X-197934Y97566D01*
X-198978Y98368D01*
X-200195Y98871D01*
X-201500Y99043D01*
X-202805Y98871D01*
X-204022Y98368D01*
X-205066Y97566D01*
X-205868Y96522D01*
X-206229Y95648D01*
X-206771D01*
X-207133Y96522D01*
X-207934Y97566D01*
X-208978Y98368D01*
X-210195Y98871D01*
X-211000Y98977D01*
Y94000D01*
Y89023D01*
X-210195Y89129D01*
X-208978Y89632D01*
X-207934Y90434D01*
X-207133Y91478D01*
X-206771Y92352D01*
X-206229D01*
X-205960Y91703D01*
X-248081Y49581D01*
X-248413Y49085D01*
X-248529Y48500D01*
Y46145D01*
X-248993Y45953D01*
X-249819Y45319D01*
X-250453Y44493D01*
X-250851Y43532D01*
X-250987Y42500D01*
X-250851Y41468D01*
X-250453Y40507D01*
X-249819Y39681D01*
X-248993Y39047D01*
X-248032Y38649D01*
X-247000Y38513D01*
X-245968Y38649D01*
X-245007Y39047D01*
X-244181Y39681D01*
X-243547Y40507D01*
X-243149Y41468D01*
X-243013Y42500D01*
X-243149Y43532D01*
X-243547Y44493D01*
X-244181Y45319D01*
X-245007Y45953D01*
X-245471Y46145D01*
Y47866D01*
X-203798Y89540D01*
X-202805Y89129D01*
X-201500Y88957D01*
X-200195Y89129D01*
X-198978Y89632D01*
X-197934Y90434D01*
X-197133Y91478D01*
X-196771Y92352D01*
X-196229D01*
X-195960Y91703D01*
X-238081Y49581D01*
X-238413Y49085D01*
X-238529Y48500D01*
Y46145D01*
X-238993Y45953D01*
X-239819Y45319D01*
X-240453Y44493D01*
X-240851Y43532D01*
X-240987Y42500D01*
X-240851Y41468D01*
X-240453Y40507D01*
X-239819Y39681D01*
X-238993Y39047D01*
X-238032Y38649D01*
X-237000Y38513D01*
X-235968Y38649D01*
X-235007Y39047D01*
X-234181Y39681D01*
X-233547Y40507D01*
X-233149Y41468D01*
X-233013Y42500D01*
X-233149Y43532D01*
X-233547Y44493D01*
X-234181Y45319D01*
X-235007Y45953D01*
X-235471Y46145D01*
Y47866D01*
X-193798Y89540D01*
X-192805Y89129D01*
X-191500Y88957D01*
X-190272Y89118D01*
X-189943Y88741D01*
X-228081Y50602D01*
X-228413Y50106D01*
X-228529Y49521D01*
Y46145D01*
X-228993Y45953D01*
X-229819Y45319D01*
X-230453Y44493D01*
X-230851Y43532D01*
X-230987Y42500D01*
X-230851Y41468D01*
X-230453Y40507D01*
X-229819Y39681D01*
X-228993Y39047D01*
X-228032Y38649D01*
X-227000Y38513D01*
X-225968Y38649D01*
X-225007Y39047D01*
X-224181Y39681D01*
X-223547Y40507D01*
X-223149Y41468D01*
X-223013Y42500D01*
X-223149Y43532D01*
X-223547Y44493D01*
X-224181Y45319D01*
X-225007Y45953D01*
X-225471Y46145D01*
Y48887D01*
X-218991Y55367D01*
X-218529Y55175D01*
Y46145D01*
X-218993Y45953D01*
X-219819Y45319D01*
X-220453Y44493D01*
X-220851Y43532D01*
X-220987Y42500D01*
X-220851Y41468D01*
X-220453Y40507D01*
X-219819Y39681D01*
X-218993Y39047D01*
X-218032Y38649D01*
X-217000Y38513D01*
X-215968Y38649D01*
X-215007Y39047D01*
X-214181Y39681D01*
X-213547Y40507D01*
X-213149Y41468D01*
X-213013Y42500D01*
X-213149Y43532D01*
X-213547Y44493D01*
X-214181Y45319D01*
X-215007Y45953D01*
X-215471Y46145D01*
Y56059D01*
X-208991Y62538D01*
X-208529Y62347D01*
Y46453D01*
X-210953D01*
Y38547D01*
X-203047D01*
Y42231D01*
X-202547Y42401D01*
X-202353Y42147D01*
X-201517Y41506D01*
X-200544Y41103D01*
X-199500Y40966D01*
X-198456Y41103D01*
X-197483Y41506D01*
X-196647Y42147D01*
X-196006Y42983D01*
X-195603Y43956D01*
X-195549Y44366D01*
X-195049Y44333D01*
Y42722D01*
X-194855Y41746D01*
X-194302Y40919D01*
X-187951Y34568D01*
X-187124Y34015D01*
X-186148Y33821D01*
X-136986D01*
X-136011Y34015D01*
X-135184Y34568D01*
X-25198Y144554D01*
X-24645Y145381D01*
X-24451Y146356D01*
Y224500D01*
X-24645Y225476D01*
X-25198Y226302D01*
X-44198Y245302D01*
X-50698Y251802D01*
X-51525Y252355D01*
X-52500Y252549D01*
X-113894D01*
X-113987Y252621D01*
X-114717Y252923D01*
X-115500Y253026D01*
D02*
G37*
G36*
X-67500Y210000D02*
X-71977D01*
X-71871Y209195D01*
X-71368Y207978D01*
X-70566Y206934D01*
X-69522Y206133D01*
X-68305Y205629D01*
X-67500Y205523D01*
Y210000D01*
D02*
G37*
G36*
X-56000Y166977D02*
Y162500D01*
X-51523D01*
X-51629Y163305D01*
X-52132Y164522D01*
X-52934Y165566D01*
X-53978Y166367D01*
X-55195Y166871D01*
X-56000Y166977D01*
D02*
G37*
G36*
X-51523Y161500D02*
X-56000D01*
Y157023D01*
X-55195Y157129D01*
X-53978Y157633D01*
X-52934Y158434D01*
X-52132Y159478D01*
X-51629Y160695D01*
X-51523Y161500D01*
D02*
G37*
G36*
X-286000Y224526D02*
X-286783Y224423D01*
X-287513Y224120D01*
X-288140Y223640D01*
X-288620Y223013D01*
X-288923Y222283D01*
X-289026Y221500D01*
X-288923Y220717D01*
X-288620Y219987D01*
X-288140Y219360D01*
X-287529Y218892D01*
Y147789D01*
X-288029Y147639D01*
X-288978Y148368D01*
X-289971Y148778D01*
Y214392D01*
X-289360Y214860D01*
X-288879Y215487D01*
X-288577Y216217D01*
X-288474Y217000D01*
X-288577Y217783D01*
X-288879Y218513D01*
X-289360Y219140D01*
X-289987Y219620D01*
X-290717Y219923D01*
X-291500Y220026D01*
X-292283Y219923D01*
X-293013Y219620D01*
X-293640Y219140D01*
X-294121Y218513D01*
X-294423Y217783D01*
X-294526Y217000D01*
X-294423Y216217D01*
X-294121Y215487D01*
X-293640Y214860D01*
X-293029Y214392D01*
Y148778D01*
X-294022Y148368D01*
X-295066Y147566D01*
X-295867Y146522D01*
X-296371Y145305D01*
X-296543Y144000D01*
X-296371Y142695D01*
X-295867Y141478D01*
X-295066Y140434D01*
X-294022Y139632D01*
X-293148Y139271D01*
Y138729D01*
X-294022Y138367D01*
X-295066Y137566D01*
X-295867Y136522D01*
X-296371Y135305D01*
X-296543Y134000D01*
X-296371Y132695D01*
X-295867Y131478D01*
X-295066Y130434D01*
X-294022Y129632D01*
X-292805Y129129D01*
X-291500Y128957D01*
X-290195Y129129D01*
X-288978Y129632D01*
X-287934Y130434D01*
X-287133Y131478D01*
X-286629Y132695D01*
X-286457Y134000D01*
X-286629Y135305D01*
X-287040Y136297D01*
X-284919Y138419D01*
X-284587Y138915D01*
X-284471Y139500D01*
Y218892D01*
X-283860Y219360D01*
X-283380Y219987D01*
X-283077Y220717D01*
X-282974Y221500D01*
X-283077Y222283D01*
X-283380Y223013D01*
X-283860Y223640D01*
X-284487Y224120D01*
X-285217Y224423D01*
X-286000Y224526D01*
D02*
G37*
G36*
X-156500Y219043D02*
X-157805Y218871D01*
X-159022Y218368D01*
X-160066Y217566D01*
X-160868Y216522D01*
X-161371Y215305D01*
X-161543Y214000D01*
X-161371Y212695D01*
X-160868Y211478D01*
X-160066Y210434D01*
X-159022Y209632D01*
X-158148Y209271D01*
Y208729D01*
X-159022Y208367D01*
X-160066Y207566D01*
X-160868Y206522D01*
X-161371Y205305D01*
X-161543Y204000D01*
X-161371Y202695D01*
X-160868Y201478D01*
X-160066Y200434D01*
X-159022Y199633D01*
X-158148Y199271D01*
Y198729D01*
X-159022Y198368D01*
X-160066Y197566D01*
X-160868Y196522D01*
X-161371Y195305D01*
X-161543Y194000D01*
X-161371Y192695D01*
X-160868Y191478D01*
X-160066Y190434D01*
X-159022Y189632D01*
X-158148Y189271D01*
Y188729D01*
X-159022Y188367D01*
X-160066Y187566D01*
X-160868Y186522D01*
X-161371Y185305D01*
X-161543Y184000D01*
X-161371Y182695D01*
X-160868Y181478D01*
X-160066Y180434D01*
X-159022Y179632D01*
X-158148Y179271D01*
Y178729D01*
X-159022Y178367D01*
X-160066Y177566D01*
X-160868Y176522D01*
X-161371Y175305D01*
X-161543Y174000D01*
X-161371Y172695D01*
X-160868Y171478D01*
X-160066Y170434D01*
X-159022Y169632D01*
X-158148Y169271D01*
Y168729D01*
X-159022Y168368D01*
X-160066Y167566D01*
X-160868Y166522D01*
X-161371Y165305D01*
X-161543Y164000D01*
X-161371Y162695D01*
X-160868Y161478D01*
X-160066Y160434D01*
X-159022Y159633D01*
X-158148Y159271D01*
Y158729D01*
X-159022Y158368D01*
X-160066Y157566D01*
X-160868Y156522D01*
X-161371Y155305D01*
X-161543Y154000D01*
X-161371Y152695D01*
X-160868Y151478D01*
X-160066Y150434D01*
X-159022Y149633D01*
X-158148Y149271D01*
Y148729D01*
X-159022Y148368D01*
X-160066Y147566D01*
X-160868Y146522D01*
X-161371Y145305D01*
X-161543Y144000D01*
X-161371Y142695D01*
X-160868Y141478D01*
X-160066Y140434D01*
X-159022Y139632D01*
X-158148Y139271D01*
Y138729D01*
X-159022Y138367D01*
X-160066Y137566D01*
X-160868Y136522D01*
X-161371Y135305D01*
X-161477Y134500D01*
X-156500D01*
X-151523D01*
X-151629Y135305D01*
X-152132Y136522D01*
X-152934Y137566D01*
X-153978Y138367D01*
X-154852Y138729D01*
Y139271D01*
X-153978Y139632D01*
X-152934Y140434D01*
X-152132Y141478D01*
X-151629Y142695D01*
X-151457Y144000D01*
X-151629Y145305D01*
X-152132Y146522D01*
X-152934Y147566D01*
X-153978Y148368D01*
X-154852Y148729D01*
Y149271D01*
X-153978Y149633D01*
X-152934Y150434D01*
X-152132Y151478D01*
X-151629Y152695D01*
X-151457Y154000D01*
X-151629Y155305D01*
X-152132Y156522D01*
X-152934Y157566D01*
X-153978Y158368D01*
X-154852Y158729D01*
Y159271D01*
X-153978Y159633D01*
X-152934Y160434D01*
X-152132Y161478D01*
X-151629Y162695D01*
X-151457Y164000D01*
X-151629Y165305D01*
X-152132Y166522D01*
X-152934Y167566D01*
X-153978Y168368D01*
X-154852Y168729D01*
Y169271D01*
X-153978Y169632D01*
X-152934Y170434D01*
X-152132Y171478D01*
X-151629Y172695D01*
X-151457Y174000D01*
X-151629Y175305D01*
X-152132Y176522D01*
X-152934Y177566D01*
X-153978Y178367D01*
X-154852Y178729D01*
Y179271D01*
X-153978Y179632D01*
X-152934Y180434D01*
X-152132Y181478D01*
X-151629Y182695D01*
X-151457Y184000D01*
X-151629Y185305D01*
X-152132Y186522D01*
X-152934Y187566D01*
X-153978Y188367D01*
X-154852Y188729D01*
Y189271D01*
X-153978Y189632D01*
X-152934Y190434D01*
X-152132Y191478D01*
X-151629Y192695D01*
X-151457Y194000D01*
X-151629Y195305D01*
X-152132Y196522D01*
X-152934Y197566D01*
X-153978Y198368D01*
X-154852Y198729D01*
Y199271D01*
X-153978Y199633D01*
X-152934Y200434D01*
X-152132Y201478D01*
X-151629Y202695D01*
X-151457Y204000D01*
X-151629Y205305D01*
X-152132Y206522D01*
X-152934Y207566D01*
X-153978Y208367D01*
X-154852Y208729D01*
Y209271D01*
X-153978Y209632D01*
X-152934Y210434D01*
X-152132Y211478D01*
X-151629Y212695D01*
X-151457Y214000D01*
X-151629Y215305D01*
X-152132Y216522D01*
X-152934Y217566D01*
X-153978Y218368D01*
X-155195Y218871D01*
X-156500Y219043D01*
D02*
G37*
G36*
X-224500Y244526D02*
X-225283Y244423D01*
X-226013Y244121D01*
X-226640Y243640D01*
X-227120Y243013D01*
X-227423Y242283D01*
X-227438Y242167D01*
X-255302Y214302D01*
X-255855Y213475D01*
X-256049Y212500D01*
Y171606D01*
X-256120Y171513D01*
X-256423Y170783D01*
X-256526Y170000D01*
X-256423Y169217D01*
X-256120Y168487D01*
X-255640Y167860D01*
X-255013Y167379D01*
X-254283Y167077D01*
X-253500Y166974D01*
X-252717Y167077D01*
X-251987Y167379D01*
X-251360Y167860D01*
X-250880Y168487D01*
X-250577Y169217D01*
X-250474Y170000D01*
X-250577Y170783D01*
X-250880Y171513D01*
X-250951Y171606D01*
Y211444D01*
X-227511Y234884D01*
X-227049Y234693D01*
Y142000D01*
X-226855Y141024D01*
X-226302Y140198D01*
X-221376Y135271D01*
X-221543Y134000D01*
X-221371Y132695D01*
X-220867Y131478D01*
X-220066Y130434D01*
X-219022Y129632D01*
X-218148Y129271D01*
Y128729D01*
X-219022Y128367D01*
X-220066Y127566D01*
X-220867Y126522D01*
X-221371Y125305D01*
X-221543Y124000D01*
X-221371Y122695D01*
X-220867Y121478D01*
X-220066Y120434D01*
X-219022Y119632D01*
X-218148Y119271D01*
Y118729D01*
X-219022Y118368D01*
X-220066Y117566D01*
X-220867Y116522D01*
X-221371Y115305D01*
X-221477Y114500D01*
X-216500D01*
X-211523D01*
X-211629Y115305D01*
X-212133Y116522D01*
X-212934Y117566D01*
X-213978Y118368D01*
X-214852Y118729D01*
Y119271D01*
X-213978Y119632D01*
X-212934Y120434D01*
X-212133Y121478D01*
X-211629Y122695D01*
X-211457Y124000D01*
X-211629Y125305D01*
X-212133Y126522D01*
X-212934Y127566D01*
X-213978Y128367D01*
X-214852Y128729D01*
Y129271D01*
X-213978Y129632D01*
X-212934Y130434D01*
X-212133Y131478D01*
X-211629Y132695D01*
X-211457Y134000D01*
X-211629Y135305D01*
X-212133Y136522D01*
X-212934Y137566D01*
X-213978Y138367D01*
X-214852Y138729D01*
Y139271D01*
X-213978Y139632D01*
X-212934Y140434D01*
X-212133Y141478D01*
X-211629Y142695D01*
X-211457Y144000D01*
X-211629Y145305D01*
X-212133Y146522D01*
X-212934Y147566D01*
X-213978Y148368D01*
X-214852Y148729D01*
Y149271D01*
X-213978Y149633D01*
X-212934Y150434D01*
X-212133Y151478D01*
X-211629Y152695D01*
X-211457Y154000D01*
X-211629Y155305D01*
X-212133Y156522D01*
X-212934Y157566D01*
X-213978Y158368D01*
X-214852Y158729D01*
Y159271D01*
X-213978Y159633D01*
X-212934Y160434D01*
X-212133Y161478D01*
X-211629Y162695D01*
X-211457Y164000D01*
X-211629Y165305D01*
X-212133Y166522D01*
X-212934Y167566D01*
X-213978Y168368D01*
X-214852Y168729D01*
Y169271D01*
X-213978Y169632D01*
X-212934Y170434D01*
X-212133Y171478D01*
X-211629Y172695D01*
X-211457Y174000D01*
X-211629Y175305D01*
X-212133Y176522D01*
X-212934Y177566D01*
X-213978Y178367D01*
X-214852Y178729D01*
Y179271D01*
X-213978Y179632D01*
X-212934Y180434D01*
X-212133Y181478D01*
X-211629Y182695D01*
X-211457Y184000D01*
X-211629Y185305D01*
X-212133Y186522D01*
X-212934Y187566D01*
X-213978Y188367D01*
X-214852Y188729D01*
Y189271D01*
X-213978Y189632D01*
X-212934Y190434D01*
X-212133Y191478D01*
X-211629Y192695D01*
X-211457Y194000D01*
X-211629Y195305D01*
X-212133Y196522D01*
X-212934Y197566D01*
X-213978Y198368D01*
X-214852Y198729D01*
Y199271D01*
X-213978Y199633D01*
X-212934Y200434D01*
X-212133Y201478D01*
X-211629Y202695D01*
X-211457Y204000D01*
X-211629Y205305D01*
X-212133Y206522D01*
X-212934Y207566D01*
X-213978Y208367D01*
X-214852Y208729D01*
Y209271D01*
X-213978Y209632D01*
X-212934Y210434D01*
X-212133Y211478D01*
X-211629Y212695D01*
X-211473Y213881D01*
X-211013Y214128D01*
X-208029Y211145D01*
Y153779D01*
X-209022Y153367D01*
X-210066Y152566D01*
X-210868Y151522D01*
X-211371Y150305D01*
X-211543Y149000D01*
X-211371Y147695D01*
X-210868Y146478D01*
X-210066Y145434D01*
X-209022Y144632D01*
X-208148Y144271D01*
Y143729D01*
X-209022Y143368D01*
X-210066Y142566D01*
X-210868Y141522D01*
X-211371Y140305D01*
X-211543Y139000D01*
X-211371Y137695D01*
X-210868Y136478D01*
X-210066Y135434D01*
X-209022Y134633D01*
X-207805Y134129D01*
X-206500Y133957D01*
X-205195Y134129D01*
X-203978Y134633D01*
X-202934Y135434D01*
X-202133Y136478D01*
X-201629Y137695D01*
X-201457Y139000D01*
X-201629Y140305D01*
X-202040Y141297D01*
X-199419Y143919D01*
X-199087Y144415D01*
X-198971Y145000D01*
Y211000D01*
X-199087Y211585D01*
X-199419Y212081D01*
X-217074Y229737D01*
X-216974Y230500D01*
X-217077Y231283D01*
X-217379Y232013D01*
X-217860Y232640D01*
X-218487Y233120D01*
X-219217Y233423D01*
X-220000Y233526D01*
X-220783Y233423D01*
X-221451Y233146D01*
X-221944Y233333D01*
X-221951Y233336D01*
Y239894D01*
X-221880Y239987D01*
X-221577Y240717D01*
X-221474Y241500D01*
X-221577Y242283D01*
X-221880Y243013D01*
X-222360Y243640D01*
X-222987Y244121D01*
X-223717Y244423D01*
X-224500Y244526D01*
D02*
G37*
G36*
X-301500Y214043D02*
X-302805Y213871D01*
X-304022Y213368D01*
X-305066Y212566D01*
X-305868Y211522D01*
X-306371Y210305D01*
X-306543Y209000D01*
X-306371Y207695D01*
X-305868Y206478D01*
X-305066Y205434D01*
X-304022Y204632D01*
X-303148Y204271D01*
Y203729D01*
X-304022Y203367D01*
X-305066Y202566D01*
X-305868Y201522D01*
X-306371Y200305D01*
X-306543Y199000D01*
X-306371Y197695D01*
X-305868Y196478D01*
X-305066Y195434D01*
X-304022Y194632D01*
X-303148Y194271D01*
Y193729D01*
X-304022Y193368D01*
X-305066Y192566D01*
X-305868Y191522D01*
X-306371Y190305D01*
X-306543Y189000D01*
X-306371Y187695D01*
X-305868Y186478D01*
X-305066Y185434D01*
X-304022Y184633D01*
X-303148Y184271D01*
Y183729D01*
X-304022Y183368D01*
X-305066Y182566D01*
X-305868Y181522D01*
X-306371Y180305D01*
X-306543Y179000D01*
X-306371Y177695D01*
X-305868Y176478D01*
X-305066Y175434D01*
X-304022Y174633D01*
X-303148Y174271D01*
Y173729D01*
X-304022Y173368D01*
X-305066Y172566D01*
X-305868Y171522D01*
X-306371Y170305D01*
X-306543Y169000D01*
X-306371Y167695D01*
X-305868Y166478D01*
X-305066Y165434D01*
X-304022Y164632D01*
X-303148Y164271D01*
Y163729D01*
X-304022Y163367D01*
X-305066Y162566D01*
X-305868Y161522D01*
X-306371Y160305D01*
X-306543Y159000D01*
X-306371Y157695D01*
X-305868Y156478D01*
X-305066Y155434D01*
X-304022Y154632D01*
X-303148Y154271D01*
Y153729D01*
X-304022Y153367D01*
X-305066Y152566D01*
X-305868Y151522D01*
X-306371Y150305D01*
X-306543Y149000D01*
X-306371Y147695D01*
X-305868Y146478D01*
X-305066Y145434D01*
X-304022Y144632D01*
X-303148Y144271D01*
Y143729D01*
X-304022Y143368D01*
X-305066Y142566D01*
X-305868Y141522D01*
X-306371Y140305D01*
X-306543Y139000D01*
X-306371Y137695D01*
X-305868Y136478D01*
X-305066Y135434D01*
X-304022Y134633D01*
X-303148Y134271D01*
Y133729D01*
X-304022Y133368D01*
X-305066Y132566D01*
X-305868Y131522D01*
X-306371Y130305D01*
X-306543Y129000D01*
X-306371Y127695D01*
X-305868Y126478D01*
X-305066Y125434D01*
X-304022Y124633D01*
X-303148Y124271D01*
Y123729D01*
X-304022Y123368D01*
X-305066Y122566D01*
X-305868Y121522D01*
X-306371Y120305D01*
X-306543Y119000D01*
X-306371Y117695D01*
X-305868Y116478D01*
X-305066Y115434D01*
X-304022Y114632D01*
X-303148Y114271D01*
Y113729D01*
X-304022Y113367D01*
X-305066Y112566D01*
X-305868Y111522D01*
X-306371Y110305D01*
X-306477Y109500D01*
X-301500D01*
X-296523D01*
X-296629Y110305D01*
X-297132Y111522D01*
X-297934Y112566D01*
X-298978Y113367D01*
X-299852Y113729D01*
Y114271D01*
X-298978Y114632D01*
X-297934Y115434D01*
X-297132Y116478D01*
X-296629Y117695D01*
X-296457Y119000D01*
X-296629Y120305D01*
X-297132Y121522D01*
X-297934Y122566D01*
X-298978Y123368D01*
X-299852Y123729D01*
Y124271D01*
X-298978Y124633D01*
X-297934Y125434D01*
X-297132Y126478D01*
X-296629Y127695D01*
X-296457Y129000D01*
X-296629Y130305D01*
X-297132Y131522D01*
X-297934Y132566D01*
X-298978Y133368D01*
X-299852Y133729D01*
Y134271D01*
X-298978Y134633D01*
X-297934Y135434D01*
X-297132Y136478D01*
X-296629Y137695D01*
X-296457Y139000D01*
X-296629Y140305D01*
X-297132Y141522D01*
X-297934Y142566D01*
X-298978Y143368D01*
X-299852Y143729D01*
Y144271D01*
X-298978Y144632D01*
X-297934Y145434D01*
X-297132Y146478D01*
X-296629Y147695D01*
X-296457Y149000D01*
X-296629Y150305D01*
X-297132Y151522D01*
X-297934Y152566D01*
X-298978Y153367D01*
X-299852Y153729D01*
Y154271D01*
X-298978Y154632D01*
X-297934Y155434D01*
X-297132Y156478D01*
X-296629Y157695D01*
X-296457Y159000D01*
X-296629Y160305D01*
X-297132Y161522D01*
X-297934Y162566D01*
X-298978Y163367D01*
X-299852Y163729D01*
Y164271D01*
X-298978Y164632D01*
X-297934Y165434D01*
X-297132Y166478D01*
X-296629Y167695D01*
X-296457Y169000D01*
X-296629Y170305D01*
X-297132Y171522D01*
X-297934Y172566D01*
X-298978Y173368D01*
X-299852Y173729D01*
Y174271D01*
X-298978Y174633D01*
X-297934Y175434D01*
X-297132Y176478D01*
X-296629Y177695D01*
X-296457Y179000D01*
X-296629Y180305D01*
X-297132Y181522D01*
X-297934Y182566D01*
X-298978Y183368D01*
X-299852Y183729D01*
Y184271D01*
X-298978Y184633D01*
X-297934Y185434D01*
X-297132Y186478D01*
X-296629Y187695D01*
X-296457Y189000D01*
X-296629Y190305D01*
X-297132Y191522D01*
X-297934Y192566D01*
X-298978Y193368D01*
X-299852Y193729D01*
Y194271D01*
X-298978Y194632D01*
X-297934Y195434D01*
X-297132Y196478D01*
X-296629Y197695D01*
X-296457Y199000D01*
X-296629Y200305D01*
X-297132Y201522D01*
X-297934Y202566D01*
X-298978Y203367D01*
X-299852Y203729D01*
Y204271D01*
X-298978Y204632D01*
X-297934Y205434D01*
X-297132Y206478D01*
X-296629Y207695D01*
X-296457Y209000D01*
X-296629Y210305D01*
X-297132Y211522D01*
X-297934Y212566D01*
X-298978Y213368D01*
X-300195Y213871D01*
X-301500Y214043D01*
D02*
G37*
G36*
X-151523Y133500D02*
X-156500D01*
X-161477D01*
X-161371Y132695D01*
X-160868Y131478D01*
X-160066Y130434D01*
X-159022Y129632D01*
X-158148Y129271D01*
Y128729D01*
X-159022Y128367D01*
X-160066Y127566D01*
X-160868Y126522D01*
X-161371Y125305D01*
X-161543Y124000D01*
X-161371Y122695D01*
X-160868Y121478D01*
X-160066Y120434D01*
X-159022Y119632D01*
X-158148Y119271D01*
Y118729D01*
X-159022Y118368D01*
X-160066Y117566D01*
X-160868Y116522D01*
X-161371Y115305D01*
X-161543Y114000D01*
X-161371Y112695D01*
X-160868Y111478D01*
X-160066Y110434D01*
X-159022Y109633D01*
X-158148Y109271D01*
Y108729D01*
X-159022Y108368D01*
X-160066Y107566D01*
X-160868Y106522D01*
X-161371Y105305D01*
X-161543Y104000D01*
X-161371Y102695D01*
X-160868Y101478D01*
X-160066Y100434D01*
X-159022Y99633D01*
X-157805Y99129D01*
X-156500Y98957D01*
X-155195Y99129D01*
X-153978Y99633D01*
X-152934Y100434D01*
X-152132Y101478D01*
X-151629Y102695D01*
X-151457Y104000D01*
X-151629Y105305D01*
X-152132Y106522D01*
X-152934Y107566D01*
X-153978Y108368D01*
X-154852Y108729D01*
Y109271D01*
X-153978Y109633D01*
X-152934Y110434D01*
X-152132Y111478D01*
X-151629Y112695D01*
X-151457Y114000D01*
X-151629Y115305D01*
X-152132Y116522D01*
X-152934Y117566D01*
X-153978Y118368D01*
X-154852Y118729D01*
Y119271D01*
X-153978Y119632D01*
X-152934Y120434D01*
X-152132Y121478D01*
X-151629Y122695D01*
X-151457Y124000D01*
X-151629Y125305D01*
X-152132Y126522D01*
X-152934Y127566D01*
X-153978Y128367D01*
X-154852Y128729D01*
Y129271D01*
X-153978Y129632D01*
X-152934Y130434D01*
X-152132Y131478D01*
X-151629Y132695D01*
X-151523Y133500D01*
D02*
G37*
G36*
X-211523Y113500D02*
X-216500D01*
X-221477D01*
X-221371Y112695D01*
X-220867Y111478D01*
X-220066Y110434D01*
X-219022Y109633D01*
X-218148Y109271D01*
Y108729D01*
X-219022Y108368D01*
X-220066Y107566D01*
X-220867Y106522D01*
X-221371Y105305D01*
X-221543Y104000D01*
X-221371Y102695D01*
X-220867Y101478D01*
X-220066Y100434D01*
X-219022Y99633D01*
X-217805Y99129D01*
X-216500Y98957D01*
X-215195Y99129D01*
X-213978Y99633D01*
X-212934Y100434D01*
X-212133Y101478D01*
X-211629Y102695D01*
X-211457Y104000D01*
X-211629Y105305D01*
X-212133Y106522D01*
X-212934Y107566D01*
X-213978Y108368D01*
X-214852Y108729D01*
Y109271D01*
X-213978Y109633D01*
X-212934Y110434D01*
X-212133Y111478D01*
X-211629Y112695D01*
X-211523Y113500D01*
D02*
G37*
G36*
X-212000Y98977D02*
X-212805Y98871D01*
X-214022Y98368D01*
X-215066Y97566D01*
X-215867Y96522D01*
X-216371Y95305D01*
X-216477Y94500D01*
X-212000D01*
Y98977D01*
D02*
G37*
G36*
X-296523Y108500D02*
X-301500D01*
X-306477D01*
X-306371Y107695D01*
X-305868Y106478D01*
X-305066Y105434D01*
X-304022Y104632D01*
X-303148Y104271D01*
Y103729D01*
X-304022Y103367D01*
X-305066Y102566D01*
X-305868Y101522D01*
X-306371Y100305D01*
X-306543Y99000D01*
X-306371Y97695D01*
X-305868Y96478D01*
X-305066Y95434D01*
X-304022Y94633D01*
X-302805Y94129D01*
X-301500Y93957D01*
X-300195Y94129D01*
X-298978Y94633D01*
X-297934Y95434D01*
X-297132Y96478D01*
X-296629Y97695D01*
X-296457Y99000D01*
X-296629Y100305D01*
X-297132Y101522D01*
X-297934Y102566D01*
X-298978Y103367D01*
X-299852Y103729D01*
Y104271D01*
X-298978Y104632D01*
X-297934Y105434D01*
X-297132Y106478D01*
X-296629Y107695D01*
X-296523Y108500D01*
D02*
G37*
G36*
X-297000Y93977D02*
X-297805Y93871D01*
X-299022Y93367D01*
X-300066Y92566D01*
X-300868Y91522D01*
X-301371Y90305D01*
X-301477Y89500D01*
X-297000D01*
Y93977D01*
D02*
G37*
G36*
X-212000Y93500D02*
X-216477D01*
X-216371Y92695D01*
X-215867Y91478D01*
X-215066Y90434D01*
X-214022Y89632D01*
X-212805Y89129D01*
X-212000Y89023D01*
Y93500D01*
D02*
G37*
G36*
X-297000Y88500D02*
X-301477D01*
X-301371Y87695D01*
X-300868Y86478D01*
X-300066Y85434D01*
X-299022Y84632D01*
X-297805Y84129D01*
X-297000Y84023D01*
Y88500D01*
D02*
G37*
G36*
X-266000Y241526D02*
X-266783Y241423D01*
X-267513Y241121D01*
X-268140Y240640D01*
X-268620Y240013D01*
X-268923Y239283D01*
X-269026Y238500D01*
X-268923Y237717D01*
X-268620Y236987D01*
X-268140Y236360D01*
X-267529Y235892D01*
Y163500D01*
X-267413Y162915D01*
X-267081Y162419D01*
X-245960Y141297D01*
X-246371Y140305D01*
X-246543Y139000D01*
X-246371Y137695D01*
X-245867Y136478D01*
X-245066Y135434D01*
X-244022Y134633D01*
X-243148Y134271D01*
Y133729D01*
X-244022Y133368D01*
X-245066Y132566D01*
X-245867Y131522D01*
X-246371Y130305D01*
X-246477Y129500D01*
X-241500D01*
Y128500D01*
X-246477D01*
X-246371Y127695D01*
X-245867Y126478D01*
X-245066Y125434D01*
X-244022Y124633D01*
X-243148Y124271D01*
Y123729D01*
X-244022Y123368D01*
X-245066Y122566D01*
X-245867Y121522D01*
X-246371Y120305D01*
X-246543Y119000D01*
X-246371Y117695D01*
X-245867Y116478D01*
X-245066Y115434D01*
X-244022Y114632D01*
X-243148Y114271D01*
Y113729D01*
X-244022Y113367D01*
X-245066Y112566D01*
X-245867Y111522D01*
X-246371Y110305D01*
X-246543Y109000D01*
X-246371Y107695D01*
X-245867Y106478D01*
X-245066Y105434D01*
X-244022Y104632D01*
X-243148Y104271D01*
Y103729D01*
X-244022Y103367D01*
X-245066Y102566D01*
X-245867Y101522D01*
X-246371Y100305D01*
X-246543Y99000D01*
X-246371Y97695D01*
X-245867Y96478D01*
X-245066Y95434D01*
X-244022Y94633D01*
X-242805Y94129D01*
X-241500Y93957D01*
X-240195Y94129D01*
X-238978Y94633D01*
X-238029Y95361D01*
X-237529Y95211D01*
Y80108D01*
X-238140Y79640D01*
X-238620Y79013D01*
X-238923Y78283D01*
X-239026Y77500D01*
X-238923Y76717D01*
X-238620Y75987D01*
X-238140Y75360D01*
X-237513Y74879D01*
X-236783Y74577D01*
X-236000Y74474D01*
X-235217Y74577D01*
X-234487Y74879D01*
X-233860Y75360D01*
X-233380Y75987D01*
X-233077Y76717D01*
X-232974Y77500D01*
X-233019Y77841D01*
X-232561Y78192D01*
X-232283Y78077D01*
X-231500Y77974D01*
X-230717Y78077D01*
X-229987Y78379D01*
X-229360Y78860D01*
X-228879Y79487D01*
X-228577Y80217D01*
X-228474Y81000D01*
X-228577Y81783D01*
X-228879Y82513D01*
X-229360Y83140D01*
X-229971Y83608D01*
Y169000D01*
X-230087Y169585D01*
X-230419Y170081D01*
X-237040Y176703D01*
X-236629Y177695D01*
X-236457Y179000D01*
X-236629Y180305D01*
X-237133Y181522D01*
X-237934Y182566D01*
X-238978Y183368D01*
X-239852Y183729D01*
Y184271D01*
X-238978Y184633D01*
X-237934Y185434D01*
X-237133Y186478D01*
X-236629Y187695D01*
X-236457Y189000D01*
X-236629Y190305D01*
X-237133Y191522D01*
X-237934Y192566D01*
X-238978Y193368D01*
X-239852Y193729D01*
Y194271D01*
X-238978Y194632D01*
X-237934Y195434D01*
X-237133Y196478D01*
X-236629Y197695D01*
X-236457Y199000D01*
X-236629Y200305D01*
X-237133Y201522D01*
X-237934Y202566D01*
X-238978Y203367D01*
X-239852Y203729D01*
Y204271D01*
X-238978Y204632D01*
X-237934Y205434D01*
X-237133Y206478D01*
X-236629Y207695D01*
X-236457Y209000D01*
X-236629Y210305D01*
X-237133Y211522D01*
X-237934Y212566D01*
X-238978Y213368D01*
X-240195Y213871D01*
X-241500Y214043D01*
X-242805Y213871D01*
X-244022Y213368D01*
X-245066Y212566D01*
X-245867Y211522D01*
X-246371Y210305D01*
X-246543Y209000D01*
X-246371Y207695D01*
X-245867Y206478D01*
X-245066Y205434D01*
X-244022Y204632D01*
X-243148Y204271D01*
Y203729D01*
X-244022Y203367D01*
X-245066Y202566D01*
X-245867Y201522D01*
X-246371Y200305D01*
X-246543Y199000D01*
X-246371Y197695D01*
X-245867Y196478D01*
X-245066Y195434D01*
X-244022Y194632D01*
X-243148Y194271D01*
Y193729D01*
X-244022Y193368D01*
X-245066Y192566D01*
X-245867Y191522D01*
X-246371Y190305D01*
X-246543Y189000D01*
X-246371Y187695D01*
X-245867Y186478D01*
X-245066Y185434D01*
X-244022Y184633D01*
X-243148Y184271D01*
Y183729D01*
X-244022Y183368D01*
X-245066Y182566D01*
X-245867Y181522D01*
X-246371Y180305D01*
X-246543Y179000D01*
X-246371Y177695D01*
X-245867Y176478D01*
X-245066Y175434D01*
X-244022Y174633D01*
X-243148Y174271D01*
Y173729D01*
X-244022Y173368D01*
X-245066Y172566D01*
X-245867Y171522D01*
X-246371Y170305D01*
X-246543Y169000D01*
X-246371Y167695D01*
X-245867Y166478D01*
X-245066Y165434D01*
X-244022Y164632D01*
X-243148Y164271D01*
Y163729D01*
X-244022Y163367D01*
X-245066Y162566D01*
X-245867Y161522D01*
X-246371Y160305D01*
X-246543Y159000D01*
X-246371Y157695D01*
X-245867Y156478D01*
X-245066Y155434D01*
X-244022Y154632D01*
X-243148Y154271D01*
Y153729D01*
X-243797Y153460D01*
X-259471Y169133D01*
Y222392D01*
X-258860Y222860D01*
X-258380Y223487D01*
X-258077Y224217D01*
X-257974Y225000D01*
X-258077Y225783D01*
X-258380Y226513D01*
X-258860Y227140D01*
X-259487Y227621D01*
X-260217Y227923D01*
X-261000Y228026D01*
X-261783Y227923D01*
X-262513Y227621D01*
X-263140Y227140D01*
X-263620Y226513D01*
X-263923Y225783D01*
X-263971Y225420D01*
X-264471Y225453D01*
Y235892D01*
X-263860Y236360D01*
X-263380Y236987D01*
X-263077Y237717D01*
X-262974Y238500D01*
X-263077Y239283D01*
X-263380Y240013D01*
X-263860Y240640D01*
X-264487Y241121D01*
X-265217Y241423D01*
X-266000Y241526D01*
D02*
G37*
G36*
X-172500Y82543D02*
X-173805Y82371D01*
X-175022Y81867D01*
X-176066Y81066D01*
X-176867Y80022D01*
X-177371Y78805D01*
X-177543Y77500D01*
X-177371Y76195D01*
X-176867Y74978D01*
X-176066Y73934D01*
X-175022Y73132D01*
X-173805Y72629D01*
X-172500Y72457D01*
X-171195Y72629D01*
X-169978Y73132D01*
X-168934Y73934D01*
X-168132Y74978D01*
X-167629Y76195D01*
X-167457Y77500D01*
X-167629Y78805D01*
X-168132Y80022D01*
X-168934Y81066D01*
X-169978Y81867D01*
X-171195Y82371D01*
X-172500Y82543D01*
D02*
G37*
G36*
X-187000Y69034D02*
X-188044Y68897D01*
X-189017Y68494D01*
X-189853Y67853D01*
X-190494Y67017D01*
X-190897Y66044D01*
X-191034Y65000D01*
X-190897Y63956D01*
X-190494Y62983D01*
X-189853Y62147D01*
X-189017Y61506D01*
X-188044Y61103D01*
X-187000Y60966D01*
X-185956Y61103D01*
X-184983Y61506D01*
X-184147Y62147D01*
X-183506Y62983D01*
X-183103Y63956D01*
X-182966Y65000D01*
X-183103Y66044D01*
X-183506Y67017D01*
X-184147Y67853D01*
X-184983Y68494D01*
X-185956Y68897D01*
X-187000Y69034D01*
D02*
G37*
G36*
X-172500Y62543D02*
X-173805Y62371D01*
X-175022Y61867D01*
X-176066Y61066D01*
X-176867Y60022D01*
X-177371Y58805D01*
X-177537Y57549D01*
X-183914D01*
X-184147Y57853D01*
X-184983Y58494D01*
X-185956Y58897D01*
X-187000Y59035D01*
X-188044Y58897D01*
X-189017Y58494D01*
X-189853Y57853D01*
X-190494Y57017D01*
X-190897Y56044D01*
X-191034Y55000D01*
X-190897Y53956D01*
X-190494Y52983D01*
X-189853Y52147D01*
X-189017Y51506D01*
X-188044Y51103D01*
X-187000Y50965D01*
X-185956Y51103D01*
X-184983Y51506D01*
X-184147Y52147D01*
X-183914Y52451D01*
X-178498D01*
X-178329Y51951D01*
X-178398Y51898D01*
X-178937Y51196D01*
X-179276Y50378D01*
X-179391Y49500D01*
X-179276Y48622D01*
X-178937Y47804D01*
X-178398Y47102D01*
X-177696Y46563D01*
X-176878Y46224D01*
X-176000Y46109D01*
X-175122Y46224D01*
X-174304Y46563D01*
X-173602Y47102D01*
X-173063Y47804D01*
X-172724Y48622D01*
X-172609Y49500D01*
X-172724Y50378D01*
X-173063Y51196D01*
X-173602Y51898D01*
X-173707Y51979D01*
X-173716Y52113D01*
X-173243Y52555D01*
X-172500Y52457D01*
X-171195Y52629D01*
X-169978Y53132D01*
X-168934Y53934D01*
X-168132Y54978D01*
X-167629Y56195D01*
X-167457Y57500D01*
X-167629Y58805D01*
X-168132Y60022D01*
X-168934Y61066D01*
X-169978Y61867D01*
X-171195Y62371D01*
X-172500Y62543D01*
D02*
G37*
G36*
X-337000Y46421D02*
Y43000D01*
X-333579D01*
X-333649Y43532D01*
X-334047Y44493D01*
X-334681Y45319D01*
X-335507Y45953D01*
X-336468Y46351D01*
X-337000Y46421D01*
D02*
G37*
G36*
X-256500D02*
Y43000D01*
X-253079D01*
X-253149Y43532D01*
X-253547Y44493D01*
X-254181Y45319D01*
X-255007Y45953D01*
X-255968Y46351D01*
X-256500Y46421D01*
D02*
G37*
G36*
X-338000D02*
X-338532Y46351D01*
X-339493Y45953D01*
X-340319Y45319D01*
X-340953Y44493D01*
X-341351Y43532D01*
X-341421Y43000D01*
X-338000D01*
Y46421D01*
D02*
G37*
G36*
X-257500D02*
X-258032Y46351D01*
X-258993Y45953D01*
X-259819Y45319D01*
X-260453Y44493D01*
X-260851Y43532D01*
X-260921Y43000D01*
X-257500D01*
Y46421D01*
D02*
G37*
G36*
X-139500Y44558D02*
X-139878Y44508D01*
X-140696Y44169D01*
X-141398Y43630D01*
X-141937Y42928D01*
X-142276Y42110D01*
X-142325Y41732D01*
X-139500D01*
Y44558D01*
D02*
G37*
G36*
X-157000D02*
Y41732D01*
X-154175D01*
X-154224Y42110D01*
X-154563Y42928D01*
X-155102Y43630D01*
X-155804Y44169D01*
X-156622Y44508D01*
X-157000Y44558D01*
D02*
G37*
G36*
X-158000D02*
X-158378Y44508D01*
X-159196Y44169D01*
X-159898Y43630D01*
X-160437Y42928D01*
X-160776Y42110D01*
X-160825Y41732D01*
X-158000D01*
Y44558D01*
D02*
G37*
G36*
X-175500D02*
Y41732D01*
X-172675D01*
X-172724Y42110D01*
X-173063Y42928D01*
X-173602Y43630D01*
X-174304Y44169D01*
X-175122Y44508D01*
X-175500Y44558D01*
D02*
G37*
G36*
X-176500D02*
X-176878Y44508D01*
X-177696Y44169D01*
X-178398Y43630D01*
X-178937Y42928D01*
X-179276Y42110D01*
X-179325Y41732D01*
X-176500D01*
Y44558D01*
D02*
G37*
G36*
X-253079Y42000D02*
X-256500D01*
Y38579D01*
X-255968Y38649D01*
X-255007Y39047D01*
X-254181Y39681D01*
X-253547Y40507D01*
X-253149Y41468D01*
X-253079Y42000D01*
D02*
G37*
G36*
X-333579D02*
X-337000D01*
Y38579D01*
X-336468Y38649D01*
X-335507Y39047D01*
X-334681Y39681D01*
X-334047Y40507D01*
X-333649Y41468D01*
X-333579Y42000D01*
D02*
G37*
G36*
X-257500D02*
X-260921D01*
X-260851Y41468D01*
X-260453Y40507D01*
X-259819Y39681D01*
X-258993Y39047D01*
X-258032Y38649D01*
X-257500Y38579D01*
Y42000D01*
D02*
G37*
G36*
X-338000D02*
X-341421D01*
X-341351Y41468D01*
X-340953Y40507D01*
X-340319Y39681D01*
X-339493Y39047D01*
X-338532Y38649D01*
X-338000Y38579D01*
Y42000D01*
D02*
G37*
%LPD*%
G36*
X-250868Y86478D02*
X-250066Y85434D01*
X-249022Y84632D01*
X-248467Y84403D01*
X-248350Y83813D01*
X-285710Y46453D01*
X-290731D01*
X-290922Y46915D01*
X-255419Y82419D01*
X-255087Y82915D01*
X-254971Y83500D01*
Y84222D01*
X-253978Y84632D01*
X-252934Y85434D01*
X-252133Y86478D01*
X-251771Y87352D01*
X-251229D01*
X-250868Y86478D01*
D02*
G37*
G36*
X-94422Y186317D02*
X-94752Y185940D01*
X-94987Y186120D01*
X-95717Y186423D01*
X-96500Y186526D01*
X-97263Y186425D01*
X-137074Y226237D01*
X-136974Y227000D01*
X-137077Y227783D01*
X-137380Y228513D01*
X-137560Y228748D01*
X-137183Y229078D01*
X-94422Y186317D01*
D02*
G37*
G36*
X-75524Y167419D02*
X-75757Y166945D01*
X-76500Y167043D01*
X-77805Y166871D01*
X-79022Y166367D01*
X-80066Y165566D01*
X-80867Y164522D01*
X-81229Y163648D01*
X-81771D01*
X-82133Y164522D01*
X-82934Y165566D01*
X-83978Y166367D01*
X-85195Y166871D01*
X-86500Y167043D01*
X-87805Y166871D01*
X-89022Y166367D01*
X-90066Y165566D01*
X-90868Y164522D01*
X-91229Y163648D01*
X-91771D01*
X-92133Y164522D01*
X-92934Y165566D01*
X-93978Y166367D01*
X-94971Y166779D01*
Y180892D01*
X-94360Y181360D01*
X-93879Y181987D01*
X-93577Y182717D01*
X-93474Y183500D01*
X-93577Y184283D01*
X-93879Y185013D01*
X-94060Y185248D01*
X-93683Y185578D01*
X-75524Y167419D01*
D02*
G37*
G36*
X-202029Y210367D02*
Y152208D01*
X-202529Y152039D01*
X-202934Y152566D01*
X-203978Y153367D01*
X-204971Y153779D01*
Y211778D01*
X-205087Y212363D01*
X-205419Y212860D01*
X-216521Y223962D01*
X-216486Y224115D01*
X-215935Y224273D01*
X-202029Y210367D01*
D02*
G37*
G36*
X-263923Y224217D02*
X-263620Y223487D01*
X-263140Y222860D01*
X-262529Y222392D01*
Y168500D01*
X-262413Y167915D01*
X-262081Y167419D01*
X-245960Y151297D01*
X-246371Y150305D01*
X-246543Y149000D01*
X-246371Y147695D01*
X-245867Y146478D01*
X-245066Y145434D01*
X-244022Y144632D01*
X-243148Y144271D01*
Y143729D01*
X-243797Y143460D01*
X-264471Y164134D01*
Y224547D01*
X-263971Y224580D01*
X-263923Y224217D01*
D02*
G37*
G36*
X-233029Y168367D02*
Y83608D01*
X-233640Y83140D01*
X-233971Y82708D01*
X-234471Y82878D01*
Y163500D01*
X-234587Y164085D01*
X-234919Y164581D01*
X-237040Y166703D01*
X-236629Y167695D01*
X-236457Y169000D01*
X-236629Y170305D01*
X-237133Y171522D01*
X-237934Y172566D01*
X-238978Y173368D01*
X-239852Y173729D01*
Y174271D01*
X-239203Y174540D01*
X-233029Y168367D01*
D02*
G37*
D13*
X-246500Y83500D02*
Y89000D01*
X-287500Y42500D02*
X-246500Y83500D01*
X-256500D02*
Y89000D01*
X-297500Y42500D02*
X-256500Y83500D01*
X-266500D02*
Y89000D01*
X-307500Y42500D02*
X-266500Y83500D01*
X-276500D02*
Y89000D01*
X-317500Y42500D02*
X-276500Y83500D01*
X-286500D02*
Y89000D01*
X-327500Y42500D02*
X-286500Y83500D01*
X-291500Y134000D02*
X-286000Y139500D01*
X-96500Y162000D02*
X-95500D01*
X-41500Y226000D02*
X-34722D01*
X-31500Y222778D01*
Y179222D02*
Y222778D01*
X-47000Y220500D02*
X-46000Y221500D01*
X-41500Y226000D01*
X-47000Y222500D02*
X-46000Y221500D01*
X-145000Y219500D02*
X-106500Y181000D01*
Y162000D02*
Y181000D01*
X-96500Y162000D02*
Y183500D01*
X-140000Y227000D02*
X-96500Y183500D01*
X-47000Y222500D02*
Y234000D01*
X-266000Y163500D02*
Y238500D01*
Y163500D02*
X-241500Y139000D01*
X-261000Y168500D02*
Y225000D01*
Y168500D02*
X-241500Y149000D01*
X-206500D02*
Y211778D01*
Y139000D02*
X-200500Y145000D01*
X-327500Y253000D02*
Y255000D01*
X-291500Y144000D02*
Y217000D01*
X-327500Y263000D02*
Y265000D01*
X-286000Y139500D02*
Y221500D01*
X-200500Y145000D02*
Y211000D01*
X-219722Y225000D02*
X-206500Y211778D01*
X-220000Y230500D02*
X-200500Y211000D01*
X-247000Y42500D02*
Y48500D01*
X-201500Y94000D01*
X-237000Y42500D02*
Y48500D01*
X-191500Y94000D01*
X-207000Y42500D02*
Y63864D01*
X-217000Y42500D02*
Y56692D01*
X-182521Y94000D02*
X-181500D01*
X-227000Y49521D02*
X-182521Y94000D01*
X-227000Y42500D02*
Y49521D01*
X-241500Y169000D02*
X-236000Y163500D01*
Y77500D02*
Y163500D01*
X-207000Y63864D02*
X-184364Y86500D01*
X-169000D01*
X-161500Y94000D01*
X-185192Y88500D02*
X-177000D01*
X-171500Y94000D01*
X-217000Y56692D02*
X-185192Y88500D01*
X-241500Y179000D02*
X-231500Y169000D01*
Y81000D02*
Y169000D01*
X-144000Y87000D02*
Y161000D01*
X-157500Y73500D02*
X-144000Y87000D01*
X-157500Y49500D02*
Y73500D01*
X-142278Y49500D02*
X-139000D01*
X-148000Y55222D02*
X-142278Y49500D01*
X-148000Y55222D02*
Y79778D01*
X-135000Y92778D01*
Y161000D01*
X-57000Y220500D02*
Y237500D01*
D14*
X-337500Y320500D02*
X-333808D01*
X-321000Y307692D01*
Y67500D02*
Y307692D01*
Y67500D02*
X-317500Y64000D01*
X-318500Y321000D02*
X-317000Y319500D01*
Y75000D02*
Y319500D01*
Y75000D02*
X-312000Y70000D01*
X-187000Y55000D02*
X-175000D01*
X-172500Y57500D01*
X-66500Y133500D02*
Y162000D01*
X-142500Y57500D02*
X-66500Y133500D01*
X-27000Y146356D02*
Y224500D01*
X-136986Y36370D02*
X-27000Y146356D01*
X-186148Y36370D02*
X-136986D01*
X-192500Y42722D02*
X-186148Y36370D01*
X-192500Y42722D02*
Y48000D01*
X-199500Y55000D02*
X-192500Y48000D01*
X-224500Y142000D02*
X-216500Y134000D01*
X-224500Y142000D02*
Y241500D01*
X-46000Y243500D02*
X-27000Y224500D01*
X-52500Y250000D02*
X-46000Y243500D01*
X-115500Y250000D02*
X-84500Y219000D01*
X-115500Y250000D02*
X-52500D01*
X-146000Y241500D02*
X-66500Y162000D01*
X-253500Y212500D02*
X-224500Y241500D01*
X-253500Y170000D02*
Y212500D01*
D15*
X-67000Y210500D02*
D03*
Y220500D02*
D03*
X-57000D02*
D03*
Y210500D02*
D03*
X-47000D02*
D03*
Y220500D02*
D03*
X-37000Y210500D02*
D03*
Y220500D02*
D03*
X-106500Y162000D02*
D03*
X-96500D02*
D03*
X-86500D02*
D03*
X-76500D02*
D03*
X-56500D02*
D03*
X-66500D02*
D03*
X-212500Y279500D02*
D03*
X-192500D02*
D03*
X-202500D02*
D03*
X-142500D02*
D03*
X-132500D02*
D03*
X-172500D02*
D03*
X-182500D02*
D03*
X-152500D02*
D03*
X-162500D02*
D03*
X-301500Y109000D02*
D03*
Y99000D02*
D03*
Y119000D02*
D03*
X-296500Y89000D02*
D03*
X-301500Y129000D02*
D03*
X-291500Y134000D02*
D03*
X-301500Y139000D02*
D03*
Y159000D02*
D03*
Y149000D02*
D03*
Y179000D02*
D03*
Y169000D02*
D03*
Y189000D02*
D03*
X-291500Y144000D02*
D03*
X-301500Y199000D02*
D03*
Y209000D02*
D03*
X-286500Y89000D02*
D03*
X-276500D02*
D03*
X-266500D02*
D03*
X-256500D02*
D03*
X-246500D02*
D03*
X-241500Y99000D02*
D03*
Y109000D02*
D03*
Y179000D02*
D03*
Y169000D02*
D03*
Y209000D02*
D03*
Y189000D02*
D03*
Y199000D02*
D03*
Y129000D02*
D03*
Y119000D02*
D03*
Y159000D02*
D03*
Y139000D02*
D03*
Y149000D02*
D03*
X-216500Y114000D02*
D03*
Y104000D02*
D03*
Y124000D02*
D03*
X-211500Y94000D02*
D03*
X-216500Y134000D02*
D03*
X-206500Y139000D02*
D03*
X-216500Y144000D02*
D03*
Y164000D02*
D03*
Y154000D02*
D03*
Y184000D02*
D03*
Y174000D02*
D03*
Y194000D02*
D03*
X-206500Y149000D02*
D03*
X-216500Y204000D02*
D03*
Y214000D02*
D03*
X-201500Y94000D02*
D03*
X-191500D02*
D03*
X-181500D02*
D03*
X-171500D02*
D03*
X-161500D02*
D03*
X-156500Y104000D02*
D03*
Y114000D02*
D03*
Y184000D02*
D03*
Y174000D02*
D03*
Y214000D02*
D03*
Y194000D02*
D03*
Y204000D02*
D03*
Y134000D02*
D03*
Y124000D02*
D03*
Y164000D02*
D03*
Y144000D02*
D03*
Y154000D02*
D03*
X-142500Y77500D02*
D03*
Y57500D02*
D03*
X-172500Y77500D02*
D03*
Y57500D02*
D03*
X-357500Y125000D02*
D03*
Y105000D02*
D03*
Y115000D02*
D03*
Y155000D02*
D03*
Y165000D02*
D03*
Y135000D02*
D03*
Y145000D02*
D03*
Y65000D02*
D03*
Y55000D02*
D03*
Y95000D02*
D03*
Y75000D02*
D03*
Y85000D02*
D03*
Y195000D02*
D03*
Y175000D02*
D03*
Y185000D02*
D03*
Y225000D02*
D03*
Y235000D02*
D03*
Y205000D02*
D03*
Y215000D02*
D03*
Y265000D02*
D03*
Y275000D02*
D03*
Y245000D02*
D03*
Y255000D02*
D03*
Y285000D02*
D03*
Y295000D02*
D03*
Y305000D02*
D03*
X-347500Y85000D02*
D03*
Y95000D02*
D03*
Y65000D02*
D03*
Y75000D02*
D03*
Y125000D02*
D03*
Y135000D02*
D03*
Y105000D02*
D03*
Y115000D02*
D03*
Y165000D02*
D03*
Y175000D02*
D03*
Y145000D02*
D03*
Y155000D02*
D03*
Y215000D02*
D03*
Y185000D02*
D03*
Y195000D02*
D03*
Y235000D02*
D03*
Y225000D02*
D03*
Y255000D02*
D03*
Y265000D02*
D03*
Y205000D02*
D03*
Y245000D02*
D03*
Y295000D02*
D03*
Y305000D02*
D03*
Y275000D02*
D03*
Y285000D02*
D03*
X-337500Y125000D02*
D03*
Y105000D02*
D03*
Y115000D02*
D03*
Y155000D02*
D03*
Y165000D02*
D03*
Y135000D02*
D03*
Y145000D02*
D03*
Y65000D02*
D03*
Y55000D02*
D03*
Y95000D02*
D03*
Y75000D02*
D03*
Y85000D02*
D03*
Y195000D02*
D03*
Y175000D02*
D03*
Y185000D02*
D03*
Y225000D02*
D03*
Y235000D02*
D03*
Y205000D02*
D03*
Y215000D02*
D03*
Y265000D02*
D03*
Y275000D02*
D03*
Y245000D02*
D03*
Y255000D02*
D03*
Y285000D02*
D03*
Y295000D02*
D03*
Y305000D02*
D03*
X-327500Y85000D02*
D03*
Y95000D02*
D03*
Y65000D02*
D03*
Y75000D02*
D03*
Y125000D02*
D03*
Y135000D02*
D03*
Y105000D02*
D03*
Y115000D02*
D03*
Y165000D02*
D03*
Y175000D02*
D03*
Y145000D02*
D03*
Y155000D02*
D03*
Y215000D02*
D03*
Y185000D02*
D03*
Y195000D02*
D03*
Y235000D02*
D03*
Y225000D02*
D03*
Y255000D02*
D03*
Y265000D02*
D03*
Y205000D02*
D03*
Y245000D02*
D03*
Y295000D02*
D03*
Y305000D02*
D03*
Y275000D02*
D03*
Y285000D02*
D03*
D16*
X-236000Y311000D02*
D03*
Y291000D02*
D03*
Y331000D02*
D03*
Y301000D02*
D03*
Y321000D02*
D03*
D17*
X-257000Y42500D02*
D03*
X-247000D02*
D03*
X-237000D02*
D03*
X-217000D02*
D03*
X-227000D02*
D03*
X-337500D02*
D03*
X-327500D02*
D03*
X-317500D02*
D03*
X-297500D02*
D03*
X-307500D02*
D03*
D18*
X-207000D02*
D03*
X-287500D02*
D03*
D19*
X-337500Y320500D02*
D03*
X-318500Y321000D02*
D03*
D20*
X-337500Y330500D02*
D03*
X-318500Y331000D02*
D03*
D21*
X-187000Y65000D02*
D03*
Y55000D02*
D03*
Y45000D02*
D03*
X-199500Y65000D02*
D03*
Y55000D02*
D03*
Y45000D02*
D03*
D22*
X-139000Y41232D02*
D03*
Y49500D02*
D03*
X-157500Y41232D02*
D03*
Y49500D02*
D03*
X-176000Y41232D02*
D03*
Y49500D02*
D03*
D23*
X-347500Y55000D02*
D03*
X-327500D02*
D03*
D24*
X-20000Y20000D02*
D03*
Y335000D02*
D03*
X-357500Y325000D02*
D03*
Y35000D02*
D03*
D25*
Y44500D02*
D03*
Y25500D02*
D03*
X-365500Y40000D02*
D03*
Y30000D02*
D03*
X-349500Y40000D02*
D03*
Y30000D02*
D03*
X-12000Y15000D02*
D03*
Y25000D02*
D03*
X-28000Y15000D02*
D03*
Y25000D02*
D03*
X-20000Y10500D02*
D03*
Y29500D02*
D03*
X-349500Y320000D02*
D03*
Y330000D02*
D03*
X-365500Y320000D02*
D03*
Y330000D02*
D03*
X-357500Y315500D02*
D03*
Y334500D02*
D03*
X-12000Y330000D02*
D03*
Y340000D02*
D03*
X-28000Y330000D02*
D03*
Y340000D02*
D03*
X-20000Y325500D02*
D03*
Y344500D02*
D03*
X-145000Y219500D02*
D03*
X-140000Y227000D02*
D03*
X-47000Y234000D02*
D03*
X-84500Y219000D02*
D03*
X-245500Y272000D02*
D03*
X-266000Y238500D02*
D03*
X-261000Y225000D02*
D03*
X-286000Y221500D02*
D03*
X-291500Y217000D02*
D03*
X-219722Y225000D02*
D03*
X-220000Y230500D02*
D03*
X-312000Y70000D02*
D03*
X-317500Y64000D02*
D03*
X-236000Y77500D02*
D03*
X-231500Y81000D02*
D03*
X-147500Y88500D02*
D03*
X-96500Y183500D02*
D03*
X-31500Y179000D02*
D03*
X-144000Y161000D02*
D03*
X-135000D02*
D03*
X-57000Y237500D02*
D03*
X-115500Y250000D02*
D03*
X-146500Y241500D02*
D03*
X-224500D02*
D03*
X-253500Y170000D02*
D03*
D26*
X-357500Y195000D02*
X-347500D01*
M02*
