ISO-10303-21;
HEADER;
/* Generated by software containing ST-Developer
 * from STEP Tools, Inc. (www.steptools.com) 
 */

FILE_DESCRIPTION(
/* description */ (''),
/* implementation_level */ '2;1');

FILE_NAME(
/* name */ 'C:/Users/mnyeo/Desktop/Mechv2a/SidePlateL.step',
/* time_stamp */ '2018-05-15T22:36:20+10:00',
/* author */ (''),
/* organization */ (''),
/* preprocessor_version */ 'ST-DEVELOPER v17',
/* originating_system */ 'Autodesk Translation Framework v7.1.0.215',
/* authorisation */ '');

FILE_SCHEMA (('AUTOMOTIVE_DESIGN { 1 0 10303 214 3 1 1 }'));
ENDSEC;

DATA;
#10=MECHANICAL_DESIGN_GEOMETRIC_PRESENTATION_REPRESENTATION('',(#13),#981);
#11=SHAPE_REPRESENTATION_RELATIONSHIP('SRR','None',#988,#12);
#12=ADVANCED_BREP_SHAPE_REPRESENTATION('',(#14),#980);
#13=STYLED_ITEM('',(#998),#14);
#14=MANIFOLD_SOLID_BREP('Body1',#613);
#15=CYLINDRICAL_SURFACE('',#637,1.);
#16=FACE_BOUND('',#58,.T.);
#17=FACE_BOUND('',#81,.T.);
#18=CIRCLE('',#635,1.);
#19=CIRCLE('',#638,1.);
#20=FACE_OUTER_BOUND('',#50,.T.);
#21=FACE_OUTER_BOUND('',#51,.T.);
#22=FACE_OUTER_BOUND('',#52,.T.);
#23=FACE_OUTER_BOUND('',#53,.T.);
#24=FACE_OUTER_BOUND('',#54,.T.);
#25=FACE_OUTER_BOUND('',#55,.T.);
#26=FACE_OUTER_BOUND('',#56,.T.);
#27=FACE_OUTER_BOUND('',#57,.T.);
#28=FACE_OUTER_BOUND('',#59,.T.);
#29=FACE_OUTER_BOUND('',#60,.T.);
#30=FACE_OUTER_BOUND('',#61,.T.);
#31=FACE_OUTER_BOUND('',#62,.T.);
#32=FACE_OUTER_BOUND('',#63,.T.);
#33=FACE_OUTER_BOUND('',#64,.T.);
#34=FACE_OUTER_BOUND('',#65,.T.);
#35=FACE_OUTER_BOUND('',#66,.T.);
#36=FACE_OUTER_BOUND('',#67,.T.);
#37=FACE_OUTER_BOUND('',#68,.T.);
#38=FACE_OUTER_BOUND('',#69,.T.);
#39=FACE_OUTER_BOUND('',#70,.T.);
#40=FACE_OUTER_BOUND('',#71,.T.);
#41=FACE_OUTER_BOUND('',#72,.T.);
#42=FACE_OUTER_BOUND('',#73,.T.);
#43=FACE_OUTER_BOUND('',#74,.T.);
#44=FACE_OUTER_BOUND('',#75,.T.);
#45=FACE_OUTER_BOUND('',#76,.T.);
#46=FACE_OUTER_BOUND('',#77,.T.);
#47=FACE_OUTER_BOUND('',#78,.T.);
#48=FACE_OUTER_BOUND('',#79,.T.);
#49=FACE_OUTER_BOUND('',#80,.T.);
#50=EDGE_LOOP('',(#386,#387,#388,#389));
#51=EDGE_LOOP('',(#390,#391,#392,#393));
#52=EDGE_LOOP('',(#394,#395,#396,#397));
#53=EDGE_LOOP('',(#398,#399,#400,#401));
#54=EDGE_LOOP('',(#402,#403,#404,#405));
#55=EDGE_LOOP('',(#406,#407,#408,#409));
#56=EDGE_LOOP('',(#410,#411,#412,#413));
#57=EDGE_LOOP('',(#414,#415,#416,#417,#418,#419,#420,#421,#422,#423,#424,
#425,#426,#427,#428,#429,#430,#431,#432,#433,#434,#435,#436,#437,#438,#439,
#440));
#58=EDGE_LOOP('',(#441));
#59=EDGE_LOOP('',(#442,#443,#444,#445));
#60=EDGE_LOOP('',(#446,#447,#448,#449));
#61=EDGE_LOOP('',(#450,#451,#452,#453));
#62=EDGE_LOOP('',(#454,#455,#456,#457));
#63=EDGE_LOOP('',(#458,#459,#460,#461));
#64=EDGE_LOOP('',(#462,#463,#464,#465));
#65=EDGE_LOOP('',(#466,#467,#468,#469));
#66=EDGE_LOOP('',(#470,#471,#472,#473));
#67=EDGE_LOOP('',(#474,#475,#476,#477));
#68=EDGE_LOOP('',(#478,#479,#480,#481));
#69=EDGE_LOOP('',(#482,#483,#484,#485));
#70=EDGE_LOOP('',(#486,#487,#488,#489));
#71=EDGE_LOOP('',(#490,#491,#492,#493));
#72=EDGE_LOOP('',(#494,#495,#496,#497));
#73=EDGE_LOOP('',(#498,#499,#500,#501));
#74=EDGE_LOOP('',(#502,#503,#504,#505));
#75=EDGE_LOOP('',(#506,#507,#508,#509));
#76=EDGE_LOOP('',(#510,#511,#512,#513));
#77=EDGE_LOOP('',(#514,#515,#516,#517));
#78=EDGE_LOOP('',(#518,#519,#520,#521));
#79=EDGE_LOOP('',(#522,#523,#524,#525));
#80=EDGE_LOOP('',(#526,#527,#528,#529,#530,#531,#532,#533,#534,#535,#536,
#537,#538,#539,#540,#541,#542,#543,#544,#545,#546,#547,#548,#549,#550,#551,
#552));
#81=EDGE_LOOP('',(#553));
#82=LINE('',#811,#164);
#83=LINE('',#813,#165);
#84=LINE('',#815,#166);
#85=LINE('',#816,#167);
#86=LINE('',#820,#168);
#87=LINE('',#822,#169);
#88=LINE('',#824,#170);
#89=LINE('',#825,#171);
#90=LINE('',#828,#172);
#91=LINE('',#830,#173);
#92=LINE('',#831,#174);
#93=LINE('',#834,#175);
#94=LINE('',#836,#176);
#95=LINE('',#837,#177);
#96=LINE('',#840,#178);
#97=LINE('',#842,#179);
#98=LINE('',#843,#180);
#99=LINE('',#846,#181);
#100=LINE('',#848,#182);
#101=LINE('',#849,#183);
#102=LINE('',#851,#184);
#103=LINE('',#852,#185);
#104=LINE('',#855,#186);
#105=LINE('',#857,#187);
#106=LINE('',#859,#188);
#107=LINE('',#861,#189);
#108=LINE('',#863,#190);
#109=LINE('',#865,#191);
#110=LINE('',#867,#192);
#111=LINE('',#869,#193);
#112=LINE('',#871,#194);
#113=LINE('',#873,#195);
#114=LINE('',#875,#196);
#115=LINE('',#877,#197);
#116=LINE('',#879,#198);
#117=LINE('',#881,#199);
#118=LINE('',#883,#200);
#119=LINE('',#885,#201);
#120=LINE('',#887,#202);
#121=LINE('',#889,#203);
#122=LINE('',#891,#204);
#123=LINE('',#892,#205);
#124=LINE('',#897,#206);
#125=LINE('',#898,#207);
#126=LINE('',#902,#208);
#127=LINE('',#905,#209);
#128=LINE('',#907,#210);
#129=LINE('',#908,#211);
#130=LINE('',#911,#212);
#131=LINE('',#912,#213);
#132=LINE('',#915,#214);
#133=LINE('',#916,#215);
#134=LINE('',#919,#216);
#135=LINE('',#920,#217);
#136=LINE('',#923,#218);
#137=LINE('',#924,#219);
#138=LINE('',#927,#220);
#139=LINE('',#928,#221);
#140=LINE('',#931,#222);
#141=LINE('',#932,#223);
#142=LINE('',#935,#224);
#143=LINE('',#936,#225);
#144=LINE('',#939,#226);
#145=LINE('',#940,#227);
#146=LINE('',#943,#228);
#147=LINE('',#944,#229);
#148=LINE('',#947,#230);
#149=LINE('',#948,#231);
#150=LINE('',#951,#232);
#151=LINE('',#952,#233);
#152=LINE('',#955,#234);
#153=LINE('',#956,#235);
#154=LINE('',#958,#236);
#155=LINE('',#961,#237);
#156=LINE('',#962,#238);
#157=LINE('',#965,#239);
#158=LINE('',#966,#240);
#159=LINE('',#969,#241);
#160=LINE('',#970,#242);
#161=LINE('',#973,#243);
#162=LINE('',#974,#244);
#163=LINE('',#976,#245);
#164=VECTOR('',#663,10.);
#165=VECTOR('',#664,10.);
#166=VECTOR('',#665,10.);
#167=VECTOR('',#666,10.);
#168=VECTOR('',#669,10.);
#169=VECTOR('',#670,10.);
#170=VECTOR('',#671,10.);
#171=VECTOR('',#672,10.);
#172=VECTOR('',#675,10.);
#173=VECTOR('',#676,10.);
#174=VECTOR('',#677,10.);
#175=VECTOR('',#680,10.);
#176=VECTOR('',#681,10.);
#177=VECTOR('',#682,10.);
#178=VECTOR('',#685,10.);
#179=VECTOR('',#686,10.);
#180=VECTOR('',#687,10.);
#181=VECTOR('',#690,10.);
#182=VECTOR('',#691,10.);
#183=VECTOR('',#692,10.);
#184=VECTOR('',#695,10.);
#185=VECTOR('',#696,10.);
#186=VECTOR('',#699,10.);
#187=VECTOR('',#700,10.);
#188=VECTOR('',#701,10.);
#189=VECTOR('',#702,10.);
#190=VECTOR('',#703,10.);
#191=VECTOR('',#704,10.);
#192=VECTOR('',#705,10.);
#193=VECTOR('',#706,10.);
#194=VECTOR('',#707,10.);
#195=VECTOR('',#708,10.);
#196=VECTOR('',#709,10.);
#197=VECTOR('',#710,10.);
#198=VECTOR('',#711,10.);
#199=VECTOR('',#712,10.);
#200=VECTOR('',#713,10.);
#201=VECTOR('',#714,10.);
#202=VECTOR('',#715,10.);
#203=VECTOR('',#716,10.);
#204=VECTOR('',#717,10.);
#205=VECTOR('',#718,10.);
#206=VECTOR('',#723,10.);
#207=VECTOR('',#724,10.);
#208=VECTOR('',#729,1.);
#209=VECTOR('',#732,10.);
#210=VECTOR('',#733,10.);
#211=VECTOR('',#734,10.);
#212=VECTOR('',#737,10.);
#213=VECTOR('',#738,10.);
#214=VECTOR('',#741,10.);
#215=VECTOR('',#742,10.);
#216=VECTOR('',#745,10.);
#217=VECTOR('',#746,10.);
#218=VECTOR('',#749,10.);
#219=VECTOR('',#750,10.);
#220=VECTOR('',#753,10.);
#221=VECTOR('',#754,10.);
#222=VECTOR('',#757,10.);
#223=VECTOR('',#758,10.);
#224=VECTOR('',#761,10.);
#225=VECTOR('',#762,10.);
#226=VECTOR('',#765,10.);
#227=VECTOR('',#766,10.);
#228=VECTOR('',#769,10.);
#229=VECTOR('',#770,10.);
#230=VECTOR('',#773,10.);
#231=VECTOR('',#774,10.);
#232=VECTOR('',#777,10.);
#233=VECTOR('',#778,10.);
#234=VECTOR('',#781,10.);
#235=VECTOR('',#782,10.);
#236=VECTOR('',#785,10.);
#237=VECTOR('',#788,10.);
#238=VECTOR('',#789,10.);
#239=VECTOR('',#792,10.);
#240=VECTOR('',#793,10.);
#241=VECTOR('',#796,10.);
#242=VECTOR('',#797,10.);
#243=VECTOR('',#800,10.);
#244=VECTOR('',#801,10.);
#245=VECTOR('',#804,10.);
#246=VERTEX_POINT('',#809);
#247=VERTEX_POINT('',#810);
#248=VERTEX_POINT('',#812);
#249=VERTEX_POINT('',#814);
#250=VERTEX_POINT('',#818);
#251=VERTEX_POINT('',#819);
#252=VERTEX_POINT('',#821);
#253=VERTEX_POINT('',#823);
#254=VERTEX_POINT('',#827);
#255=VERTEX_POINT('',#829);
#256=VERTEX_POINT('',#833);
#257=VERTEX_POINT('',#835);
#258=VERTEX_POINT('',#839);
#259=VERTEX_POINT('',#841);
#260=VERTEX_POINT('',#845);
#261=VERTEX_POINT('',#847);
#262=VERTEX_POINT('',#854);
#263=VERTEX_POINT('',#856);
#264=VERTEX_POINT('',#858);
#265=VERTEX_POINT('',#860);
#266=VERTEX_POINT('',#862);
#267=VERTEX_POINT('',#864);
#268=VERTEX_POINT('',#866);
#269=VERTEX_POINT('',#868);
#270=VERTEX_POINT('',#870);
#271=VERTEX_POINT('',#872);
#272=VERTEX_POINT('',#874);
#273=VERTEX_POINT('',#876);
#274=VERTEX_POINT('',#878);
#275=VERTEX_POINT('',#880);
#276=VERTEX_POINT('',#882);
#277=VERTEX_POINT('',#884);
#278=VERTEX_POINT('',#886);
#279=VERTEX_POINT('',#888);
#280=VERTEX_POINT('',#890);
#281=VERTEX_POINT('',#893);
#282=VERTEX_POINT('',#896);
#283=VERTEX_POINT('',#900);
#284=VERTEX_POINT('',#904);
#285=VERTEX_POINT('',#906);
#286=VERTEX_POINT('',#910);
#287=VERTEX_POINT('',#914);
#288=VERTEX_POINT('',#918);
#289=VERTEX_POINT('',#922);
#290=VERTEX_POINT('',#926);
#291=VERTEX_POINT('',#930);
#292=VERTEX_POINT('',#934);
#293=VERTEX_POINT('',#938);
#294=VERTEX_POINT('',#942);
#295=VERTEX_POINT('',#946);
#296=VERTEX_POINT('',#950);
#297=VERTEX_POINT('',#954);
#298=VERTEX_POINT('',#960);
#299=VERTEX_POINT('',#964);
#300=VERTEX_POINT('',#968);
#301=VERTEX_POINT('',#972);
#302=EDGE_CURVE('',#246,#247,#82,.T.);
#303=EDGE_CURVE('',#248,#246,#83,.T.);
#304=EDGE_CURVE('',#249,#248,#84,.T.);
#305=EDGE_CURVE('',#247,#249,#85,.T.);
#306=EDGE_CURVE('',#250,#251,#86,.T.);
#307=EDGE_CURVE('',#250,#252,#87,.T.);
#308=EDGE_CURVE('',#253,#252,#88,.T.);
#309=EDGE_CURVE('',#251,#253,#89,.T.);
#310=EDGE_CURVE('',#254,#250,#90,.T.);
#311=EDGE_CURVE('',#254,#255,#91,.T.);
#312=EDGE_CURVE('',#252,#255,#92,.T.);
#313=EDGE_CURVE('',#256,#254,#93,.T.);
#314=EDGE_CURVE('',#256,#257,#94,.T.);
#315=EDGE_CURVE('',#255,#257,#95,.T.);
#316=EDGE_CURVE('',#258,#256,#96,.T.);
#317=EDGE_CURVE('',#258,#259,#97,.T.);
#318=EDGE_CURVE('',#257,#259,#98,.T.);
#319=EDGE_CURVE('',#260,#258,#99,.T.);
#320=EDGE_CURVE('',#260,#261,#100,.T.);
#321=EDGE_CURVE('',#259,#261,#101,.T.);
#322=EDGE_CURVE('',#247,#260,#102,.T.);
#323=EDGE_CURVE('',#261,#249,#103,.T.);
#324=EDGE_CURVE('',#248,#262,#104,.T.);
#325=EDGE_CURVE('',#262,#263,#105,.T.);
#326=EDGE_CURVE('',#264,#263,#106,.T.);
#327=EDGE_CURVE('',#265,#264,#107,.T.);
#328=EDGE_CURVE('',#266,#265,#108,.T.);
#329=EDGE_CURVE('',#267,#266,#109,.T.);
#330=EDGE_CURVE('',#267,#268,#110,.T.);
#331=EDGE_CURVE('',#268,#269,#111,.T.);
#332=EDGE_CURVE('',#269,#270,#112,.T.);
#333=EDGE_CURVE('',#270,#271,#113,.T.);
#334=EDGE_CURVE('',#271,#272,#114,.T.);
#335=EDGE_CURVE('',#273,#272,#115,.T.);
#336=EDGE_CURVE('',#274,#273,#116,.T.);
#337=EDGE_CURVE('',#275,#274,#117,.T.);
#338=EDGE_CURVE('',#276,#275,#118,.T.);
#339=EDGE_CURVE('',#276,#277,#119,.T.);
#340=EDGE_CURVE('',#277,#278,#120,.T.);
#341=EDGE_CURVE('',#279,#278,#121,.T.);
#342=EDGE_CURVE('',#279,#280,#122,.T.);
#343=EDGE_CURVE('',#280,#253,#123,.T.);
#344=EDGE_CURVE('',#281,#281,#18,.T.);
#345=EDGE_CURVE('',#282,#246,#124,.T.);
#346=EDGE_CURVE('',#262,#282,#125,.T.);
#347=EDGE_CURVE('',#283,#283,#19,.T.);
#348=EDGE_CURVE('',#283,#281,#126,.T.);
#349=EDGE_CURVE('',#267,#284,#127,.T.);
#350=EDGE_CURVE('',#285,#284,#128,.T.);
#351=EDGE_CURVE('',#268,#285,#129,.T.);
#352=EDGE_CURVE('',#286,#285,#130,.T.);
#353=EDGE_CURVE('',#269,#286,#131,.T.);
#354=EDGE_CURVE('',#287,#286,#132,.T.);
#355=EDGE_CURVE('',#270,#287,#133,.T.);
#356=EDGE_CURVE('',#288,#287,#134,.T.);
#357=EDGE_CURVE('',#271,#288,#135,.T.);
#358=EDGE_CURVE('',#289,#288,#136,.T.);
#359=EDGE_CURVE('',#272,#289,#137,.T.);
#360=EDGE_CURVE('',#290,#289,#138,.T.);
#361=EDGE_CURVE('',#273,#290,#139,.T.);
#362=EDGE_CURVE('',#291,#290,#140,.T.);
#363=EDGE_CURVE('',#274,#291,#141,.T.);
#364=EDGE_CURVE('',#292,#291,#142,.T.);
#365=EDGE_CURVE('',#275,#292,#143,.T.);
#366=EDGE_CURVE('',#293,#292,#144,.T.);
#367=EDGE_CURVE('',#276,#293,#145,.T.);
#368=EDGE_CURVE('',#294,#293,#146,.T.);
#369=EDGE_CURVE('',#277,#294,#147,.T.);
#370=EDGE_CURVE('',#295,#294,#148,.T.);
#371=EDGE_CURVE('',#278,#295,#149,.T.);
#372=EDGE_CURVE('',#296,#295,#150,.T.);
#373=EDGE_CURVE('',#279,#296,#151,.T.);
#374=EDGE_CURVE('',#297,#296,#152,.T.);
#375=EDGE_CURVE('',#280,#297,#153,.T.);
#376=EDGE_CURVE('',#251,#297,#154,.T.);
#377=EDGE_CURVE('',#298,#282,#155,.T.);
#378=EDGE_CURVE('',#263,#298,#156,.T.);
#379=EDGE_CURVE('',#299,#298,#157,.T.);
#380=EDGE_CURVE('',#264,#299,#158,.T.);
#381=EDGE_CURVE('',#300,#299,#159,.T.);
#382=EDGE_CURVE('',#265,#300,#160,.T.);
#383=EDGE_CURVE('',#301,#300,#161,.T.);
#384=EDGE_CURVE('',#266,#301,#162,.T.);
#385=EDGE_CURVE('',#284,#301,#163,.T.);
#386=ORIENTED_EDGE('',*,*,#302,.F.);
#387=ORIENTED_EDGE('',*,*,#303,.F.);
#388=ORIENTED_EDGE('',*,*,#304,.F.);
#389=ORIENTED_EDGE('',*,*,#305,.F.);
#390=ORIENTED_EDGE('',*,*,#306,.F.);
#391=ORIENTED_EDGE('',*,*,#307,.T.);
#392=ORIENTED_EDGE('',*,*,#308,.F.);
#393=ORIENTED_EDGE('',*,*,#309,.F.);
#394=ORIENTED_EDGE('',*,*,#310,.F.);
#395=ORIENTED_EDGE('',*,*,#311,.T.);
#396=ORIENTED_EDGE('',*,*,#312,.F.);
#397=ORIENTED_EDGE('',*,*,#307,.F.);
#398=ORIENTED_EDGE('',*,*,#313,.F.);
#399=ORIENTED_EDGE('',*,*,#314,.T.);
#400=ORIENTED_EDGE('',*,*,#315,.F.);
#401=ORIENTED_EDGE('',*,*,#311,.F.);
#402=ORIENTED_EDGE('',*,*,#316,.F.);
#403=ORIENTED_EDGE('',*,*,#317,.T.);
#404=ORIENTED_EDGE('',*,*,#318,.F.);
#405=ORIENTED_EDGE('',*,*,#314,.F.);
#406=ORIENTED_EDGE('',*,*,#319,.F.);
#407=ORIENTED_EDGE('',*,*,#320,.T.);
#408=ORIENTED_EDGE('',*,*,#321,.F.);
#409=ORIENTED_EDGE('',*,*,#317,.F.);
#410=ORIENTED_EDGE('',*,*,#322,.F.);
#411=ORIENTED_EDGE('',*,*,#305,.T.);
#412=ORIENTED_EDGE('',*,*,#323,.F.);
#413=ORIENTED_EDGE('',*,*,#320,.F.);
#414=ORIENTED_EDGE('',*,*,#308,.T.);
#415=ORIENTED_EDGE('',*,*,#312,.T.);
#416=ORIENTED_EDGE('',*,*,#315,.T.);
#417=ORIENTED_EDGE('',*,*,#318,.T.);
#418=ORIENTED_EDGE('',*,*,#321,.T.);
#419=ORIENTED_EDGE('',*,*,#323,.T.);
#420=ORIENTED_EDGE('',*,*,#304,.T.);
#421=ORIENTED_EDGE('',*,*,#324,.T.);
#422=ORIENTED_EDGE('',*,*,#325,.T.);
#423=ORIENTED_EDGE('',*,*,#326,.F.);
#424=ORIENTED_EDGE('',*,*,#327,.F.);
#425=ORIENTED_EDGE('',*,*,#328,.F.);
#426=ORIENTED_EDGE('',*,*,#329,.F.);
#427=ORIENTED_EDGE('',*,*,#330,.T.);
#428=ORIENTED_EDGE('',*,*,#331,.T.);
#429=ORIENTED_EDGE('',*,*,#332,.T.);
#430=ORIENTED_EDGE('',*,*,#333,.T.);
#431=ORIENTED_EDGE('',*,*,#334,.T.);
#432=ORIENTED_EDGE('',*,*,#335,.F.);
#433=ORIENTED_EDGE('',*,*,#336,.F.);
#434=ORIENTED_EDGE('',*,*,#337,.F.);
#435=ORIENTED_EDGE('',*,*,#338,.F.);
#436=ORIENTED_EDGE('',*,*,#339,.T.);
#437=ORIENTED_EDGE('',*,*,#340,.T.);
#438=ORIENTED_EDGE('',*,*,#341,.F.);
#439=ORIENTED_EDGE('',*,*,#342,.T.);
#440=ORIENTED_EDGE('',*,*,#343,.T.);
#441=ORIENTED_EDGE('',*,*,#344,.F.);
#442=ORIENTED_EDGE('',*,*,#303,.T.);
#443=ORIENTED_EDGE('',*,*,#345,.F.);
#444=ORIENTED_EDGE('',*,*,#346,.F.);
#445=ORIENTED_EDGE('',*,*,#324,.F.);
#446=ORIENTED_EDGE('',*,*,#347,.F.);
#447=ORIENTED_EDGE('',*,*,#348,.T.);
#448=ORIENTED_EDGE('',*,*,#344,.T.);
#449=ORIENTED_EDGE('',*,*,#348,.F.);
#450=ORIENTED_EDGE('',*,*,#330,.F.);
#451=ORIENTED_EDGE('',*,*,#349,.T.);
#452=ORIENTED_EDGE('',*,*,#350,.F.);
#453=ORIENTED_EDGE('',*,*,#351,.F.);
#454=ORIENTED_EDGE('',*,*,#331,.F.);
#455=ORIENTED_EDGE('',*,*,#351,.T.);
#456=ORIENTED_EDGE('',*,*,#352,.F.);
#457=ORIENTED_EDGE('',*,*,#353,.F.);
#458=ORIENTED_EDGE('',*,*,#332,.F.);
#459=ORIENTED_EDGE('',*,*,#353,.T.);
#460=ORIENTED_EDGE('',*,*,#354,.F.);
#461=ORIENTED_EDGE('',*,*,#355,.F.);
#462=ORIENTED_EDGE('',*,*,#333,.F.);
#463=ORIENTED_EDGE('',*,*,#355,.T.);
#464=ORIENTED_EDGE('',*,*,#356,.F.);
#465=ORIENTED_EDGE('',*,*,#357,.F.);
#466=ORIENTED_EDGE('',*,*,#334,.F.);
#467=ORIENTED_EDGE('',*,*,#357,.T.);
#468=ORIENTED_EDGE('',*,*,#358,.F.);
#469=ORIENTED_EDGE('',*,*,#359,.F.);
#470=ORIENTED_EDGE('',*,*,#335,.T.);
#471=ORIENTED_EDGE('',*,*,#359,.T.);
#472=ORIENTED_EDGE('',*,*,#360,.F.);
#473=ORIENTED_EDGE('',*,*,#361,.F.);
#474=ORIENTED_EDGE('',*,*,#336,.T.);
#475=ORIENTED_EDGE('',*,*,#361,.T.);
#476=ORIENTED_EDGE('',*,*,#362,.F.);
#477=ORIENTED_EDGE('',*,*,#363,.F.);
#478=ORIENTED_EDGE('',*,*,#337,.T.);
#479=ORIENTED_EDGE('',*,*,#363,.T.);
#480=ORIENTED_EDGE('',*,*,#364,.F.);
#481=ORIENTED_EDGE('',*,*,#365,.F.);
#482=ORIENTED_EDGE('',*,*,#338,.T.);
#483=ORIENTED_EDGE('',*,*,#365,.T.);
#484=ORIENTED_EDGE('',*,*,#366,.F.);
#485=ORIENTED_EDGE('',*,*,#367,.F.);
#486=ORIENTED_EDGE('',*,*,#339,.F.);
#487=ORIENTED_EDGE('',*,*,#367,.T.);
#488=ORIENTED_EDGE('',*,*,#368,.F.);
#489=ORIENTED_EDGE('',*,*,#369,.F.);
#490=ORIENTED_EDGE('',*,*,#340,.F.);
#491=ORIENTED_EDGE('',*,*,#369,.T.);
#492=ORIENTED_EDGE('',*,*,#370,.F.);
#493=ORIENTED_EDGE('',*,*,#371,.F.);
#494=ORIENTED_EDGE('',*,*,#341,.T.);
#495=ORIENTED_EDGE('',*,*,#371,.T.);
#496=ORIENTED_EDGE('',*,*,#372,.F.);
#497=ORIENTED_EDGE('',*,*,#373,.F.);
#498=ORIENTED_EDGE('',*,*,#342,.F.);
#499=ORIENTED_EDGE('',*,*,#373,.T.);
#500=ORIENTED_EDGE('',*,*,#374,.F.);
#501=ORIENTED_EDGE('',*,*,#375,.F.);
#502=ORIENTED_EDGE('',*,*,#309,.T.);
#503=ORIENTED_EDGE('',*,*,#343,.F.);
#504=ORIENTED_EDGE('',*,*,#375,.T.);
#505=ORIENTED_EDGE('',*,*,#376,.F.);
#506=ORIENTED_EDGE('',*,*,#325,.F.);
#507=ORIENTED_EDGE('',*,*,#346,.T.);
#508=ORIENTED_EDGE('',*,*,#377,.F.);
#509=ORIENTED_EDGE('',*,*,#378,.F.);
#510=ORIENTED_EDGE('',*,*,#326,.T.);
#511=ORIENTED_EDGE('',*,*,#378,.T.);
#512=ORIENTED_EDGE('',*,*,#379,.F.);
#513=ORIENTED_EDGE('',*,*,#380,.F.);
#514=ORIENTED_EDGE('',*,*,#327,.T.);
#515=ORIENTED_EDGE('',*,*,#380,.T.);
#516=ORIENTED_EDGE('',*,*,#381,.F.);
#517=ORIENTED_EDGE('',*,*,#382,.F.);
#518=ORIENTED_EDGE('',*,*,#328,.T.);
#519=ORIENTED_EDGE('',*,*,#382,.T.);
#520=ORIENTED_EDGE('',*,*,#383,.F.);
#521=ORIENTED_EDGE('',*,*,#384,.F.);
#522=ORIENTED_EDGE('',*,*,#329,.T.);
#523=ORIENTED_EDGE('',*,*,#384,.T.);
#524=ORIENTED_EDGE('',*,*,#385,.F.);
#525=ORIENTED_EDGE('',*,*,#349,.F.);
#526=ORIENTED_EDGE('',*,*,#306,.T.);
#527=ORIENTED_EDGE('',*,*,#376,.T.);
#528=ORIENTED_EDGE('',*,*,#374,.T.);
#529=ORIENTED_EDGE('',*,*,#372,.T.);
#530=ORIENTED_EDGE('',*,*,#370,.T.);
#531=ORIENTED_EDGE('',*,*,#368,.T.);
#532=ORIENTED_EDGE('',*,*,#366,.T.);
#533=ORIENTED_EDGE('',*,*,#364,.T.);
#534=ORIENTED_EDGE('',*,*,#362,.T.);
#535=ORIENTED_EDGE('',*,*,#360,.T.);
#536=ORIENTED_EDGE('',*,*,#358,.T.);
#537=ORIENTED_EDGE('',*,*,#356,.T.);
#538=ORIENTED_EDGE('',*,*,#354,.T.);
#539=ORIENTED_EDGE('',*,*,#352,.T.);
#540=ORIENTED_EDGE('',*,*,#350,.T.);
#541=ORIENTED_EDGE('',*,*,#385,.T.);
#542=ORIENTED_EDGE('',*,*,#383,.T.);
#543=ORIENTED_EDGE('',*,*,#381,.T.);
#544=ORIENTED_EDGE('',*,*,#379,.T.);
#545=ORIENTED_EDGE('',*,*,#377,.T.);
#546=ORIENTED_EDGE('',*,*,#345,.T.);
#547=ORIENTED_EDGE('',*,*,#302,.T.);
#548=ORIENTED_EDGE('',*,*,#322,.T.);
#549=ORIENTED_EDGE('',*,*,#319,.T.);
#550=ORIENTED_EDGE('',*,*,#316,.T.);
#551=ORIENTED_EDGE('',*,*,#313,.T.);
#552=ORIENTED_EDGE('',*,*,#310,.T.);
#553=ORIENTED_EDGE('',*,*,#347,.T.);
#554=PLANE('',#627);
#555=PLANE('',#628);
#556=PLANE('',#629);
#557=PLANE('',#630);
#558=PLANE('',#631);
#559=PLANE('',#632);
#560=PLANE('',#633);
#561=PLANE('',#634);
#562=PLANE('',#636);
#563=PLANE('',#639);
#564=PLANE('',#640);
#565=PLANE('',#641);
#566=PLANE('',#642);
#567=PLANE('',#643);
#568=PLANE('',#644);
#569=PLANE('',#645);
#570=PLANE('',#646);
#571=PLANE('',#647);
#572=PLANE('',#648);
#573=PLANE('',#649);
#574=PLANE('',#650);
#575=PLANE('',#651);
#576=PLANE('',#652);
#577=PLANE('',#653);
#578=PLANE('',#654);
#579=PLANE('',#655);
#580=PLANE('',#656);
#581=PLANE('',#657);
#582=PLANE('',#658);
#583=ADVANCED_FACE('',(#20),#554,.F.);
#584=ADVANCED_FACE('',(#21),#555,.F.);
#585=ADVANCED_FACE('',(#22),#556,.F.);
#586=ADVANCED_FACE('',(#23),#557,.F.);
#587=ADVANCED_FACE('',(#24),#558,.F.);
#588=ADVANCED_FACE('',(#25),#559,.F.);
#589=ADVANCED_FACE('',(#26),#560,.F.);
#590=ADVANCED_FACE('',(#27,#16),#561,.F.);
#591=ADVANCED_FACE('',(#28),#562,.T.);
#592=ADVANCED_FACE('',(#29),#15,.F.);
#593=ADVANCED_FACE('',(#30),#563,.T.);
#594=ADVANCED_FACE('',(#31),#564,.T.);
#595=ADVANCED_FACE('',(#32),#565,.T.);
#596=ADVANCED_FACE('',(#33),#566,.T.);
#597=ADVANCED_FACE('',(#34),#567,.T.);
#598=ADVANCED_FACE('',(#35),#568,.T.);
#599=ADVANCED_FACE('',(#36),#569,.T.);
#600=ADVANCED_FACE('',(#37),#570,.T.);
#601=ADVANCED_FACE('',(#38),#571,.T.);
#602=ADVANCED_FACE('',(#39),#572,.T.);
#603=ADVANCED_FACE('',(#40),#573,.T.);
#604=ADVANCED_FACE('',(#41),#574,.T.);
#605=ADVANCED_FACE('',(#42),#575,.T.);
#606=ADVANCED_FACE('',(#43),#576,.T.);
#607=ADVANCED_FACE('',(#44),#577,.T.);
#608=ADVANCED_FACE('',(#45),#578,.T.);
#609=ADVANCED_FACE('',(#46),#579,.T.);
#610=ADVANCED_FACE('',(#47),#580,.T.);
#611=ADVANCED_FACE('',(#48),#581,.T.);
#612=ADVANCED_FACE('',(#49,#17),#582,.T.);
#613=CLOSED_SHELL('',(#583,#584,#585,#586,#587,#588,#589,#590,#591,#592,
#593,#594,#595,#596,#597,#598,#599,#600,#601,#602,#603,#604,#605,#606,#607,
#608,#609,#610,#611,#612));
#614=DERIVED_UNIT_ELEMENT(#616,1.);
#615=DERIVED_UNIT_ELEMENT(#983,3.);
#616=(
MASS_UNIT()
NAMED_UNIT(*)
SI_UNIT(.KILO.,.GRAM.)
);
#617=DERIVED_UNIT((#614,#615));
#618=MEASURE_REPRESENTATION_ITEM('density measure',
POSITIVE_RATIO_MEASURE(7850.),#617);
#619=PROPERTY_DEFINITION_REPRESENTATION(#624,#621);
#620=PROPERTY_DEFINITION_REPRESENTATION(#625,#622);
#621=REPRESENTATION('material name',(#623),#980);
#622=REPRESENTATION('density',(#618),#980);
#623=DESCRIPTIVE_REPRESENTATION_ITEM('Steel','Steel');
#624=PROPERTY_DEFINITION('material property','material name',#990);
#625=PROPERTY_DEFINITION('material property','density of part',#990);
#626=AXIS2_PLACEMENT_3D('placement',#807,#659,#660);
#627=AXIS2_PLACEMENT_3D('',#808,#661,#662);
#628=AXIS2_PLACEMENT_3D('',#817,#667,#668);
#629=AXIS2_PLACEMENT_3D('',#826,#673,#674);
#630=AXIS2_PLACEMENT_3D('',#832,#678,#679);
#631=AXIS2_PLACEMENT_3D('',#838,#683,#684);
#632=AXIS2_PLACEMENT_3D('',#844,#688,#689);
#633=AXIS2_PLACEMENT_3D('',#850,#693,#694);
#634=AXIS2_PLACEMENT_3D('',#853,#697,#698);
#635=AXIS2_PLACEMENT_3D('',#894,#719,#720);
#636=AXIS2_PLACEMENT_3D('',#895,#721,#722);
#637=AXIS2_PLACEMENT_3D('',#899,#725,#726);
#638=AXIS2_PLACEMENT_3D('',#901,#727,#728);
#639=AXIS2_PLACEMENT_3D('',#903,#730,#731);
#640=AXIS2_PLACEMENT_3D('',#909,#735,#736);
#641=AXIS2_PLACEMENT_3D('',#913,#739,#740);
#642=AXIS2_PLACEMENT_3D('',#917,#743,#744);
#643=AXIS2_PLACEMENT_3D('',#921,#747,#748);
#644=AXIS2_PLACEMENT_3D('',#925,#751,#752);
#645=AXIS2_PLACEMENT_3D('',#929,#755,#756);
#646=AXIS2_PLACEMENT_3D('',#933,#759,#760);
#647=AXIS2_PLACEMENT_3D('',#937,#763,#764);
#648=AXIS2_PLACEMENT_3D('',#941,#767,#768);
#649=AXIS2_PLACEMENT_3D('',#945,#771,#772);
#650=AXIS2_PLACEMENT_3D('',#949,#775,#776);
#651=AXIS2_PLACEMENT_3D('',#953,#779,#780);
#652=AXIS2_PLACEMENT_3D('',#957,#783,#784);
#653=AXIS2_PLACEMENT_3D('',#959,#786,#787);
#654=AXIS2_PLACEMENT_3D('',#963,#790,#791);
#655=AXIS2_PLACEMENT_3D('',#967,#794,#795);
#656=AXIS2_PLACEMENT_3D('',#971,#798,#799);
#657=AXIS2_PLACEMENT_3D('',#975,#802,#803);
#658=AXIS2_PLACEMENT_3D('',#977,#805,#806);
#659=DIRECTION('axis',(0.,0.,1.));
#660=DIRECTION('refdir',(1.,0.,0.));
#661=DIRECTION('center_axis',(0.,-1.11282510983912E-15,1.));
#662=DIRECTION('ref_axis',(-5.10341237409638E-17,1.,1.11282510983912E-15));
#663=DIRECTION('',(-5.10341237409528E-17,1.,1.11282510983912E-15));
#664=DIRECTION('',(1.,0.,0.));
#665=DIRECTION('',(5.10341237409528E-17,-1.,-1.11282510983912E-15));
#666=DIRECTION('',(-1.,0.,0.));
#667=DIRECTION('center_axis',(0.,1.11282510983912E-15,-1.));
#668=DIRECTION('ref_axis',(5.10341237409638E-17,-1.,-1.11282510983912E-15));
#669=DIRECTION('',(5.10341237409528E-17,-1.,-1.11282510983912E-15));
#670=DIRECTION('',(-1.,0.,0.));
#671=DIRECTION('',(-5.10341237409528E-17,1.,1.11282510983912E-15));
#672=DIRECTION('',(-1.,0.,0.));
#673=DIRECTION('center_axis',(0.,-1.,-1.11282510983912E-15));
#674=DIRECTION('ref_axis',(3.60807103623716E-17,-1.11282510983912E-15,1.));
#675=DIRECTION('',(3.60807103623718E-17,-1.11282510983912E-15,1.));
#676=DIRECTION('',(-1.,0.,0.));
#677=DIRECTION('',(-3.60807103623718E-17,1.11282510983912E-15,-1.));
#678=DIRECTION('center_axis',(0.,1.11282510983912E-15,-1.));
#679=DIRECTION('ref_axis',(5.10341237409638E-17,-1.,-1.11282510983912E-15));
#680=DIRECTION('',(5.10341237409528E-17,-1.,-1.11282510983912E-15));
#681=DIRECTION('',(-1.,0.,0.));
#682=DIRECTION('',(-5.10341237409528E-17,1.,1.11282510983912E-15));
#683=DIRECTION('center_axis',(0.,1.,1.11282510983912E-15));
#684=DIRECTION('ref_axis',(-3.60807103623716E-17,1.11282510983912E-15,-1.));
#685=DIRECTION('',(-3.60807103623718E-17,1.11282510983912E-15,-1.));
#686=DIRECTION('',(-1.,0.,0.));
#687=DIRECTION('',(3.60807103623718E-17,-1.11282510983912E-15,1.));
#688=DIRECTION('center_axis',(0.,-1.11282510983912E-15,1.));
#689=DIRECTION('ref_axis',(-5.10341237409638E-17,1.,1.11282510983912E-15));
#690=DIRECTION('',(-5.10341237409528E-17,1.,1.11282510983912E-15));
#691=DIRECTION('',(-1.,0.,0.));
#692=DIRECTION('',(5.10341237409528E-17,-1.,-1.11282510983912E-15));
#693=DIRECTION('center_axis',(0.,-1.,-1.11282510983912E-15));
#694=DIRECTION('ref_axis',(3.60807103623716E-17,-1.11282510983912E-15,1.));
#695=DIRECTION('',(3.60807103623718E-17,-1.11282510983912E-15,1.));
#696=DIRECTION('',(-3.60807103623718E-17,1.11282510983912E-15,-1.));
#697=DIRECTION('center_axis',(1.,5.10341237409529E-17,-3.60807103623717E-17));
#698=DIRECTION('ref_axis',(-3.60807103623717E-17,-5.02062287484052E-49,
-1.));
#699=DIRECTION('',(3.60807103623717E-17,0.,1.));
#700=DIRECTION('',(5.10341237409529E-17,-1.,-1.84134743729476E-33));
#701=DIRECTION('',(-3.60807103623717E-17,-5.41327957103373E-17,-1.));
#702=DIRECTION('',(5.10341237409529E-17,-1.,-1.84134743729476E-33));
#703=DIRECTION('',(6.25003955688302E-17,-0.816540811885746,0.577287712085548));
#704=DIRECTION('',(4.31408307542741E-32,0.577287712085548,0.816540811885747));
#705=DIRECTION('',(6.25003955688302E-17,-0.816540811885746,0.577287712085548));
#706=DIRECTION('',(-1.41748443906901E-31,-0.577287712085546,-0.816540811885747));
#707=DIRECTION('',(-6.25003955688302E-17,0.816540811885746,-0.577287712085548));
#708=DIRECTION('',(4.31408307542741E-32,0.577287712085548,0.816540811885747));
#709=DIRECTION('',(6.25003955688302E-17,-0.816540811885746,0.577287712085548));
#710=DIRECTION('',(1.23259516440783E-32,-0.577287712085548,-0.816540811885746));
#711=DIRECTION('',(6.25003955688302E-17,-0.816540811885746,0.577287712085548));
#712=DIRECTION('',(-3.08148791101958E-32,-0.577287712085548,-0.816540811885746));
#713=DIRECTION('',(6.25003955688302E-17,-0.816540811885746,0.577287712085548));
#714=DIRECTION('',(7.60100351384829E-32,-0.577287712085549,-0.816540811885745));
#715=DIRECTION('',(5.10341237409529E-17,-1.,-1.84134743729476E-33));
#716=DIRECTION('',(-3.60807103623717E-17,-5.41327957103373E-17,-1.));
#717=DIRECTION('',(-5.10341237409529E-17,1.,1.84134743729476E-33));
#718=DIRECTION('',(3.60807103623717E-17,0.,1.));
#719=DIRECTION('center_axis',(-1.,-5.10341237409529E-17,3.60807103623717E-17));
#720=DIRECTION('ref_axis',(-3.60807103623717E-17,0.,-1.));
#721=DIRECTION('center_axis',(0.,-1.,0.));
#722=DIRECTION('ref_axis',(-3.60807103623717E-17,0.,-1.));
#723=DIRECTION('',(-3.60807103623717E-17,0.,-1.));
#724=DIRECTION('',(1.,0.,0.));
#725=DIRECTION('center_axis',(1.,0.,0.));
#726=DIRECTION('ref_axis',(0.,0.,-1.));
#727=DIRECTION('center_axis',(-1.,-5.10341237409529E-17,3.60807103623717E-17));
#728=DIRECTION('ref_axis',(-3.60807103623717E-17,0.,-1.));
#729=DIRECTION('',(-1.,0.,0.));
#730=DIRECTION('center_axis',(0.,-0.577287712085548,-0.816540811885746));
#731=DIRECTION('ref_axis',(-6.25003955688302E-17,0.816540811885746,-0.577287712085548));
#732=DIRECTION('',(1.,0.,0.));
#733=DIRECTION('',(-6.25003955688302E-17,0.816540811885746,-0.577287712085548));
#734=DIRECTION('',(1.,0.,0.));
#735=DIRECTION('center_axis',(0.,0.816540811885747,-0.577287712085546));
#736=DIRECTION('ref_axis',(1.41748443906901E-31,0.577287712085546,0.816540811885747));
#737=DIRECTION('',(1.41748443906901E-31,0.577287712085546,0.816540811885747));
#738=DIRECTION('',(1.,0.,0.));
#739=DIRECTION('center_axis',(0.,0.577287712085548,0.816540811885746));
#740=DIRECTION('ref_axis',(6.25003955688302E-17,-0.816540811885746,0.577287712085548));
#741=DIRECTION('',(6.25003955688302E-17,-0.816540811885746,0.577287712085548));
#742=DIRECTION('',(1.,0.,0.));
#743=DIRECTION('center_axis',(0.,-0.816540811885747,0.577287712085548));
#744=DIRECTION('ref_axis',(-4.31408307542741E-32,-0.577287712085548,-0.816540811885747));
#745=DIRECTION('',(-4.31408307542741E-32,-0.577287712085548,-0.816540811885747));
#746=DIRECTION('',(1.,0.,0.));
#747=DIRECTION('center_axis',(0.,-0.577287712085548,-0.816540811885746));
#748=DIRECTION('ref_axis',(-6.25003955688302E-17,0.816540811885746,-0.577287712085548));
#749=DIRECTION('',(-6.25003955688302E-17,0.816540811885746,-0.577287712085548));
#750=DIRECTION('',(1.,0.,0.));
#751=DIRECTION('center_axis',(0.,-0.816540811885746,0.577287712085548));
#752=DIRECTION('ref_axis',(1.23259516440783E-32,-0.577287712085548,-0.816540811885746));
#753=DIRECTION('',(1.23259516440783E-32,-0.577287712085548,-0.816540811885746));
#754=DIRECTION('',(1.,0.,0.));
#755=DIRECTION('center_axis',(0.,0.577287712085548,0.816540811885746));
#756=DIRECTION('ref_axis',(6.25003955688302E-17,-0.816540811885746,0.577287712085548));
#757=DIRECTION('',(6.25003955688302E-17,-0.816540811885746,0.577287712085548));
#758=DIRECTION('',(1.,0.,0.));
#759=DIRECTION('center_axis',(0.,-0.816540811885746,0.577287712085548));
#760=DIRECTION('ref_axis',(-3.08148791101958E-32,-0.577287712085548,-0.816540811885746));
#761=DIRECTION('',(-3.08148791101958E-32,-0.577287712085548,-0.816540811885746));
#762=DIRECTION('',(1.,0.,0.));
#763=DIRECTION('center_axis',(0.,0.577287712085548,0.816540811885746));
#764=DIRECTION('ref_axis',(6.25003955688302E-17,-0.816540811885746,0.577287712085548));
#765=DIRECTION('',(6.25003955688302E-17,-0.816540811885746,0.577287712085548));
#766=DIRECTION('',(1.,0.,0.));
#767=DIRECTION('center_axis',(0.,0.816540811885745,-0.577287712085549));
#768=DIRECTION('ref_axis',(-7.60100351384829E-32,0.577287712085549,0.816540811885745));
#769=DIRECTION('',(-7.60100351384829E-32,0.577287712085549,0.816540811885745));
#770=DIRECTION('',(1.,0.,0.));
#771=DIRECTION('center_axis',(0.,1.84134743729476E-33,-1.));
#772=DIRECTION('ref_axis',(-5.10341237409529E-17,1.,1.84134743729476E-33));
#773=DIRECTION('',(-5.10341237409529E-17,1.,1.84134743729476E-33));
#774=DIRECTION('',(1.,0.,0.));
#775=DIRECTION('center_axis',(0.,-1.,5.41327957103373E-17));
#776=DIRECTION('ref_axis',(-3.60807103623717E-17,-5.41327957103373E-17,
-1.));
#777=DIRECTION('',(-3.60807103623717E-17,-5.41327957103373E-17,-1.));
#778=DIRECTION('',(1.,0.,0.));
#779=DIRECTION('center_axis',(0.,-1.84134743729476E-33,1.));
#780=DIRECTION('ref_axis',(5.10341237409529E-17,-1.,-1.84134743729476E-33));
#781=DIRECTION('',(5.10341237409529E-17,-1.,-1.84134743729476E-33));
#782=DIRECTION('',(1.,0.,0.));
#783=DIRECTION('center_axis',(0.,-1.,0.));
#784=DIRECTION('ref_axis',(-3.60807103623717E-17,0.,-1.));
#785=DIRECTION('',(-3.60807103623717E-17,0.,-1.));
#786=DIRECTION('center_axis',(0.,1.84134743729476E-33,-1.));
#787=DIRECTION('ref_axis',(-5.10341237409529E-17,1.,1.84134743729476E-33));
#788=DIRECTION('',(-5.10341237409529E-17,1.,1.84134743729476E-33));
#789=DIRECTION('',(1.,0.,0.));
#790=DIRECTION('center_axis',(0.,-1.,5.41327957103373E-17));
#791=DIRECTION('ref_axis',(-3.60807103623717E-17,-5.41327957103373E-17,
-1.));
#792=DIRECTION('',(-3.60807103623717E-17,-5.41327957103373E-17,-1.));
#793=DIRECTION('',(1.,0.,0.));
#794=DIRECTION('center_axis',(0.,-1.84134743729476E-33,1.));
#795=DIRECTION('ref_axis',(5.10341237409529E-17,-1.,-1.84134743729476E-33));
#796=DIRECTION('',(5.10341237409529E-17,-1.,-1.84134743729476E-33));
#797=DIRECTION('',(1.,0.,0.));
#798=DIRECTION('center_axis',(0.,0.577287712085548,0.816540811885746));
#799=DIRECTION('ref_axis',(6.25003955688302E-17,-0.816540811885746,0.577287712085548));
#800=DIRECTION('',(6.25003955688302E-17,-0.816540811885746,0.577287712085548));
#801=DIRECTION('',(1.,0.,0.));
#802=DIRECTION('center_axis',(0.,0.816540811885747,-0.577287712085548));
#803=DIRECTION('ref_axis',(4.31408307542741E-32,0.577287712085548,0.816540811885747));
#804=DIRECTION('',(4.31408307542741E-32,0.577287712085548,0.816540811885747));
#805=DIRECTION('center_axis',(1.,5.10341237409529E-17,-3.60807103623717E-17));
#806=DIRECTION('ref_axis',(-3.60807103623717E-17,-5.02062287484052E-49,
-1.));
#807=CARTESIAN_POINT('',(0.,0.,0.));
#808=CARTESIAN_POINT('Origin',(20.7635000000001,5.79276664806266,-8.95757917867459));
#809=CARTESIAN_POINT('',(20.7635000000001,5.79276664806266,-8.95757917867459));
#810=CARTESIAN_POINT('',(20.7635000000001,7.29276664806266,-8.95757917867459));
#811=CARTESIAN_POINT('',(20.7635,12.9780258108409,-8.95757917867458));
#812=CARTESIAN_POINT('',(17.7635000000001,5.79276664806266,-8.95757917867459));
#813=CARTESIAN_POINT('',(19.2635000000001,5.79276664806267,-8.95757917867459));
#814=CARTESIAN_POINT('',(17.7635000000001,7.29276664806266,-8.95757917867459));
#815=CARTESIAN_POINT('',(17.7635,12.9780258108409,-8.95757917867458));
#816=CARTESIAN_POINT('',(20.7635000000001,7.29276664806266,-8.95757917867459));
#817=CARTESIAN_POINT('Origin',(20.7635000000001,7.29276664806266,-10.9575791786746));
#818=CARTESIAN_POINT('',(20.7635000000001,7.29276664806266,-10.9575791786746));
#819=CARTESIAN_POINT('',(20.7635000000001,5.79276664806266,-10.9575791786746));
#820=CARTESIAN_POINT('',(20.7635,13.7280258108409,-10.9575791786746));
#821=CARTESIAN_POINT('',(17.7635000000001,7.29276664806266,-10.9575791786746));
#822=CARTESIAN_POINT('',(20.7635000000001,7.29276664806266,-10.9575791786746));
#823=CARTESIAN_POINT('',(17.7635000000001,5.79276664806266,-10.9575791786746));
#824=CARTESIAN_POINT('',(17.7635,13.7280258108409,-10.9575791786746));
#825=CARTESIAN_POINT('',(19.2635000000001,5.79276664806267,-10.9575791786746));
#826=CARTESIAN_POINT('Origin',(20.7635000000001,7.29276664806266,-11.9575791786746));
#827=CARTESIAN_POINT('',(20.7635000000001,7.29276664806266,-11.9575791786746));
#828=CARTESIAN_POINT('',(20.7635,7.29276664806266,-10.9575791786746));
#829=CARTESIAN_POINT('',(17.7635000000001,7.29276664806266,-11.9575791786746));
#830=CARTESIAN_POINT('',(20.7635000000001,7.29276664806266,-11.9575791786746));
#831=CARTESIAN_POINT('',(17.7635,7.29276664806266,-10.9575791786746));
#832=CARTESIAN_POINT('Origin',(20.7635000000001,8.79276664806266,-11.9575791786746));
#833=CARTESIAN_POINT('',(20.7635000000001,8.79276664806266,-11.9575791786746));
#834=CARTESIAN_POINT('',(20.7635,14.4780258108409,-11.9575791786746));
#835=CARTESIAN_POINT('',(17.7635000000001,8.79276664806266,-11.9575791786746));
#836=CARTESIAN_POINT('',(20.7635000000001,8.79276664806266,-11.9575791786746));
#837=CARTESIAN_POINT('',(17.7635,14.4780258108409,-11.9575791786746));
#838=CARTESIAN_POINT('Origin',(20.7635000000001,8.79276664806266,-7.95757917867459));
#839=CARTESIAN_POINT('',(20.7635000000001,8.79276664806266,-7.95757917867459));
#840=CARTESIAN_POINT('',(20.7635,8.79276664806266,-8.9575791786746));
#841=CARTESIAN_POINT('',(17.7635000000001,8.79276664806266,-7.95757917867459));
#842=CARTESIAN_POINT('',(20.7635000000001,8.79276664806266,-7.95757917867459));
#843=CARTESIAN_POINT('',(17.7635,8.79276664806266,-8.9575791786746));
#844=CARTESIAN_POINT('Origin',(20.7635000000001,7.29276664806266,-7.95757917867459));
#845=CARTESIAN_POINT('',(20.7635000000001,7.29276664806266,-7.95757917867459));
#846=CARTESIAN_POINT('',(20.7635,13.7280258108409,-7.95757917867458));
#847=CARTESIAN_POINT('',(17.7635000000001,7.29276664806266,-7.95757917867459));
#848=CARTESIAN_POINT('',(20.7635000000001,7.29276664806266,-7.95757917867459));
#849=CARTESIAN_POINT('',(17.7635,13.7280258108409,-7.95757917867458));
#850=CARTESIAN_POINT('Origin',(20.7635000000001,7.29276664806266,-8.95757917867459));
#851=CARTESIAN_POINT('',(20.7635,7.29276664806266,-9.4575791786746));
#852=CARTESIAN_POINT('',(17.7635,7.29276664806266,-9.4575791786746));
#853=CARTESIAN_POINT('Origin',(17.7635,20.1632849736192,-9.95757917867459));
#854=CARTESIAN_POINT('',(17.7635,5.79276664806267,-2.70295432458502));
#855=CARTESIAN_POINT('',(17.7635,5.79276664806267,-17.2122040327642));
#856=CARTESIAN_POINT('',(17.7635,2.79276664806267,-2.70295432458502));
#857=CARTESIAN_POINT('',(17.7635,5.79276664806267,-2.70295432458502));
#858=CARTESIAN_POINT('',(17.7635,2.79276664806267,0.297045675414976));
#859=CARTESIAN_POINT('',(17.7635,2.79276664806267,0.297045675414976));
#860=CARTESIAN_POINT('',(17.7635,6.79276664806267,0.297045675414976));
#861=CARTESIAN_POINT('',(17.7635,6.79276664806267,0.297045675414976));
#862=CARTESIAN_POINT('',(17.7635,13.228519214891,-4.25297903954425));
#863=CARTESIAN_POINT('',(17.7635,21.2973534054908,-9.95757917867459));
#864=CARTESIAN_POINT('',(17.7635,12.3048588755541,-5.55944433856145));
#865=CARTESIAN_POINT('',(17.7635,11.4389273074258,-6.78425555639007));
#866=CARTESIAN_POINT('',(17.7635,11.5291451042627,-5.01102101208018));
#867=CARTESIAN_POINT('',(17.7635,14.7136542706171,-7.26244308921382));
#868=CARTESIAN_POINT('',(17.7635,10.6632135361343,-6.2358322299088));
#869=CARTESIAN_POINT('',(17.7635,11.5291451042627,-5.01102101208018));
#870=CARTESIAN_POINT('',(17.7635,13.8477227024888,-8.48725430704244));
#871=CARTESIAN_POINT('',(17.7635,10.6632135361343,-6.2358322299088));
#872=CARTESIAN_POINT('',(17.7635,14.7136542706171,-7.26244308921382));
#873=CARTESIAN_POINT('',(17.7635,13.8477227024888,-8.48725430704244));
#874=CARTESIAN_POINT('',(17.7635,13.9379404993256,-6.71401976273255));
#875=CARTESIAN_POINT('',(17.7635,14.7136542706171,-7.26244308921382));
#876=CARTESIAN_POINT('',(17.7635,14.8616008386625,-5.40755446371535));
#877=CARTESIAN_POINT('',(17.7635,14.8616008386625,-5.40755446371535));
#878=CARTESIAN_POINT('',(17.7635,21.2973534054908,-9.95757917867459));
#879=CARTESIAN_POINT('',(17.7635,21.2973534054908,-9.95757917867459));
#880=CARTESIAN_POINT('',(17.7635,23.0292165417475,-7.50795674301735));
#881=CARTESIAN_POINT('',(17.7635,23.0292165417475,-7.50795674301735));
#882=CARTESIAN_POINT('',(17.7635,37.5338032991757,-17.7625815971069));
#883=CARTESIAN_POINT('',(17.7635,37.5338032991757,-17.7625815971069));
#884=CARTESIAN_POINT('',(17.7635,35.801940162919,-20.2122040327642));
#885=CARTESIAN_POINT('',(17.7635,37.5338032991757,-17.7625815971069));
#886=CARTESIAN_POINT('',(17.7635,2.79276664806266,-20.2122040327642));
#887=CARTESIAN_POINT('',(17.7635,35.801940162919,-20.2122040327642));
#888=CARTESIAN_POINT('',(17.7635,2.79276664806267,-17.2122040327642));
#889=CARTESIAN_POINT('',(17.7635,2.79276664806267,0.297045675414976));
#890=CARTESIAN_POINT('',(17.7635,5.79276664806267,-17.2122040327642));
#891=CARTESIAN_POINT('',(17.7635,2.79276664806267,-17.2122040327642));
#892=CARTESIAN_POINT('',(17.7635,5.79276664806267,-17.2122040327642));
#893=CARTESIAN_POINT('',(17.7635,25.837718627105,-10.3305626652309));
#894=CARTESIAN_POINT('Origin',(17.7635,25.837718627105,-11.3305626652309));
#895=CARTESIAN_POINT('Origin',(17.7635,5.79276664806267,-2.70295432458502));
#896=CARTESIAN_POINT('',(20.7635,5.79276664806267,-2.70295432458503));
#897=CARTESIAN_POINT('',(20.7635,5.79276664806267,-17.2122040327642));
#898=CARTESIAN_POINT('',(17.7635,5.79276664806267,-2.70295432458502));
#899=CARTESIAN_POINT('Origin',(17.7635,25.837718627105,-11.3305626652309));
#900=CARTESIAN_POINT('',(20.7635,25.837718627105,-10.3305626652309));
#901=CARTESIAN_POINT('Origin',(20.7635,25.837718627105,-11.3305626652309));
#902=CARTESIAN_POINT('',(17.7635,25.837718627105,-10.3305626652309));
#903=CARTESIAN_POINT('Origin',(17.7635,11.5291451042627,-5.01102101208018));
#904=CARTESIAN_POINT('',(20.7635,12.3048588755541,-5.55944433856145));
#905=CARTESIAN_POINT('',(17.7635,12.3048588755541,-5.55944433856145));
#906=CARTESIAN_POINT('',(20.7635,11.5291451042627,-5.01102101208018));
#907=CARTESIAN_POINT('',(20.7635,14.7136542706171,-7.26244308921382));
#908=CARTESIAN_POINT('',(17.7635,11.5291451042627,-5.01102101208018));
#909=CARTESIAN_POINT('Origin',(17.7635,10.6632135361343,-6.2358322299088));
#910=CARTESIAN_POINT('',(20.7635,10.6632135361343,-6.2358322299088));
#911=CARTESIAN_POINT('',(20.7635,11.5291451042627,-5.01102101208018));
#912=CARTESIAN_POINT('',(17.7635,10.6632135361343,-6.2358322299088));
#913=CARTESIAN_POINT('Origin',(17.7635,13.8477227024888,-8.48725430704244));
#914=CARTESIAN_POINT('',(20.7635,13.8477227024888,-8.48725430704244));
#915=CARTESIAN_POINT('',(20.7635,10.6632135361343,-6.2358322299088));
#916=CARTESIAN_POINT('',(17.7635,13.8477227024888,-8.48725430704244));
#917=CARTESIAN_POINT('Origin',(17.7635,14.7136542706171,-7.26244308921382));
#918=CARTESIAN_POINT('',(20.7635,14.7136542706171,-7.26244308921382));
#919=CARTESIAN_POINT('',(20.7635,13.8477227024888,-8.48725430704244));
#920=CARTESIAN_POINT('',(17.7635,14.7136542706171,-7.26244308921382));
#921=CARTESIAN_POINT('Origin',(17.7635,13.9379404993256,-6.71401976273255));
#922=CARTESIAN_POINT('',(20.7635,13.9379404993256,-6.71401976273255));
#923=CARTESIAN_POINT('',(20.7635,14.7136542706171,-7.26244308921382));
#924=CARTESIAN_POINT('',(17.7635,13.9379404993256,-6.71401976273255));
#925=CARTESIAN_POINT('Origin',(17.7635,14.8616008386625,-5.40755446371535));
#926=CARTESIAN_POINT('',(20.7635,14.8616008386625,-5.40755446371535));
#927=CARTESIAN_POINT('',(20.7635,14.8616008386625,-5.40755446371535));
#928=CARTESIAN_POINT('',(17.7635,14.8616008386625,-5.40755446371535));
#929=CARTESIAN_POINT('Origin',(17.7635,21.2973534054908,-9.95757917867459));
#930=CARTESIAN_POINT('',(20.7635,21.2973534054908,-9.95757917867459));
#931=CARTESIAN_POINT('',(20.7635,21.2973534054908,-9.95757917867459));
#932=CARTESIAN_POINT('',(17.7635,21.2973534054908,-9.95757917867459));
#933=CARTESIAN_POINT('Origin',(17.7635,23.0292165417475,-7.50795674301735));
#934=CARTESIAN_POINT('',(20.7635,23.0292165417475,-7.50795674301735));
#935=CARTESIAN_POINT('',(20.7635,23.0292165417475,-7.50795674301735));
#936=CARTESIAN_POINT('',(17.7635,23.0292165417475,-7.50795674301735));
#937=CARTESIAN_POINT('Origin',(17.7635,37.5338032991757,-17.7625815971069));
#938=CARTESIAN_POINT('',(20.7635,37.5338032991757,-17.7625815971069));
#939=CARTESIAN_POINT('',(20.7635,37.5338032991757,-17.7625815971069));
#940=CARTESIAN_POINT('',(17.7635,37.5338032991757,-17.7625815971069));
#941=CARTESIAN_POINT('Origin',(17.7635,35.801940162919,-20.2122040327641));
#942=CARTESIAN_POINT('',(20.7635,35.801940162919,-20.2122040327642));
#943=CARTESIAN_POINT('',(20.7635,37.5338032991757,-17.7625815971069));
#944=CARTESIAN_POINT('',(17.7635,35.801940162919,-20.2122040327642));
#945=CARTESIAN_POINT('Origin',(17.7635,2.79276664806266,-20.2122040327642));
#946=CARTESIAN_POINT('',(20.7635,2.79276664806266,-20.2122040327642));
#947=CARTESIAN_POINT('',(20.7635,35.801940162919,-20.2122040327642));
#948=CARTESIAN_POINT('',(17.7635,2.79276664806266,-20.2122040327642));
#949=CARTESIAN_POINT('Origin',(17.7635,2.79276664806267,-17.2122040327642));
#950=CARTESIAN_POINT('',(20.7635,2.79276664806267,-17.2122040327642));
#951=CARTESIAN_POINT('',(20.7635,2.79276664806267,0.297045675414976));
#952=CARTESIAN_POINT('',(17.7635,2.79276664806267,-17.2122040327642));
#953=CARTESIAN_POINT('Origin',(17.7635,5.79276664806267,-17.2122040327642));
#954=CARTESIAN_POINT('',(20.7635,5.79276664806267,-17.2122040327642));
#955=CARTESIAN_POINT('',(20.7635,2.79276664806267,-17.2122040327642));
#956=CARTESIAN_POINT('',(17.7635,5.79276664806267,-17.2122040327642));
#957=CARTESIAN_POINT('Origin',(17.7635,5.79276664806267,-2.70295432458502));
#958=CARTESIAN_POINT('',(20.7635,5.79276664806267,-17.2122040327642));
#959=CARTESIAN_POINT('Origin',(17.7635,2.79276664806267,-2.70295432458502));
#960=CARTESIAN_POINT('',(20.7635,2.79276664806267,-2.70295432458503));
#961=CARTESIAN_POINT('',(20.7635,5.79276664806267,-2.70295432458502));
#962=CARTESIAN_POINT('',(17.7635,2.79276664806267,-2.70295432458502));
#963=CARTESIAN_POINT('Origin',(17.7635,2.79276664806267,0.297045675414976));
#964=CARTESIAN_POINT('',(20.7635,2.79276664806267,0.297045675414975));
#965=CARTESIAN_POINT('',(20.7635,2.79276664806267,0.297045675414976));
#966=CARTESIAN_POINT('',(17.7635,2.79276664806267,0.297045675414976));
#967=CARTESIAN_POINT('Origin',(17.7635,6.79276664806267,0.297045675414976));
#968=CARTESIAN_POINT('',(20.7635,6.79276664806267,0.297045675414975));
#969=CARTESIAN_POINT('',(20.7635,6.79276664806267,0.297045675414976));
#970=CARTESIAN_POINT('',(17.7635,6.79276664806267,0.297045675414976));
#971=CARTESIAN_POINT('Origin',(17.7635,13.228519214891,-4.25297903954426));
#972=CARTESIAN_POINT('',(20.7635,13.228519214891,-4.25297903954425));
#973=CARTESIAN_POINT('',(20.7635,21.2973534054908,-9.95757917867459));
#974=CARTESIAN_POINT('',(17.7635,13.228519214891,-4.25297903954425));
#975=CARTESIAN_POINT('Origin',(17.7635,12.3048588755541,-5.55944433856145));
#976=CARTESIAN_POINT('',(20.7635,11.4389273074258,-6.78425555639007));
#977=CARTESIAN_POINT('Origin',(20.7635,20.1632849736192,-9.95757917867459));
#978=UNCERTAINTY_MEASURE_WITH_UNIT(LENGTH_MEASURE(0.01),#982,
'DISTANCE_ACCURACY_VALUE',
'Maximum model space distance between geometric entities at asserted c
onnectivities');
#979=UNCERTAINTY_MEASURE_WITH_UNIT(LENGTH_MEASURE(0.01),#982,
'DISTANCE_ACCURACY_VALUE',
'Maximum model space distance between geometric entities at asserted c
onnectivities');
#980=(
GEOMETRIC_REPRESENTATION_CONTEXT(3)
GLOBAL_UNCERTAINTY_ASSIGNED_CONTEXT((#978))
GLOBAL_UNIT_ASSIGNED_CONTEXT((#982,#985,#984))
REPRESENTATION_CONTEXT('','3D')
);
#981=(
GEOMETRIC_REPRESENTATION_CONTEXT(3)
GLOBAL_UNCERTAINTY_ASSIGNED_CONTEXT((#979))
GLOBAL_UNIT_ASSIGNED_CONTEXT((#982,#985,#984))
REPRESENTATION_CONTEXT('','3D')
);
#982=(
LENGTH_UNIT()
NAMED_UNIT(*)
SI_UNIT(.MILLI.,.METRE.)
);
#983=(
LENGTH_UNIT()
NAMED_UNIT(*)
SI_UNIT($,.METRE.)
);
#984=(
NAMED_UNIT(*)
SI_UNIT($,.STERADIAN.)
SOLID_ANGLE_UNIT()
);
#985=(
NAMED_UNIT(*)
PLANE_ANGLE_UNIT()
SI_UNIT($,.RADIAN.)
);
#986=SHAPE_DEFINITION_REPRESENTATION(#987,#988);
#987=PRODUCT_DEFINITION_SHAPE('',$,#990);
#988=SHAPE_REPRESENTATION('',(#626),#980);
#989=PRODUCT_DEFINITION_CONTEXT('part definition',#994,'design');
#990=PRODUCT_DEFINITION('SidePlateL','SidePlateL',#991,#989);
#991=PRODUCT_DEFINITION_FORMATION('',$,#996);
#992=PRODUCT_RELATED_PRODUCT_CATEGORY('SidePlateL','SidePlateL',(#996));
#993=APPLICATION_PROTOCOL_DEFINITION('international standard',
'automotive_design',2009,#994);
#994=APPLICATION_CONTEXT(
'Core Data for Automotive Mechanical Design Process');
#995=PRODUCT_CONTEXT('part definition',#994,'mechanical');
#996=PRODUCT('SidePlateL','SidePlateL',$,(#995));
#997=PRESENTATION_STYLE_ASSIGNMENT((#999));
#998=PRESENTATION_STYLE_ASSIGNMENT((#1000));
#999=SURFACE_STYLE_USAGE(.BOTH.,#1001);
#1000=SURFACE_STYLE_USAGE(.BOTH.,#1002);
#1001=SURFACE_SIDE_STYLE('',(#1003));
#1002=SURFACE_SIDE_STYLE('',(#1004));
#1003=SURFACE_STYLE_FILL_AREA(#1005);
#1004=SURFACE_STYLE_FILL_AREA(#1006);
#1005=FILL_AREA_STYLE('Steel - Satin',(#1007));
#1006=FILL_AREA_STYLE('Plastic - Glossy (Black)',(#1008));
#1007=FILL_AREA_STYLE_COLOUR('Steel - Satin',#1009);
#1008=FILL_AREA_STYLE_COLOUR('Plastic - Glossy (Black)',#1010);
#1009=COLOUR_RGB('Steel - Satin',0.627450980392157,0.627450980392157,0.627450980392157);
#1010=COLOUR_RGB('Plastic - Glossy (Black)',0.0980392156862745,0.0980392156862745,
0.0980392156862745);
ENDSEC;
END-ISO-10303-21;
