ISO-10303-21;
HEADER;
/* Generated by software containing ST-Developer
 * from STEP Tools, Inc. (www.steptools.com) 
 */

FILE_DESCRIPTION(
/* description */ (''),
/* implementation_level */ '2;1');

FILE_NAME(
/* name */ 'C:/Users/mnyeo/Desktop/Mechv2a/TopPlate.step',
/* time_stamp */ '2018-05-15T22:41:09+10:00',
/* author */ (''),
/* organization */ (''),
/* preprocessor_version */ 'ST-DEVELOPER v17',
/* originating_system */ 'Autodesk Translation Framework v7.1.0.215',
/* authorisation */ '');

FILE_SCHEMA (('AUTOMOTIVE_DESIGN { 1 0 10303 214 3 1 1 }'));
ENDSEC;

DATA;
#10=MECHANICAL_DESIGN_GEOMETRIC_PRESENTATION_REPRESENTATION('',(#13),#933);
#11=SHAPE_REPRESENTATION_RELATIONSHIP('SRR','None',#940,#12);
#12=ADVANCED_BREP_SHAPE_REPRESENTATION('',(#14),#932);
#13=STYLED_ITEM('',(#949),#14);
#14=MANIFOLD_SOLID_BREP('Body1',#585);
#15=FACE_BOUND('',#86,.T.);
#16=FACE_BOUND('',#87,.T.);
#17=FACE_BOUND('',#88,.T.);
#18=FACE_BOUND('',#89,.T.);
#19=FACE_BOUND('',#90,.T.);
#20=FACE_BOUND('',#92,.T.);
#21=FACE_BOUND('',#93,.T.);
#22=FACE_BOUND('',#94,.T.);
#23=FACE_BOUND('',#95,.T.);
#24=FACE_BOUND('',#96,.T.);
#25=CIRCLE('',#606,3.);
#26=CIRCLE('',#607,3.);
#27=CIRCLE('',#627,17.7634559672906);
#28=CIRCLE('',#628,17.7634559672906);
#29=CYLINDRICAL_SURFACE('',#605,3.);
#30=CYLINDRICAL_SURFACE('',#626,17.7634559672906);
#31=FACE_OUTER_BOUND('',#59,.T.);
#32=FACE_OUTER_BOUND('',#60,.T.);
#33=FACE_OUTER_BOUND('',#61,.T.);
#34=FACE_OUTER_BOUND('',#62,.T.);
#35=FACE_OUTER_BOUND('',#63,.T.);
#36=FACE_OUTER_BOUND('',#64,.T.);
#37=FACE_OUTER_BOUND('',#65,.T.);
#38=FACE_OUTER_BOUND('',#66,.T.);
#39=FACE_OUTER_BOUND('',#67,.T.);
#40=FACE_OUTER_BOUND('',#68,.T.);
#41=FACE_OUTER_BOUND('',#69,.T.);
#42=FACE_OUTER_BOUND('',#70,.T.);
#43=FACE_OUTER_BOUND('',#71,.T.);
#44=FACE_OUTER_BOUND('',#72,.T.);
#45=FACE_OUTER_BOUND('',#73,.T.);
#46=FACE_OUTER_BOUND('',#74,.T.);
#47=FACE_OUTER_BOUND('',#75,.T.);
#48=FACE_OUTER_BOUND('',#76,.T.);
#49=FACE_OUTER_BOUND('',#77,.T.);
#50=FACE_OUTER_BOUND('',#78,.T.);
#51=FACE_OUTER_BOUND('',#79,.T.);
#52=FACE_OUTER_BOUND('',#80,.T.);
#53=FACE_OUTER_BOUND('',#81,.T.);
#54=FACE_OUTER_BOUND('',#82,.T.);
#55=FACE_OUTER_BOUND('',#83,.T.);
#56=FACE_OUTER_BOUND('',#84,.T.);
#57=FACE_OUTER_BOUND('',#85,.T.);
#58=FACE_OUTER_BOUND('',#91,.T.);
#59=EDGE_LOOP('',(#375,#376,#377,#378));
#60=EDGE_LOOP('',(#379,#380,#381,#382));
#61=EDGE_LOOP('',(#383,#384,#385,#386));
#62=EDGE_LOOP('',(#387,#388,#389,#390));
#63=EDGE_LOOP('',(#391,#392,#393,#394));
#64=EDGE_LOOP('',(#395,#396,#397,#398));
#65=EDGE_LOOP('',(#399,#400,#401,#402));
#66=EDGE_LOOP('',(#403,#404,#405,#406));
#67=EDGE_LOOP('',(#407,#408,#409,#410));
#68=EDGE_LOOP('',(#411,#412,#413,#414));
#69=EDGE_LOOP('',(#415,#416,#417,#418));
#70=EDGE_LOOP('',(#419,#420,#421,#422));
#71=EDGE_LOOP('',(#423,#424,#425,#426));
#72=EDGE_LOOP('',(#427,#428,#429,#430));
#73=EDGE_LOOP('',(#431,#432,#433,#434));
#74=EDGE_LOOP('',(#435,#436,#437,#438));
#75=EDGE_LOOP('',(#439,#440,#441,#442));
#76=EDGE_LOOP('',(#443,#444,#445,#446));
#77=EDGE_LOOP('',(#447,#448,#449,#450));
#78=EDGE_LOOP('',(#451,#452,#453,#454));
#79=EDGE_LOOP('',(#455,#456,#457,#458));
#80=EDGE_LOOP('',(#459,#460,#461,#462));
#81=EDGE_LOOP('',(#463,#464,#465,#466));
#82=EDGE_LOOP('',(#467,#468,#469,#470));
#83=EDGE_LOOP('',(#471,#472,#473,#474));
#84=EDGE_LOOP('',(#475,#476,#477,#478));
#85=EDGE_LOOP('',(#479));
#86=EDGE_LOOP('',(#480,#481,#482,#483,#484,#485));
#87=EDGE_LOOP('',(#486,#487,#488,#489,#490,#491));
#88=EDGE_LOOP('',(#492,#493,#494,#495,#496,#497));
#89=EDGE_LOOP('',(#498));
#90=EDGE_LOOP('',(#499,#500,#501,#502,#503,#504));
#91=EDGE_LOOP('',(#505));
#92=EDGE_LOOP('',(#506,#507,#508,#509,#510,#511));
#93=EDGE_LOOP('',(#512,#513,#514,#515,#516,#517));
#94=EDGE_LOOP('',(#518,#519,#520,#521,#522,#523));
#95=EDGE_LOOP('',(#524));
#96=EDGE_LOOP('',(#525,#526,#527,#528,#529,#530));
#97=LINE('',#775,#171);
#98=LINE('',#777,#172);
#99=LINE('',#779,#173);
#100=LINE('',#780,#174);
#101=LINE('',#783,#175);
#102=LINE('',#785,#176);
#103=LINE('',#786,#177);
#104=LINE('',#789,#178);
#105=LINE('',#791,#179);
#106=LINE('',#792,#180);
#107=LINE('',#795,#181);
#108=LINE('',#797,#182);
#109=LINE('',#798,#183);
#110=LINE('',#801,#184);
#111=LINE('',#803,#185);
#112=LINE('',#804,#186);
#113=LINE('',#806,#187);
#114=LINE('',#807,#188);
#115=LINE('',#812,#189);
#116=LINE('',#817,#190);
#117=LINE('',#819,#191);
#118=LINE('',#821,#192);
#119=LINE('',#822,#193);
#120=LINE('',#825,#194);
#121=LINE('',#827,#195);
#122=LINE('',#828,#196);
#123=LINE('',#831,#197);
#124=LINE('',#833,#198);
#125=LINE('',#834,#199);
#126=LINE('',#837,#200);
#127=LINE('',#839,#201);
#128=LINE('',#840,#202);
#129=LINE('',#843,#203);
#130=LINE('',#845,#204);
#131=LINE('',#846,#205);
#132=LINE('',#848,#206);
#133=LINE('',#849,#207);
#134=LINE('',#853,#208);
#135=LINE('',#855,#209);
#136=LINE('',#857,#210);
#137=LINE('',#858,#211);
#138=LINE('',#861,#212);
#139=LINE('',#863,#213);
#140=LINE('',#864,#214);
#141=LINE('',#867,#215);
#142=LINE('',#869,#216);
#143=LINE('',#870,#217);
#144=LINE('',#873,#218);
#145=LINE('',#875,#219);
#146=LINE('',#876,#220);
#147=LINE('',#879,#221);
#148=LINE('',#881,#222);
#149=LINE('',#882,#223);
#150=LINE('',#884,#224);
#151=LINE('',#885,#225);
#152=LINE('',#889,#226);
#153=LINE('',#891,#227);
#154=LINE('',#893,#228);
#155=LINE('',#894,#229);
#156=LINE('',#897,#230);
#157=LINE('',#899,#231);
#158=LINE('',#900,#232);
#159=LINE('',#903,#233);
#160=LINE('',#905,#234);
#161=LINE('',#906,#235);
#162=LINE('',#909,#236);
#163=LINE('',#911,#237);
#164=LINE('',#912,#238);
#165=LINE('',#915,#239);
#166=LINE('',#917,#240);
#167=LINE('',#918,#241);
#168=LINE('',#920,#242);
#169=LINE('',#921,#243);
#170=LINE('',#926,#244);
#171=VECTOR('',#635,10.);
#172=VECTOR('',#636,10.);
#173=VECTOR('',#637,10.);
#174=VECTOR('',#638,10.);
#175=VECTOR('',#641,10.);
#176=VECTOR('',#642,10.);
#177=VECTOR('',#643,10.);
#178=VECTOR('',#646,10.);
#179=VECTOR('',#647,10.);
#180=VECTOR('',#648,10.);
#181=VECTOR('',#651,10.);
#182=VECTOR('',#652,10.);
#183=VECTOR('',#653,10.);
#184=VECTOR('',#656,10.);
#185=VECTOR('',#657,10.);
#186=VECTOR('',#658,10.);
#187=VECTOR('',#661,10.);
#188=VECTOR('',#662,10.);
#189=VECTOR('',#667,3.);
#190=VECTOR('',#672,10.);
#191=VECTOR('',#673,10.);
#192=VECTOR('',#674,10.);
#193=VECTOR('',#675,10.);
#194=VECTOR('',#678,10.);
#195=VECTOR('',#679,10.);
#196=VECTOR('',#680,10.);
#197=VECTOR('',#683,10.);
#198=VECTOR('',#684,10.);
#199=VECTOR('',#685,10.);
#200=VECTOR('',#688,10.);
#201=VECTOR('',#689,10.);
#202=VECTOR('',#690,10.);
#203=VECTOR('',#693,10.);
#204=VECTOR('',#694,10.);
#205=VECTOR('',#695,10.);
#206=VECTOR('',#698,10.);
#207=VECTOR('',#699,10.);
#208=VECTOR('',#702,10.);
#209=VECTOR('',#703,10.);
#210=VECTOR('',#704,10.);
#211=VECTOR('',#705,10.);
#212=VECTOR('',#708,10.);
#213=VECTOR('',#709,10.);
#214=VECTOR('',#710,10.);
#215=VECTOR('',#713,10.);
#216=VECTOR('',#714,10.);
#217=VECTOR('',#715,10.);
#218=VECTOR('',#718,10.);
#219=VECTOR('',#719,10.);
#220=VECTOR('',#720,10.);
#221=VECTOR('',#723,10.);
#222=VECTOR('',#724,10.);
#223=VECTOR('',#725,10.);
#224=VECTOR('',#728,10.);
#225=VECTOR('',#729,10.);
#226=VECTOR('',#732,10.);
#227=VECTOR('',#733,10.);
#228=VECTOR('',#734,10.);
#229=VECTOR('',#735,10.);
#230=VECTOR('',#738,10.);
#231=VECTOR('',#739,10.);
#232=VECTOR('',#740,10.);
#233=VECTOR('',#743,10.);
#234=VECTOR('',#744,10.);
#235=VECTOR('',#745,10.);
#236=VECTOR('',#748,10.);
#237=VECTOR('',#749,10.);
#238=VECTOR('',#750,10.);
#239=VECTOR('',#753,10.);
#240=VECTOR('',#754,10.);
#241=VECTOR('',#755,10.);
#242=VECTOR('',#758,10.);
#243=VECTOR('',#759,10.);
#244=VECTOR('',#764,17.7634559672906);
#245=VERTEX_POINT('',#773);
#246=VERTEX_POINT('',#774);
#247=VERTEX_POINT('',#776);
#248=VERTEX_POINT('',#778);
#249=VERTEX_POINT('',#782);
#250=VERTEX_POINT('',#784);
#251=VERTEX_POINT('',#788);
#252=VERTEX_POINT('',#790);
#253=VERTEX_POINT('',#794);
#254=VERTEX_POINT('',#796);
#255=VERTEX_POINT('',#800);
#256=VERTEX_POINT('',#802);
#257=VERTEX_POINT('',#809);
#258=VERTEX_POINT('',#811);
#259=VERTEX_POINT('',#815);
#260=VERTEX_POINT('',#816);
#261=VERTEX_POINT('',#818);
#262=VERTEX_POINT('',#820);
#263=VERTEX_POINT('',#824);
#264=VERTEX_POINT('',#826);
#265=VERTEX_POINT('',#830);
#266=VERTEX_POINT('',#832);
#267=VERTEX_POINT('',#836);
#268=VERTEX_POINT('',#838);
#269=VERTEX_POINT('',#842);
#270=VERTEX_POINT('',#844);
#271=VERTEX_POINT('',#851);
#272=VERTEX_POINT('',#852);
#273=VERTEX_POINT('',#854);
#274=VERTEX_POINT('',#856);
#275=VERTEX_POINT('',#860);
#276=VERTEX_POINT('',#862);
#277=VERTEX_POINT('',#866);
#278=VERTEX_POINT('',#868);
#279=VERTEX_POINT('',#872);
#280=VERTEX_POINT('',#874);
#281=VERTEX_POINT('',#878);
#282=VERTEX_POINT('',#880);
#283=VERTEX_POINT('',#887);
#284=VERTEX_POINT('',#888);
#285=VERTEX_POINT('',#890);
#286=VERTEX_POINT('',#892);
#287=VERTEX_POINT('',#896);
#288=VERTEX_POINT('',#898);
#289=VERTEX_POINT('',#902);
#290=VERTEX_POINT('',#904);
#291=VERTEX_POINT('',#908);
#292=VERTEX_POINT('',#910);
#293=VERTEX_POINT('',#914);
#294=VERTEX_POINT('',#916);
#295=VERTEX_POINT('',#923);
#296=VERTEX_POINT('',#925);
#297=EDGE_CURVE('',#245,#246,#97,.T.);
#298=EDGE_CURVE('',#246,#247,#98,.T.);
#299=EDGE_CURVE('',#248,#247,#99,.T.);
#300=EDGE_CURVE('',#245,#248,#100,.T.);
#301=EDGE_CURVE('',#249,#245,#101,.T.);
#302=EDGE_CURVE('',#250,#248,#102,.T.);
#303=EDGE_CURVE('',#249,#250,#103,.T.);
#304=EDGE_CURVE('',#251,#249,#104,.T.);
#305=EDGE_CURVE('',#252,#250,#105,.T.);
#306=EDGE_CURVE('',#251,#252,#106,.T.);
#307=EDGE_CURVE('',#253,#251,#107,.T.);
#308=EDGE_CURVE('',#254,#252,#108,.T.);
#309=EDGE_CURVE('',#253,#254,#109,.T.);
#310=EDGE_CURVE('',#255,#253,#110,.T.);
#311=EDGE_CURVE('',#256,#254,#111,.T.);
#312=EDGE_CURVE('',#255,#256,#112,.T.);
#313=EDGE_CURVE('',#246,#255,#113,.T.);
#314=EDGE_CURVE('',#247,#256,#114,.T.);
#315=EDGE_CURVE('',#257,#257,#25,.T.);
#316=EDGE_CURVE('',#257,#258,#115,.T.);
#317=EDGE_CURVE('',#258,#258,#26,.T.);
#318=EDGE_CURVE('',#259,#260,#116,.T.);
#319=EDGE_CURVE('',#260,#261,#117,.T.);
#320=EDGE_CURVE('',#262,#261,#118,.T.);
#321=EDGE_CURVE('',#259,#262,#119,.T.);
#322=EDGE_CURVE('',#263,#259,#120,.T.);
#323=EDGE_CURVE('',#264,#262,#121,.T.);
#324=EDGE_CURVE('',#263,#264,#122,.T.);
#325=EDGE_CURVE('',#265,#263,#123,.T.);
#326=EDGE_CURVE('',#266,#264,#124,.T.);
#327=EDGE_CURVE('',#265,#266,#125,.T.);
#328=EDGE_CURVE('',#267,#265,#126,.T.);
#329=EDGE_CURVE('',#268,#266,#127,.T.);
#330=EDGE_CURVE('',#267,#268,#128,.T.);
#331=EDGE_CURVE('',#269,#267,#129,.T.);
#332=EDGE_CURVE('',#270,#268,#130,.T.);
#333=EDGE_CURVE('',#269,#270,#131,.T.);
#334=EDGE_CURVE('',#260,#269,#132,.T.);
#335=EDGE_CURVE('',#261,#270,#133,.T.);
#336=EDGE_CURVE('',#271,#272,#134,.T.);
#337=EDGE_CURVE('',#272,#273,#135,.T.);
#338=EDGE_CURVE('',#274,#273,#136,.T.);
#339=EDGE_CURVE('',#271,#274,#137,.T.);
#340=EDGE_CURVE('',#275,#271,#138,.T.);
#341=EDGE_CURVE('',#276,#274,#139,.T.);
#342=EDGE_CURVE('',#275,#276,#140,.T.);
#343=EDGE_CURVE('',#277,#275,#141,.T.);
#344=EDGE_CURVE('',#278,#276,#142,.T.);
#345=EDGE_CURVE('',#277,#278,#143,.T.);
#346=EDGE_CURVE('',#279,#277,#144,.T.);
#347=EDGE_CURVE('',#280,#278,#145,.T.);
#348=EDGE_CURVE('',#279,#280,#146,.T.);
#349=EDGE_CURVE('',#281,#279,#147,.T.);
#350=EDGE_CURVE('',#282,#280,#148,.T.);
#351=EDGE_CURVE('',#281,#282,#149,.T.);
#352=EDGE_CURVE('',#272,#281,#150,.T.);
#353=EDGE_CURVE('',#273,#282,#151,.T.);
#354=EDGE_CURVE('',#283,#284,#152,.T.);
#355=EDGE_CURVE('',#284,#285,#153,.T.);
#356=EDGE_CURVE('',#286,#285,#154,.T.);
#357=EDGE_CURVE('',#283,#286,#155,.T.);
#358=EDGE_CURVE('',#287,#283,#156,.T.);
#359=EDGE_CURVE('',#288,#286,#157,.T.);
#360=EDGE_CURVE('',#287,#288,#158,.T.);
#361=EDGE_CURVE('',#289,#287,#159,.T.);
#362=EDGE_CURVE('',#290,#288,#160,.T.);
#363=EDGE_CURVE('',#289,#290,#161,.T.);
#364=EDGE_CURVE('',#291,#289,#162,.T.);
#365=EDGE_CURVE('',#292,#290,#163,.T.);
#366=EDGE_CURVE('',#291,#292,#164,.T.);
#367=EDGE_CURVE('',#293,#291,#165,.T.);
#368=EDGE_CURVE('',#294,#292,#166,.T.);
#369=EDGE_CURVE('',#293,#294,#167,.T.);
#370=EDGE_CURVE('',#284,#293,#168,.T.);
#371=EDGE_CURVE('',#285,#294,#169,.T.);
#372=EDGE_CURVE('',#295,#295,#27,.T.);
#373=EDGE_CURVE('',#295,#296,#170,.T.);
#374=EDGE_CURVE('',#296,#296,#28,.T.);
#375=ORIENTED_EDGE('',*,*,#297,.T.);
#376=ORIENTED_EDGE('',*,*,#298,.T.);
#377=ORIENTED_EDGE('',*,*,#299,.F.);
#378=ORIENTED_EDGE('',*,*,#300,.F.);
#379=ORIENTED_EDGE('',*,*,#301,.T.);
#380=ORIENTED_EDGE('',*,*,#300,.T.);
#381=ORIENTED_EDGE('',*,*,#302,.F.);
#382=ORIENTED_EDGE('',*,*,#303,.F.);
#383=ORIENTED_EDGE('',*,*,#304,.T.);
#384=ORIENTED_EDGE('',*,*,#303,.T.);
#385=ORIENTED_EDGE('',*,*,#305,.F.);
#386=ORIENTED_EDGE('',*,*,#306,.F.);
#387=ORIENTED_EDGE('',*,*,#307,.T.);
#388=ORIENTED_EDGE('',*,*,#306,.T.);
#389=ORIENTED_EDGE('',*,*,#308,.F.);
#390=ORIENTED_EDGE('',*,*,#309,.F.);
#391=ORIENTED_EDGE('',*,*,#310,.T.);
#392=ORIENTED_EDGE('',*,*,#309,.T.);
#393=ORIENTED_EDGE('',*,*,#311,.F.);
#394=ORIENTED_EDGE('',*,*,#312,.F.);
#395=ORIENTED_EDGE('',*,*,#313,.T.);
#396=ORIENTED_EDGE('',*,*,#312,.T.);
#397=ORIENTED_EDGE('',*,*,#314,.F.);
#398=ORIENTED_EDGE('',*,*,#298,.F.);
#399=ORIENTED_EDGE('',*,*,#315,.F.);
#400=ORIENTED_EDGE('',*,*,#316,.T.);
#401=ORIENTED_EDGE('',*,*,#317,.T.);
#402=ORIENTED_EDGE('',*,*,#316,.F.);
#403=ORIENTED_EDGE('',*,*,#318,.T.);
#404=ORIENTED_EDGE('',*,*,#319,.T.);
#405=ORIENTED_EDGE('',*,*,#320,.F.);
#406=ORIENTED_EDGE('',*,*,#321,.F.);
#407=ORIENTED_EDGE('',*,*,#322,.T.);
#408=ORIENTED_EDGE('',*,*,#321,.T.);
#409=ORIENTED_EDGE('',*,*,#323,.F.);
#410=ORIENTED_EDGE('',*,*,#324,.F.);
#411=ORIENTED_EDGE('',*,*,#325,.T.);
#412=ORIENTED_EDGE('',*,*,#324,.T.);
#413=ORIENTED_EDGE('',*,*,#326,.F.);
#414=ORIENTED_EDGE('',*,*,#327,.F.);
#415=ORIENTED_EDGE('',*,*,#328,.T.);
#416=ORIENTED_EDGE('',*,*,#327,.T.);
#417=ORIENTED_EDGE('',*,*,#329,.F.);
#418=ORIENTED_EDGE('',*,*,#330,.F.);
#419=ORIENTED_EDGE('',*,*,#331,.T.);
#420=ORIENTED_EDGE('',*,*,#330,.T.);
#421=ORIENTED_EDGE('',*,*,#332,.F.);
#422=ORIENTED_EDGE('',*,*,#333,.F.);
#423=ORIENTED_EDGE('',*,*,#334,.T.);
#424=ORIENTED_EDGE('',*,*,#333,.T.);
#425=ORIENTED_EDGE('',*,*,#335,.F.);
#426=ORIENTED_EDGE('',*,*,#319,.F.);
#427=ORIENTED_EDGE('',*,*,#336,.T.);
#428=ORIENTED_EDGE('',*,*,#337,.T.);
#429=ORIENTED_EDGE('',*,*,#338,.F.);
#430=ORIENTED_EDGE('',*,*,#339,.F.);
#431=ORIENTED_EDGE('',*,*,#340,.T.);
#432=ORIENTED_EDGE('',*,*,#339,.T.);
#433=ORIENTED_EDGE('',*,*,#341,.F.);
#434=ORIENTED_EDGE('',*,*,#342,.F.);
#435=ORIENTED_EDGE('',*,*,#343,.T.);
#436=ORIENTED_EDGE('',*,*,#342,.T.);
#437=ORIENTED_EDGE('',*,*,#344,.F.);
#438=ORIENTED_EDGE('',*,*,#345,.F.);
#439=ORIENTED_EDGE('',*,*,#346,.T.);
#440=ORIENTED_EDGE('',*,*,#345,.T.);
#441=ORIENTED_EDGE('',*,*,#347,.F.);
#442=ORIENTED_EDGE('',*,*,#348,.F.);
#443=ORIENTED_EDGE('',*,*,#349,.T.);
#444=ORIENTED_EDGE('',*,*,#348,.T.);
#445=ORIENTED_EDGE('',*,*,#350,.F.);
#446=ORIENTED_EDGE('',*,*,#351,.F.);
#447=ORIENTED_EDGE('',*,*,#352,.T.);
#448=ORIENTED_EDGE('',*,*,#351,.T.);
#449=ORIENTED_EDGE('',*,*,#353,.F.);
#450=ORIENTED_EDGE('',*,*,#337,.F.);
#451=ORIENTED_EDGE('',*,*,#354,.T.);
#452=ORIENTED_EDGE('',*,*,#355,.T.);
#453=ORIENTED_EDGE('',*,*,#356,.F.);
#454=ORIENTED_EDGE('',*,*,#357,.F.);
#455=ORIENTED_EDGE('',*,*,#358,.T.);
#456=ORIENTED_EDGE('',*,*,#357,.T.);
#457=ORIENTED_EDGE('',*,*,#359,.F.);
#458=ORIENTED_EDGE('',*,*,#360,.F.);
#459=ORIENTED_EDGE('',*,*,#361,.T.);
#460=ORIENTED_EDGE('',*,*,#360,.T.);
#461=ORIENTED_EDGE('',*,*,#362,.F.);
#462=ORIENTED_EDGE('',*,*,#363,.F.);
#463=ORIENTED_EDGE('',*,*,#364,.T.);
#464=ORIENTED_EDGE('',*,*,#363,.T.);
#465=ORIENTED_EDGE('',*,*,#365,.F.);
#466=ORIENTED_EDGE('',*,*,#366,.F.);
#467=ORIENTED_EDGE('',*,*,#367,.T.);
#468=ORIENTED_EDGE('',*,*,#366,.T.);
#469=ORIENTED_EDGE('',*,*,#368,.F.);
#470=ORIENTED_EDGE('',*,*,#369,.F.);
#471=ORIENTED_EDGE('',*,*,#370,.T.);
#472=ORIENTED_EDGE('',*,*,#369,.T.);
#473=ORIENTED_EDGE('',*,*,#371,.F.);
#474=ORIENTED_EDGE('',*,*,#355,.F.);
#475=ORIENTED_EDGE('',*,*,#372,.F.);
#476=ORIENTED_EDGE('',*,*,#373,.T.);
#477=ORIENTED_EDGE('',*,*,#374,.T.);
#478=ORIENTED_EDGE('',*,*,#373,.F.);
#479=ORIENTED_EDGE('',*,*,#372,.T.);
#480=ORIENTED_EDGE('',*,*,#371,.T.);
#481=ORIENTED_EDGE('',*,*,#368,.T.);
#482=ORIENTED_EDGE('',*,*,#365,.T.);
#483=ORIENTED_EDGE('',*,*,#362,.T.);
#484=ORIENTED_EDGE('',*,*,#359,.T.);
#485=ORIENTED_EDGE('',*,*,#356,.T.);
#486=ORIENTED_EDGE('',*,*,#353,.T.);
#487=ORIENTED_EDGE('',*,*,#350,.T.);
#488=ORIENTED_EDGE('',*,*,#347,.T.);
#489=ORIENTED_EDGE('',*,*,#344,.T.);
#490=ORIENTED_EDGE('',*,*,#341,.T.);
#491=ORIENTED_EDGE('',*,*,#338,.T.);
#492=ORIENTED_EDGE('',*,*,#335,.T.);
#493=ORIENTED_EDGE('',*,*,#332,.T.);
#494=ORIENTED_EDGE('',*,*,#329,.T.);
#495=ORIENTED_EDGE('',*,*,#326,.T.);
#496=ORIENTED_EDGE('',*,*,#323,.T.);
#497=ORIENTED_EDGE('',*,*,#320,.T.);
#498=ORIENTED_EDGE('',*,*,#315,.T.);
#499=ORIENTED_EDGE('',*,*,#314,.T.);
#500=ORIENTED_EDGE('',*,*,#311,.T.);
#501=ORIENTED_EDGE('',*,*,#308,.T.);
#502=ORIENTED_EDGE('',*,*,#305,.T.);
#503=ORIENTED_EDGE('',*,*,#302,.T.);
#504=ORIENTED_EDGE('',*,*,#299,.T.);
#505=ORIENTED_EDGE('',*,*,#374,.F.);
#506=ORIENTED_EDGE('',*,*,#370,.F.);
#507=ORIENTED_EDGE('',*,*,#354,.F.);
#508=ORIENTED_EDGE('',*,*,#358,.F.);
#509=ORIENTED_EDGE('',*,*,#361,.F.);
#510=ORIENTED_EDGE('',*,*,#364,.F.);
#511=ORIENTED_EDGE('',*,*,#367,.F.);
#512=ORIENTED_EDGE('',*,*,#352,.F.);
#513=ORIENTED_EDGE('',*,*,#336,.F.);
#514=ORIENTED_EDGE('',*,*,#340,.F.);
#515=ORIENTED_EDGE('',*,*,#343,.F.);
#516=ORIENTED_EDGE('',*,*,#346,.F.);
#517=ORIENTED_EDGE('',*,*,#349,.F.);
#518=ORIENTED_EDGE('',*,*,#334,.F.);
#519=ORIENTED_EDGE('',*,*,#318,.F.);
#520=ORIENTED_EDGE('',*,*,#322,.F.);
#521=ORIENTED_EDGE('',*,*,#325,.F.);
#522=ORIENTED_EDGE('',*,*,#328,.F.);
#523=ORIENTED_EDGE('',*,*,#331,.F.);
#524=ORIENTED_EDGE('',*,*,#317,.F.);
#525=ORIENTED_EDGE('',*,*,#313,.F.);
#526=ORIENTED_EDGE('',*,*,#297,.F.);
#527=ORIENTED_EDGE('',*,*,#301,.F.);
#528=ORIENTED_EDGE('',*,*,#304,.F.);
#529=ORIENTED_EDGE('',*,*,#307,.F.);
#530=ORIENTED_EDGE('',*,*,#310,.F.);
#531=PLANE('',#599);
#532=PLANE('',#600);
#533=PLANE('',#601);
#534=PLANE('',#602);
#535=PLANE('',#603);
#536=PLANE('',#604);
#537=PLANE('',#608);
#538=PLANE('',#609);
#539=PLANE('',#610);
#540=PLANE('',#611);
#541=PLANE('',#612);
#542=PLANE('',#613);
#543=PLANE('',#614);
#544=PLANE('',#615);
#545=PLANE('',#616);
#546=PLANE('',#617);
#547=PLANE('',#618);
#548=PLANE('',#619);
#549=PLANE('',#620);
#550=PLANE('',#621);
#551=PLANE('',#622);
#552=PLANE('',#623);
#553=PLANE('',#624);
#554=PLANE('',#625);
#555=PLANE('',#629);
#556=PLANE('',#630);
#557=ADVANCED_FACE('',(#31),#531,.T.);
#558=ADVANCED_FACE('',(#32),#532,.T.);
#559=ADVANCED_FACE('',(#33),#533,.T.);
#560=ADVANCED_FACE('',(#34),#534,.T.);
#561=ADVANCED_FACE('',(#35),#535,.T.);
#562=ADVANCED_FACE('',(#36),#536,.T.);
#563=ADVANCED_FACE('',(#37),#29,.F.);
#564=ADVANCED_FACE('',(#38),#537,.T.);
#565=ADVANCED_FACE('',(#39),#538,.T.);
#566=ADVANCED_FACE('',(#40),#539,.T.);
#567=ADVANCED_FACE('',(#41),#540,.T.);
#568=ADVANCED_FACE('',(#42),#541,.T.);
#569=ADVANCED_FACE('',(#43),#542,.T.);
#570=ADVANCED_FACE('',(#44),#543,.T.);
#571=ADVANCED_FACE('',(#45),#544,.T.);
#572=ADVANCED_FACE('',(#46),#545,.T.);
#573=ADVANCED_FACE('',(#47),#546,.T.);
#574=ADVANCED_FACE('',(#48),#547,.T.);
#575=ADVANCED_FACE('',(#49),#548,.T.);
#576=ADVANCED_FACE('',(#50),#549,.T.);
#577=ADVANCED_FACE('',(#51),#550,.T.);
#578=ADVANCED_FACE('',(#52),#551,.T.);
#579=ADVANCED_FACE('',(#53),#552,.T.);
#580=ADVANCED_FACE('',(#54),#553,.T.);
#581=ADVANCED_FACE('',(#55),#554,.T.);
#582=ADVANCED_FACE('',(#56),#30,.T.);
#583=ADVANCED_FACE('',(#57,#15,#16,#17,#18,#19),#555,.T.);
#584=ADVANCED_FACE('',(#58,#20,#21,#22,#23,#24),#556,.F.);
#585=CLOSED_SHELL('',(#557,#558,#559,#560,#561,#562,#563,#564,#565,#566,
#567,#568,#569,#570,#571,#572,#573,#574,#575,#576,#577,#578,#579,#580,#581,
#582,#583,#584));
#586=DERIVED_UNIT_ELEMENT(#588,1.);
#587=DERIVED_UNIT_ELEMENT(#935,3.);
#588=(
MASS_UNIT()
NAMED_UNIT(*)
SI_UNIT(.KILO.,.GRAM.)
);
#589=DERIVED_UNIT((#586,#587));
#590=MEASURE_REPRESENTATION_ITEM('density measure',
POSITIVE_RATIO_MEASURE(7850.),#589);
#591=PROPERTY_DEFINITION_REPRESENTATION(#596,#593);
#592=PROPERTY_DEFINITION_REPRESENTATION(#597,#594);
#593=REPRESENTATION('material name',(#595),#932);
#594=REPRESENTATION('density',(#590),#932);
#595=DESCRIPTIVE_REPRESENTATION_ITEM('Steel','Steel');
#596=PROPERTY_DEFINITION('material property','material name',#942);
#597=PROPERTY_DEFINITION('material property','density of part',#942);
#598=AXIS2_PLACEMENT_3D('placement',#771,#631,#632);
#599=AXIS2_PLACEMENT_3D('',#772,#633,#634);
#600=AXIS2_PLACEMENT_3D('',#781,#639,#640);
#601=AXIS2_PLACEMENT_3D('',#787,#644,#645);
#602=AXIS2_PLACEMENT_3D('',#793,#649,#650);
#603=AXIS2_PLACEMENT_3D('',#799,#654,#655);
#604=AXIS2_PLACEMENT_3D('',#805,#659,#660);
#605=AXIS2_PLACEMENT_3D('',#808,#663,#664);
#606=AXIS2_PLACEMENT_3D('',#810,#665,#666);
#607=AXIS2_PLACEMENT_3D('',#813,#668,#669);
#608=AXIS2_PLACEMENT_3D('',#814,#670,#671);
#609=AXIS2_PLACEMENT_3D('',#823,#676,#677);
#610=AXIS2_PLACEMENT_3D('',#829,#681,#682);
#611=AXIS2_PLACEMENT_3D('',#835,#686,#687);
#612=AXIS2_PLACEMENT_3D('',#841,#691,#692);
#613=AXIS2_PLACEMENT_3D('',#847,#696,#697);
#614=AXIS2_PLACEMENT_3D('',#850,#700,#701);
#615=AXIS2_PLACEMENT_3D('',#859,#706,#707);
#616=AXIS2_PLACEMENT_3D('',#865,#711,#712);
#617=AXIS2_PLACEMENT_3D('',#871,#716,#717);
#618=AXIS2_PLACEMENT_3D('',#877,#721,#722);
#619=AXIS2_PLACEMENT_3D('',#883,#726,#727);
#620=AXIS2_PLACEMENT_3D('',#886,#730,#731);
#621=AXIS2_PLACEMENT_3D('',#895,#736,#737);
#622=AXIS2_PLACEMENT_3D('',#901,#741,#742);
#623=AXIS2_PLACEMENT_3D('',#907,#746,#747);
#624=AXIS2_PLACEMENT_3D('',#913,#751,#752);
#625=AXIS2_PLACEMENT_3D('',#919,#756,#757);
#626=AXIS2_PLACEMENT_3D('',#922,#760,#761);
#627=AXIS2_PLACEMENT_3D('',#924,#762,#763);
#628=AXIS2_PLACEMENT_3D('',#927,#765,#766);
#629=AXIS2_PLACEMENT_3D('',#928,#767,#768);
#630=AXIS2_PLACEMENT_3D('',#929,#769,#770);
#631=DIRECTION('axis',(0.,0.,1.));
#632=DIRECTION('refdir',(1.,0.,0.));
#633=DIRECTION('center_axis',(-0.965305825064791,-0.213216715489337,0.150742483500576));
#634=DIRECTION('ref_axis',(0.261121933387416,-0.788211602116446,0.557259191214504));
#635=DIRECTION('',(0.261121933387416,-0.788211602116446,0.557259191214504));
#636=DIRECTION('',(0.,0.577287712085547,0.816540811885747));
#637=DIRECTION('',(0.261121933387416,-0.788211602116446,0.557259191214504));
#638=DIRECTION('',(0.,0.577287712085547,0.816540811885747));
#639=DIRECTION('center_axis',(-0.256514684733581,-0.789219628735144,0.557971857834419));
#640=DIRECTION('ref_axis',(0.966540333620916,-0.209454708932974,0.148082775466194));
#641=DIRECTION('',(0.966540333620916,-0.209454708932974,0.148082775466194));
#642=DIRECTION('',(0.966540333620916,-0.209454708932974,0.148082775466194));
#643=DIRECTION('',(0.,0.577287712085547,0.816540811885747));
#644=DIRECTION('center_axis',(0.708791140331209,-0.576002913245803,0.407229374333841));
#645=DIRECTION('ref_axis',(0.705418400233495,0.57875689318347,-0.40917641574831));
#646=DIRECTION('',(0.705418400233495,0.57875689318347,-0.40917641574831));
#647=DIRECTION('',(0.705418400233495,0.57875689318347,-0.40917641574831));
#648=DIRECTION('',(0.,0.577287712085547,0.816540811885747));
#649=DIRECTION('center_axis',(0.965305825064792,0.213216715489336,-0.150742483500576));
#650=DIRECTION('ref_axis',(-0.261121933387416,0.788211602116446,-0.557259191214504));
#651=DIRECTION('',(-0.261121933387416,0.788211602116446,-0.557259191214504));
#652=DIRECTION('',(-0.261121933387416,0.788211602116446,-0.557259191214504));
#653=DIRECTION('',(0.,0.577287712085547,0.816540811885747));
#654=DIRECTION('center_axis',(0.256514684733583,0.789219628735143,-0.557971857834419));
#655=DIRECTION('ref_axis',(-0.966540333620916,0.209454708932976,-0.148082775466195));
#656=DIRECTION('',(-0.966540333620916,0.209454708932976,-0.148082775466195));
#657=DIRECTION('',(-0.966540333620916,0.209454708932976,-0.148082775466195));
#658=DIRECTION('',(0.,0.577287712085547,0.816540811885747));
#659=DIRECTION('center_axis',(-0.70879114033121,0.576002913245803,-0.40722937433384));
#660=DIRECTION('ref_axis',(-0.705418400233495,-0.578756893183471,0.40917641574831));
#661=DIRECTION('',(-0.705418400233495,-0.578756893183471,0.40917641574831));
#662=DIRECTION('',(-0.705418400233495,-0.578756893183471,0.40917641574831));
#663=DIRECTION('center_axis',(0.,0.577287712085547,0.816540811885747));
#664=DIRECTION('ref_axis',(1.,9.87176318057963E-17,-6.97925626963585E-17));
#665=DIRECTION('center_axis',(-1.71002482365617E-16,-0.577287712085547,
-0.816540811885747));
#666=DIRECTION('ref_axis',(1.,2.95822839457879E-31,-2.09423068481657E-16));
#667=DIRECTION('',(0.,-0.577287712085547,-0.816540811885747));
#668=DIRECTION('center_axis',(-1.71002482365617E-16,-0.577287712085547,
-0.816540811885747));
#669=DIRECTION('ref_axis',(1.,2.95822839457879E-31,-2.09423068481657E-16));
#670=DIRECTION('center_axis',(-0.70879114033121,-0.576002913245803,0.40722937433384));
#671=DIRECTION('ref_axis',(0.705418400233495,-0.578756893183471,0.40917641574831));
#672=DIRECTION('',(0.705418400233495,-0.578756893183471,0.40917641574831));
#673=DIRECTION('',(0.,0.577287712085547,0.816540811885747));
#674=DIRECTION('',(0.705418400233495,-0.578756893183471,0.40917641574831));
#675=DIRECTION('',(0.,0.577287712085547,0.816540811885747));
#676=DIRECTION('center_axis',(0.256514684733581,-0.789219628735144,0.557971857834419));
#677=DIRECTION('ref_axis',(0.966540333620916,0.209454708932974,-0.148082775466194));
#678=DIRECTION('',(0.966540333620916,0.209454708932974,-0.148082775466194));
#679=DIRECTION('',(0.966540333620916,0.209454708932974,-0.148082775466194));
#680=DIRECTION('',(0.,0.577287712085547,0.816540811885747));
#681=DIRECTION('center_axis',(0.965305825064791,-0.213216715489338,0.150742483500577));
#682=DIRECTION('ref_axis',(0.261121933387417,0.788211602116446,-0.557259191214504));
#683=DIRECTION('',(0.261121933387417,0.788211602116446,-0.557259191214504));
#684=DIRECTION('',(0.261121933387417,0.788211602116446,-0.557259191214504));
#685=DIRECTION('',(0.,0.577287712085547,0.816540811885747));
#686=DIRECTION('center_axis',(0.70879114033121,0.576002913245803,-0.40722937433384));
#687=DIRECTION('ref_axis',(-0.705418400233495,0.578756893183471,-0.40917641574831));
#688=DIRECTION('',(-0.705418400233495,0.578756893183471,-0.40917641574831));
#689=DIRECTION('',(-0.705418400233495,0.578756893183471,-0.40917641574831));
#690=DIRECTION('',(0.,0.577287712085547,0.816540811885747));
#691=DIRECTION('center_axis',(-0.256514684733581,0.789219628735144,-0.557971857834419));
#692=DIRECTION('ref_axis',(-0.966540333620916,-0.209454708932974,0.148082775466194));
#693=DIRECTION('',(-0.966540333620916,-0.209454708932974,0.148082775466194));
#694=DIRECTION('',(-0.966540333620916,-0.209454708932974,0.148082775466194));
#695=DIRECTION('',(0.,0.577287712085547,0.816540811885747));
#696=DIRECTION('center_axis',(-0.965305825064791,0.213216715489338,-0.150742483500577));
#697=DIRECTION('ref_axis',(-0.261121933387417,-0.788211602116446,0.557259191214504));
#698=DIRECTION('',(-0.261121933387417,-0.788211602116446,0.557259191214504));
#699=DIRECTION('',(-0.261121933387417,-0.788211602116446,0.557259191214504));
#700=DIRECTION('center_axis',(0.965305825064791,-0.213216715489339,0.150742483500577));
#701=DIRECTION('ref_axis',(0.261121933387418,0.788211602116445,-0.557259191214504));
#702=DIRECTION('',(0.261121933387418,0.788211602116445,-0.557259191214504));
#703=DIRECTION('',(0.,0.577287712085547,0.816540811885747));
#704=DIRECTION('',(0.261121933387418,0.788211602116445,-0.557259191214504));
#705=DIRECTION('',(0.,0.577287712085547,0.816540811885747));
#706=DIRECTION('center_axis',(0.708791140331212,0.576002913245801,-0.40722937433384));
#707=DIRECTION('ref_axis',(-0.705418400233493,0.578756893183472,-0.409176415748311));
#708=DIRECTION('',(-0.705418400233493,0.578756893183472,-0.409176415748311));
#709=DIRECTION('',(-0.705418400233493,0.578756893183472,-0.409176415748311));
#710=DIRECTION('',(0.,0.577287712085547,0.816540811885747));
#711=DIRECTION('center_axis',(-0.256514684733577,0.789219628735145,-0.55797185783442));
#712=DIRECTION('ref_axis',(-0.966540333620917,-0.209454708932971,0.148082775466192));
#713=DIRECTION('',(-0.966540333620917,-0.209454708932971,0.148082775466192));
#714=DIRECTION('',(-0.966540333620917,-0.209454708932971,0.148082775466192));
#715=DIRECTION('',(0.,0.577287712085547,0.816540811885747));
#716=DIRECTION('center_axis',(-0.965305825064791,0.213216715489339,-0.150742483500578));
#717=DIRECTION('ref_axis',(-0.261121933387419,-0.788211602116445,0.557259191214504));
#718=DIRECTION('',(-0.261121933387419,-0.788211602116445,0.557259191214504));
#719=DIRECTION('',(-0.261121933387419,-0.788211602116445,0.557259191214504));
#720=DIRECTION('',(0.,0.577287712085547,0.816540811885747));
#721=DIRECTION('center_axis',(-0.708791140331211,-0.576002913245802,0.40722937433384));
#722=DIRECTION('ref_axis',(0.705418400233494,-0.578756893183472,0.409176415748311));
#723=DIRECTION('',(0.705418400233494,-0.578756893183472,0.409176415748311));
#724=DIRECTION('',(0.705418400233494,-0.578756893183472,0.409176415748311));
#725=DIRECTION('',(0.,0.577287712085547,0.816540811885747));
#726=DIRECTION('center_axis',(0.256514684733579,-0.789219628735144,0.55797185783442));
#727=DIRECTION('ref_axis',(0.966540333620917,0.209454708932973,-0.148082775466193));
#728=DIRECTION('',(0.966540333620917,0.209454708932973,-0.148082775466193));
#729=DIRECTION('',(0.966540333620917,0.209454708932973,-0.148082775466193));
#730=DIRECTION('center_axis',(0.256514684733585,0.789219628735143,-0.557971857834419));
#731=DIRECTION('ref_axis',(-0.966540333620915,0.209454708932978,-0.148082775466196));
#732=DIRECTION('',(-0.966540333620915,0.209454708932978,-0.148082775466196));
#733=DIRECTION('',(0.,0.577287712085547,0.816540811885747));
#734=DIRECTION('',(-0.966540333620915,0.209454708932978,-0.148082775466196));
#735=DIRECTION('',(0.,0.577287712085547,0.816540811885747));
#736=DIRECTION('center_axis',(-0.708791140331207,0.576002913245805,-0.407229374333842));
#737=DIRECTION('ref_axis',(-0.705418400233497,-0.578756893183468,0.409176415748308));
#738=DIRECTION('',(-0.705418400233497,-0.578756893183469,0.409176415748308));
#739=DIRECTION('',(-0.705418400233497,-0.578756893183469,0.409176415748308));
#740=DIRECTION('',(0.,0.577287712085547,0.816540811885747));
#741=DIRECTION('center_axis',(-0.965305825064792,-0.213216715489336,0.150742483500575));
#742=DIRECTION('ref_axis',(0.261121933387415,-0.788211602116446,0.557259191214505));
#743=DIRECTION('',(0.261121933387415,-0.788211602116446,0.557259191214505));
#744=DIRECTION('',(0.261121933387415,-0.788211602116446,0.557259191214505));
#745=DIRECTION('',(0.,0.577287712085547,0.816540811885747));
#746=DIRECTION('center_axis',(-0.256514684733585,-0.789219628735143,0.557971857834419));
#747=DIRECTION('ref_axis',(0.966540333620915,-0.209454708932978,0.148082775466196));
#748=DIRECTION('',(0.966540333620915,-0.209454708932978,0.148082775466196));
#749=DIRECTION('',(0.966540333620915,-0.209454708932978,0.148082775466196));
#750=DIRECTION('',(0.,0.577287712085547,0.816540811885747));
#751=DIRECTION('center_axis',(0.708791140331208,-0.576002913245805,0.407229374333842));
#752=DIRECTION('ref_axis',(0.705418400233497,0.578756893183469,-0.409176415748309));
#753=DIRECTION('',(0.705418400233497,0.578756893183469,-0.409176415748309));
#754=DIRECTION('',(0.705418400233497,0.578756893183469,-0.409176415748309));
#755=DIRECTION('',(0.,0.577287712085547,0.816540811885747));
#756=DIRECTION('center_axis',(0.965305825064792,0.213216715489336,-0.150742483500576));
#757=DIRECTION('ref_axis',(-0.261121933387416,0.788211602116446,-0.557259191214504));
#758=DIRECTION('',(-0.261121933387416,0.788211602116446,-0.557259191214504));
#759=DIRECTION('',(-0.261121933387416,0.788211602116446,-0.557259191214504));
#760=DIRECTION('center_axis',(0.,0.577287712085547,0.816540811885747));
#761=DIRECTION('ref_axis',(1.,9.87176318057962E-17,-6.97925626963585E-17));
#762=DIRECTION('center_axis',(1.71002482365617E-16,0.577287712085547,0.816540811885747));
#763=DIRECTION('ref_axis',(1.,2.95822839457879E-31,-2.09423068481657E-16));
#764=DIRECTION('',(0.,-0.577287712085547,-0.816540811885747));
#765=DIRECTION('center_axis',(1.71002482365617E-16,0.577287712085547,0.816540811885747));
#766=DIRECTION('ref_axis',(1.,2.95822839457879E-31,-2.09423068481657E-16));
#767=DIRECTION('center_axis',(1.71002482365617E-16,0.577287712085547,0.816540811885747));
#768=DIRECTION('ref_axis',(1.,2.95822839457879E-31,-2.09423068481657E-16));
#769=DIRECTION('center_axis',(1.71002482365617E-16,0.577287712085547,0.816540811885747));
#770=DIRECTION('ref_axis',(1.,2.95822839457879E-31,-2.09423068481657E-16));
#771=CARTESIAN_POINT('',(0.,0.,0.));
#772=CARTESIAN_POINT('Origin',(11.7140538788898,36.0976088350454,-6.16166237450511));
#773=CARTESIAN_POINT('',(11.7140538788898,36.0976088350454,-6.16166237450511));
#774=CARTESIAN_POINT('',(12.2885221323421,34.3635433103893,-4.9356921538332));
#775=CARTESIAN_POINT('',(11.7140538788898,36.0976088350454,-6.16166237450511));
#776=CARTESIAN_POINT('',(12.2885221323421,35.2294748785176,-3.71088093600458));
#777=CARTESIAN_POINT('',(12.2885221323421,34.3635433103893,-4.9356921538332));
#778=CARTESIAN_POINT('',(11.7140538788898,36.9635404031738,-4.93685115667649));
#779=CARTESIAN_POINT('',(11.7140538788898,36.9635404031738,-4.93685115667649));
#780=CARTESIAN_POINT('',(11.7140538788898,36.0976088350454,-6.16166237450511));
#781=CARTESIAN_POINT('Origin',(9.5876651449238,36.558409194698,-6.48744448053074));
#782=CARTESIAN_POINT('',(9.5876651449238,36.558409194698,-6.48744448053074));
#783=CARTESIAN_POINT('',(9.5876651449238,36.558409194698,-6.48744448053074));
#784=CARTESIAN_POINT('',(9.5876651449238,37.4243407628263,-5.26263326270212));
#785=CARTESIAN_POINT('',(9.5876651449238,37.4243407628263,-5.26263326270212));
#786=CARTESIAN_POINT('',(9.5876651449238,36.558409194698,-6.48744448053074));
#787=CARTESIAN_POINT('Origin',(8.03574466441012,35.2851440296944,-5.58725636588446));
#788=CARTESIAN_POINT('',(8.03574466441012,35.2851440296944,-5.58725636588446));
#789=CARTESIAN_POINT('',(8.03574466441012,35.2851440296944,-5.58725636588446));
#790=CARTESIAN_POINT('',(8.03574466441012,36.1510755978227,-4.36244514805584));
#791=CARTESIAN_POINT('',(8.03574466441012,36.1510755978227,-4.36244514805584));
#792=CARTESIAN_POINT('',(8.03574466441012,35.2851440296944,-5.58725636588446));
#793=CARTESIAN_POINT('Origin',(8.61021291786243,33.5510785050382,-4.36128614521255));
#794=CARTESIAN_POINT('',(8.61021291786243,33.5510785050382,-4.36128614521255));
#795=CARTESIAN_POINT('',(8.61021291786243,33.5510785050382,-4.36128614521255));
#796=CARTESIAN_POINT('',(8.61021291786243,34.4170100731665,-3.13647492738393));
#797=CARTESIAN_POINT('',(8.61021291786243,34.4170100731665,-3.13647492738393));
#798=CARTESIAN_POINT('',(8.61021291786243,33.5510785050382,-4.36128614521255));
#799=CARTESIAN_POINT('Origin',(10.7366016518285,33.0902781453856,-4.03550403918692));
#800=CARTESIAN_POINT('',(10.7366016518285,33.0902781453856,-4.03550403918692));
#801=CARTESIAN_POINT('',(10.7366016518285,33.0902781453856,-4.03550403918692));
#802=CARTESIAN_POINT('',(10.7366016518285,33.9562097135139,-2.8106928213583));
#803=CARTESIAN_POINT('',(10.7366016518285,33.9562097135139,-2.8106928213583));
#804=CARTESIAN_POINT('',(10.7366016518285,33.0902781453856,-4.03550403918692));
#805=CARTESIAN_POINT('Origin',(12.2885221323421,34.3635433103893,-4.9356921538332));
#806=CARTESIAN_POINT('',(12.2885221323421,34.3635433103893,-4.9356921538332));
#807=CARTESIAN_POINT('',(12.2885221323421,35.2294748785176,-3.71088093600458));
#808=CARTESIAN_POINT('Origin',(20.7687351161744,26.1636204920421,0.861586578811495));
#809=CARTESIAN_POINT('',(17.7687351161744,27.0295520601705,2.08639779664011));
#810=CARTESIAN_POINT('Origin',(20.7687351161744,27.0295520601705,2.08639779664012));
#811=CARTESIAN_POINT('',(17.7687351161744,26.1636204920421,0.861586578811495));
#812=CARTESIAN_POINT('',(17.7687351161744,26.1636204920421,0.861586578811496));
#813=CARTESIAN_POINT('Origin',(20.7687351161744,26.1636204920421,0.861586578811495));
#814=CARTESIAN_POINT('Origin',(31.9498050874249,36.558409194698,-6.48744448053074));
#815=CARTESIAN_POINT('',(31.9498050874249,36.558409194698,-6.48744448053074));
#816=CARTESIAN_POINT('',(33.5017255679386,35.2851440296944,-5.58725636588446));
#817=CARTESIAN_POINT('',(33.5017255679386,35.2851440296944,-5.58725636588446));
#818=CARTESIAN_POINT('',(33.5017255679386,36.1510755978227,-4.36244514805584));
#819=CARTESIAN_POINT('',(33.5017255679386,35.2851440296944,-5.58725636588446));
#820=CARTESIAN_POINT('',(31.9498050874249,37.4243407628263,-5.26263326270212));
#821=CARTESIAN_POINT('',(33.5017255679386,36.1510755978227,-4.36244514805584));
#822=CARTESIAN_POINT('',(31.9498050874249,36.558409194698,-6.48744448053074));
#823=CARTESIAN_POINT('Origin',(29.8234163534589,36.0976088350454,-6.16166237450511));
#824=CARTESIAN_POINT('',(29.8234163534589,36.0976088350454,-6.16166237450511));
#825=CARTESIAN_POINT('',(31.9498050874249,36.558409194698,-6.48744448053074));
#826=CARTESIAN_POINT('',(29.8234163534589,36.9635404031738,-4.93685115667649));
#827=CARTESIAN_POINT('',(31.9498050874249,37.4243407628263,-5.26263326270212));
#828=CARTESIAN_POINT('',(29.8234163534589,36.0976088350454,-6.16166237450511));
#829=CARTESIAN_POINT('Origin',(29.2489481000066,34.3635433103893,-4.93569215383321));
#830=CARTESIAN_POINT('',(29.2489481000066,34.3635433103893,-4.9356921538332));
#831=CARTESIAN_POINT('',(29.8234163534589,36.0976088350454,-6.16166237450511));
#832=CARTESIAN_POINT('',(29.2489481000066,35.2294748785176,-3.71088093600458));
#833=CARTESIAN_POINT('',(29.8234163534589,36.9635404031738,-4.93685115667649));
#834=CARTESIAN_POINT('',(29.2489481000066,34.3635433103893,-4.9356921538332));
#835=CARTESIAN_POINT('Origin',(30.8008685805203,33.0902781453856,-4.03550403918692));
#836=CARTESIAN_POINT('',(30.8008685805203,33.0902781453856,-4.03550403918692));
#837=CARTESIAN_POINT('',(29.2489481000066,34.3635433103893,-4.9356921538332));
#838=CARTESIAN_POINT('',(30.8008685805203,33.9562097135139,-2.8106928213583));
#839=CARTESIAN_POINT('',(29.2489481000066,35.2294748785176,-3.71088093600458));
#840=CARTESIAN_POINT('',(30.8008685805203,33.0902781453856,-4.03550403918692));
#841=CARTESIAN_POINT('Origin',(32.9272573144863,33.5510785050382,-4.36128614521255));
#842=CARTESIAN_POINT('',(32.9272573144863,33.5510785050382,-4.36128614521255));
#843=CARTESIAN_POINT('',(30.8008685805203,33.0902781453856,-4.03550403918692));
#844=CARTESIAN_POINT('',(32.9272573144863,34.4170100731665,-3.13647492738393));
#845=CARTESIAN_POINT('',(30.8008685805203,33.9562097135139,-2.8106928213583));
#846=CARTESIAN_POINT('',(32.9272573144863,33.5510785050382,-4.36128614521255));
#847=CARTESIAN_POINT('Origin',(33.5017255679386,35.2851440296944,-5.58725636588446));
#848=CARTESIAN_POINT('',(32.9272573144863,33.5510785050382,-4.36128614521255));
#849=CARTESIAN_POINT('',(32.9272573144863,34.4170100731665,-3.13647492738393));
#850=CARTESIAN_POINT('Origin',(8.03574466441008,17.0420969543899,7.31042952350744));
#851=CARTESIAN_POINT('',(8.03574466441008,17.0420969543899,7.31042952350744));
#852=CARTESIAN_POINT('',(8.6102129178624,18.7761624790461,6.08445930283553));
#853=CARTESIAN_POINT('',(8.6102129178624,18.7761624790461,6.08445930283553));
#854=CARTESIAN_POINT('',(8.61021291786241,19.6420940471744,7.30927052066415));
#855=CARTESIAN_POINT('',(8.6102129178624,18.7761624790461,6.08445930283553));
#856=CARTESIAN_POINT('',(8.03574466441008,17.9080285225183,8.53524074133606));
#857=CARTESIAN_POINT('',(8.6102129178624,19.6420940471744,7.30927052066415));
#858=CARTESIAN_POINT('',(8.03574466441008,17.0420969543899,7.31042952350744));
#859=CARTESIAN_POINT('Origin',(9.58766514492376,15.7688317893863,8.21061763815372));
#860=CARTESIAN_POINT('',(9.58766514492376,15.7688317893863,8.21061763815372));
#861=CARTESIAN_POINT('',(8.03574466441008,17.0420969543899,7.31042952350744));
#862=CARTESIAN_POINT('',(9.58766514492376,16.6347633575146,9.43542885598234));
#863=CARTESIAN_POINT('',(8.03574466441008,17.9080285225183,8.53524074133606));
#864=CARTESIAN_POINT('',(9.58766514492376,15.7688317893863,8.21061763815372));
#865=CARTESIAN_POINT('Origin',(11.7140538788898,16.2296321490388,7.88483553212809));
#866=CARTESIAN_POINT('',(11.7140538788898,16.2296321490388,7.88483553212809));
#867=CARTESIAN_POINT('',(9.58766514492376,15.7688317893863,8.21061763815372));
#868=CARTESIAN_POINT('',(11.7140538788898,17.0955637171672,9.10964674995672));
#869=CARTESIAN_POINT('',(9.58766514492376,16.6347633575146,9.43542885598234));
#870=CARTESIAN_POINT('',(11.7140538788898,16.2296321490388,7.88483553212809));
#871=CARTESIAN_POINT('Origin',(12.2885221323421,17.963697673695,6.65886531145618));
#872=CARTESIAN_POINT('',(12.2885221323421,17.963697673695,6.65886531145618));
#873=CARTESIAN_POINT('',(11.7140538788898,16.2296321490388,7.88483553212809));
#874=CARTESIAN_POINT('',(12.2885221323421,18.8296292418234,7.88367652928481));
#875=CARTESIAN_POINT('',(11.7140538788898,17.0955637171672,9.10964674995672));
#876=CARTESIAN_POINT('',(12.2885221323421,17.963697673695,6.65886531145618));
#877=CARTESIAN_POINT('Origin',(10.7366016518284,19.2369628386987,5.7586771968099));
#878=CARTESIAN_POINT('',(10.7366016518284,19.2369628386987,5.7586771968099));
#879=CARTESIAN_POINT('',(12.2885221323421,17.963697673695,6.65886531145618));
#880=CARTESIAN_POINT('',(10.7366016518284,20.102894406827,6.98348841463852));
#881=CARTESIAN_POINT('',(12.2885221323421,18.8296292418233,7.88367652928481));
#882=CARTESIAN_POINT('',(10.7366016518284,19.2369628386987,5.7586771968099));
#883=CARTESIAN_POINT('Origin',(8.6102129178624,18.7761624790461,6.08445930283553));
#884=CARTESIAN_POINT('',(10.7366016518284,19.2369628386987,5.7586771968099));
#885=CARTESIAN_POINT('',(10.7366016518284,20.102894406827,6.98348841463852));
#886=CARTESIAN_POINT('Origin',(31.9498050874249,15.7688317893863,8.21061763815376));
#887=CARTESIAN_POINT('',(31.9498050874249,15.7688317893863,8.21061763815376));
#888=CARTESIAN_POINT('',(29.8234163534589,16.2296321490388,7.88483553212812));
#889=CARTESIAN_POINT('',(31.9498050874249,15.7688317893863,8.21061763815376));
#890=CARTESIAN_POINT('',(29.8234163534589,17.0955637171671,9.10964674995674));
#891=CARTESIAN_POINT('',(29.8234163534589,16.2296321490388,7.88483553212812));
#892=CARTESIAN_POINT('',(31.9498050874249,16.6347633575146,9.43542885598238));
#893=CARTESIAN_POINT('',(31.9498050874249,16.6347633575146,9.43542885598238));
#894=CARTESIAN_POINT('',(31.9498050874249,15.7688317893863,8.21061763815376));
#895=CARTESIAN_POINT('Origin',(33.5017255679386,17.0420969543899,7.31042952350748));
#896=CARTESIAN_POINT('',(33.5017255679386,17.0420969543899,7.31042952350748));
#897=CARTESIAN_POINT('',(33.5017255679386,17.0420969543899,7.31042952350748));
#898=CARTESIAN_POINT('',(33.5017255679386,17.9080285225182,8.5352407413361));
#899=CARTESIAN_POINT('',(33.5017255679386,17.9080285225182,8.5352407413361));
#900=CARTESIAN_POINT('',(33.5017255679386,17.0420969543899,7.31042952350748));
#901=CARTESIAN_POINT('Origin',(32.9272573144863,18.7761624790461,6.08445930283557));
#902=CARTESIAN_POINT('',(32.9272573144863,18.7761624790461,6.08445930283557));
#903=CARTESIAN_POINT('',(32.9272573144863,18.7761624790461,6.08445930283557));
#904=CARTESIAN_POINT('',(32.9272573144863,19.6420940471744,7.30927052066419));
#905=CARTESIAN_POINT('',(32.9272573144863,19.6420940471744,7.30927052066419));
#906=CARTESIAN_POINT('',(32.9272573144863,18.7761624790461,6.08445930283557));
#907=CARTESIAN_POINT('Origin',(30.8008685805203,19.2369628386986,5.75867719680993));
#908=CARTESIAN_POINT('',(30.8008685805203,19.2369628386986,5.75867719680993));
#909=CARTESIAN_POINT('',(30.8008685805203,19.2369628386986,5.75867719680993));
#910=CARTESIAN_POINT('',(30.8008685805203,20.1028944068269,6.98348841463855));
#911=CARTESIAN_POINT('',(30.8008685805203,20.1028944068269,6.98348841463855));
#912=CARTESIAN_POINT('',(30.8008685805203,19.2369628386986,5.75867719680993));
#913=CARTESIAN_POINT('Origin',(29.2489481000066,17.963697673695,6.65886531145621));
#914=CARTESIAN_POINT('',(29.2489481000066,17.963697673695,6.65886531145621));
#915=CARTESIAN_POINT('',(29.2489481000066,17.963697673695,6.65886531145621));
#916=CARTESIAN_POINT('',(29.2489481000066,18.8296292418233,7.88367652928483));
#917=CARTESIAN_POINT('',(29.2489481000066,18.8296292418233,7.88367652928483));
#918=CARTESIAN_POINT('',(29.2489481000066,17.963697673695,6.65886531145621));
#919=CARTESIAN_POINT('Origin',(29.8234163534589,16.2296321490388,7.88483553212812));
#920=CARTESIAN_POINT('',(29.8234163534589,16.2296321490388,7.88483553212812));
#921=CARTESIAN_POINT('',(29.8234163534589,17.0955637171671,9.10964674995674));
#922=CARTESIAN_POINT('Origin',(20.7687351161744,26.1636204920421,0.861586578811495));
#923=CARTESIAN_POINT('',(3.00527914888375,27.0295520601705,2.08639779664012));
#924=CARTESIAN_POINT('Origin',(20.7687351161744,27.0295520601705,2.08639779664012));
#925=CARTESIAN_POINT('',(3.00527914888375,26.1636204920421,0.8615865788115));
#926=CARTESIAN_POINT('',(3.00527914888375,26.1636204920421,0.861586578811498));
#927=CARTESIAN_POINT('Origin',(20.7687351161744,26.1636204920421,0.861586578811495));
#928=CARTESIAN_POINT('Origin',(20.7687351161744,27.0295520601705,2.08639779664012));
#929=CARTESIAN_POINT('Origin',(20.7687351161744,26.1636204920421,0.861586578811495));
#930=UNCERTAINTY_MEASURE_WITH_UNIT(LENGTH_MEASURE(0.01),#934,
'DISTANCE_ACCURACY_VALUE',
'Maximum model space distance between geometric entities at asserted c
onnectivities');
#931=UNCERTAINTY_MEASURE_WITH_UNIT(LENGTH_MEASURE(0.01),#934,
'DISTANCE_ACCURACY_VALUE',
'Maximum model space distance between geometric entities at asserted c
onnectivities');
#932=(
GEOMETRIC_REPRESENTATION_CONTEXT(3)
GLOBAL_UNCERTAINTY_ASSIGNED_CONTEXT((#930))
GLOBAL_UNIT_ASSIGNED_CONTEXT((#934,#937,#936))
REPRESENTATION_CONTEXT('','3D')
);
#933=(
GEOMETRIC_REPRESENTATION_CONTEXT(3)
GLOBAL_UNCERTAINTY_ASSIGNED_CONTEXT((#931))
GLOBAL_UNIT_ASSIGNED_CONTEXT((#934,#937,#936))
REPRESENTATION_CONTEXT('','3D')
);
#934=(
LENGTH_UNIT()
NAMED_UNIT(*)
SI_UNIT(.MILLI.,.METRE.)
);
#935=(
LENGTH_UNIT()
NAMED_UNIT(*)
SI_UNIT($,.METRE.)
);
#936=(
NAMED_UNIT(*)
SI_UNIT($,.STERADIAN.)
SOLID_ANGLE_UNIT()
);
#937=(
NAMED_UNIT(*)
PLANE_ANGLE_UNIT()
SI_UNIT($,.RADIAN.)
);
#938=SHAPE_DEFINITION_REPRESENTATION(#939,#940);
#939=PRODUCT_DEFINITION_SHAPE('',$,#942);
#940=SHAPE_REPRESENTATION('',(#598),#932);
#941=PRODUCT_DEFINITION_CONTEXT('part definition',#946,'design');
#942=PRODUCT_DEFINITION('TopPlate','TopPlate',#943,#941);
#943=PRODUCT_DEFINITION_FORMATION('',$,#948);
#944=PRODUCT_RELATED_PRODUCT_CATEGORY('TopPlate','TopPlate',(#948));
#945=APPLICATION_PROTOCOL_DEFINITION('international standard',
'automotive_design',2009,#946);
#946=APPLICATION_CONTEXT(
'Core Data for Automotive Mechanical Design Process');
#947=PRODUCT_CONTEXT('part definition',#946,'mechanical');
#948=PRODUCT('TopPlate','TopPlate',$,(#947));
#949=PRESENTATION_STYLE_ASSIGNMENT((#950));
#950=SURFACE_STYLE_USAGE(.BOTH.,#951);
#951=SURFACE_SIDE_STYLE('',(#952));
#952=SURFACE_STYLE_FILL_AREA(#953);
#953=FILL_AREA_STYLE('Steel - Satin',(#954));
#954=FILL_AREA_STYLE_COLOUR('Steel - Satin',#955);
#955=COLOUR_RGB('Steel - Satin',0.627450980392157,0.627450980392157,0.627450980392157);
ENDSEC;
END-ISO-10303-21;
